\relax 
\providecommand\hyper@newdestlabel[2]{}
\bibstyle{plainnat}
\providecommand\HyperFirstAtBeginDocument{\AtBeginDocument}
\HyperFirstAtBeginDocument{\ifx\hyper@anchor\@undefined
\global\let\oldcontentsline\contentsline
\gdef\contentsline#1#2#3#4{\oldcontentsline{#1}{#2}{#3}}
\global\let\oldnewlabel\newlabel
\gdef\newlabel#1#2{\newlabelxx{#1}#2}
\gdef\newlabelxx#1#2#3#4#5#6{\oldnewlabel{#1}{{#2}{#3}}}
\AtEndDocument{\ifx\hyper@anchor\@undefined
\let\contentsline\oldcontentsline
\let\newlabel\oldnewlabel
\fi}
\fi}
\global\let\hyper@last\relax 
\gdef\HyperFirstAtBeginDocument#1{#1}
\providecommand\HyField@AuxAddToFields[1]{}
\providecommand\HyField@AuxAddToCoFields[2]{}
\select@language{UKenglish}
\@writefile{toc}{\select@language{UKenglish}}
\@writefile{lof}{\select@language{UKenglish}}
\@writefile{lot}{\select@language{UKenglish}}
\newlabel{poisson}{{{\ensuremath  {\mathcal  {P}}}}{1}{Poisson-probleem}{AMS.2}{}}
\newlabel{poisson-disc}{{1}{1}{Poisson-probleem}{equation.0.1}{}}
\@writefile{lof}{\contentsline {figure}{\numberline {1}{\ignorespaces De eigenvectoren van de Jacobi-iteratie (of gewogen Jacobi met $\omega =1$). Merk op dat de eigenvectoren zogenaamde {\it  staande} golven zijn op het interval [0,1]. Ze zijn, op een normalisatie na, $\qopname  \relax o{sin}(k \pi x)$ met $k=1,\ldots  , 8$. }}{8}{figure.1}}
\newlabel{vraag_3b}{{1}{8}{De eigenvectoren van de Jacobi-iteratie (of gewogen Jacobi met $\omega =1$). Merk op dat de eigenvectoren zogenaamde {\it staande} golven zijn op het interval [0,1]. Ze zijn, op een normalisatie na, $\sin (k \pi x)$ met $k=1,\ldots , 8$}{figure.1}{}}
\@writefile{lof}{\contentsline {figure}{\numberline {2}{\ignorespaces Het verloop van de norm van het residu voor verschillende rechterhanden $f$. }}{9}{figure.2}}
\newlabel{vraag_3d_res}{{2}{9}{Het verloop van de norm van het residu voor verschillende rechterhanden $f$}{figure.2}{}}
