%!PS-Adobe-3.0 EPSF-3.0
%%Creator: MATLAB, The Mathworks, Inc. Version 7.4.0.287 (R2007a). Operating System: Microsoft Windows XP.
%%Title: D:\Work\Courses\Iteratieve methoden voor het oplossen van stelsels en eigenwaardeproblemen\trunk\oefeningen\oef_2\vraag_4d_opl.eps
%%CreationDate: 03/05/2008  10:51:04
%%DocumentNeededFonts: Helvetica
%%DocumentProcessColors: Cyan Magenta Yellow Black
%%LanguageLevel: 2
%%Pages: 1
%%BoundingBox:  -126    75   721   766
%%EndComments

%%BeginProlog
% MathWorks dictionary
/MathWorks 160 dict begin
% definition operators
/bdef {bind def} bind def
/ldef {load def} bind def
/xdef {exch def} bdef
/xstore {exch store} bdef
% operator abbreviations
/c  /clip ldef
/cc /concat ldef
/cp /closepath ldef
/gr /grestore ldef
/gs /gsave ldef
/mt /moveto ldef
/np /newpath ldef
/cm /currentmatrix ldef
/sm /setmatrix ldef
/rm /rmoveto ldef
/rl /rlineto ldef
/s {show newpath} bdef
/sc {setcmykcolor} bdef
/sr /setrgbcolor ldef
/sg /setgray ldef
/w /setlinewidth ldef
/j /setlinejoin ldef
/cap /setlinecap ldef
/rc {rectclip} bdef
/rf {rectfill} bdef
% page state control
/pgsv () def
/bpage {/pgsv save def} bdef
/epage {pgsv restore} bdef
/bplot /gsave ldef
/eplot {stroke grestore} bdef
% orientation switch
/portraitMode 0 def /landscapeMode 1 def /rotateMode 2 def
% coordinate system mappings
/dpi2point 0 def
% font control
/FontSize 0 def
/FMS {/FontSize xstore findfont [FontSize 0 0 FontSize neg 0 0]
  makefont setfont} bdef
/ISOLatin1Encoding where {pop /WindowsLatin1Encoding 256 array bdef
ISOLatin1Encoding WindowsLatin1Encoding copy pop
/.notdef/.notdef/quotesinglbase/florin/quotedblbase/ellipsis/dagger
/daggerdbl/circumflex/perthousand/Scaron/guilsinglleft/OE/.notdef/.notdef
/.notdef/.notdef/quoteleft/quoteright/quotedblleft/quotedblright/bullet
/endash/emdash/tilde/trademark/scaron/guilsinglright/oe/.notdef/.notdef
/Ydieresis WindowsLatin1Encoding 128 32 getinterval astore pop}
{/WindowsLatin1Encoding StandardEncoding bdef} ifelse
/reencode {exch dup where {pop load} {pop StandardEncoding} ifelse
  exch dup 3 1 roll findfont dup length dict begin
  { 1 index /FID ne {def}{pop pop} ifelse } forall
  /Encoding exch def currentdict end definefont pop} bdef
/isroman {findfont /CharStrings get /Agrave known} bdef
/FMSR {3 1 roll 1 index dup isroman {reencode} {pop pop} ifelse
  exch FMS} bdef
/csm {1 dpi2point div -1 dpi2point div scale neg translate
 dup landscapeMode eq {pop -90 rotate}
  {rotateMode eq {90 rotate} if} ifelse} bdef
% line types: solid, dotted, dashed, dotdash
/SO { [] 0 setdash } bdef
/DO { [.5 dpi2point mul 4 dpi2point mul] 0 setdash } bdef
/DA { [6 dpi2point mul] 0 setdash } bdef
/DD { [.5 dpi2point mul 4 dpi2point mul 6 dpi2point mul 4
  dpi2point mul] 0 setdash } bdef
% macros for lines and objects
/L {lineto stroke} bdef
/MP {3 1 roll moveto 1 sub {rlineto} repeat} bdef
/AP {{rlineto} repeat} bdef
/PDlw -1 def
/W {/PDlw currentlinewidth def setlinewidth} def
/PP {closepath eofill} bdef
/DP {closepath stroke} bdef
/MR {4 -2 roll moveto dup  0 exch rlineto exch 0 rlineto
  neg 0 exch rlineto closepath} bdef
/FR {MR stroke} bdef
/PR {MR fill} bdef
/L1i {{currentfile picstr readhexstring pop} image} bdef
/tMatrix matrix def
/MakeOval {newpath tMatrix currentmatrix pop translate scale
0 0 1 0 360 arc tMatrix setmatrix} bdef
/FO {MakeOval stroke} bdef
/PO {MakeOval fill} bdef
/PD {currentlinewidth 2 div 0 360 arc fill
   PDlw -1 eq not {PDlw w /PDlw -1 def} if} def
/FA {newpath tMatrix currentmatrix pop translate scale
  0 0 1 5 -2 roll arc tMatrix setmatrix stroke} bdef
/PA {newpath tMatrix currentmatrix pop	translate 0 0 moveto scale
  0 0 1 5 -2 roll arc closepath tMatrix setmatrix fill} bdef
/FAn {newpath tMatrix currentmatrix pop translate scale
  0 0 1 5 -2 roll arcn tMatrix setmatrix stroke} bdef
/PAn {newpath tMatrix currentmatrix pop translate 0 0 moveto scale
  0 0 1 5 -2 roll arcn closepath tMatrix setmatrix fill} bdef
/vradius 0 def /hradius 0 def /lry 0 def
/lrx 0 def /uly 0 def /ulx 0 def /rad 0 def
/MRR {/vradius xdef /hradius xdef /lry xdef /lrx xdef /uly xdef
  /ulx xdef newpath tMatrix currentmatrix pop ulx hradius add uly
  vradius add translate hradius vradius scale 0 0 1 180 270 arc 
  tMatrix setmatrix lrx hradius sub uly vradius add translate
  hradius vradius scale 0 0 1 270 360 arc tMatrix setmatrix
  lrx hradius sub lry vradius sub translate hradius vradius scale
  0 0 1 0 90 arc tMatrix setmatrix ulx hradius add lry vradius sub
  translate hradius vradius scale 0 0 1 90 180 arc tMatrix setmatrix
  closepath} bdef
/FRR {MRR stroke } bdef
/PRR {MRR fill } bdef
/MlrRR {/lry xdef /lrx xdef /uly xdef /ulx xdef /rad lry uly sub 2 div def
  newpath tMatrix currentmatrix pop ulx rad add uly rad add translate
  rad rad scale 0 0 1 90 270 arc tMatrix setmatrix lrx rad sub lry rad
  sub translate rad rad scale 0 0 1 270 90 arc tMatrix setmatrix
  closepath} bdef
/FlrRR {MlrRR stroke } bdef
/PlrRR {MlrRR fill } bdef
/MtbRR {/lry xdef /lrx xdef /uly xdef /ulx xdef /rad lrx ulx sub 2 div def
  newpath tMatrix currentmatrix pop ulx rad add uly rad add translate
  rad rad scale 0 0 1 180 360 arc tMatrix setmatrix lrx rad sub lry rad
  sub translate rad rad scale 0 0 1 0 180 arc tMatrix setmatrix
  closepath} bdef
/FtbRR {MtbRR stroke } bdef
/PtbRR {MtbRR fill } bdef
/stri 6 array def /dtri 6 array def
/smat 6 array def /dmat 6 array def
/tmat1 6 array def /tmat2 6 array def /dif 3 array def
/asub {/ind2 exch def /ind1 exch def dup dup
  ind1 get exch ind2 get sub exch } bdef
/tri_to_matrix {
  2 0 asub 3 1 asub 4 0 asub 5 1 asub
  dup 0 get exch 1 get 7 -1 roll astore } bdef
/compute_transform {
  dmat dtri tri_to_matrix tmat1 invertmatrix 
  smat stri tri_to_matrix tmat2 concatmatrix } bdef
/ds {stri astore pop} bdef
/dt {dtri astore pop} bdef
/db {2 copy /cols xdef /rows xdef mul dup 3 mul string
  currentfile 
  3 index 0 eq {/ASCIIHexDecode filter}
  {/ASCII85Decode filter 3 index 2 eq {/RunLengthDecode filter} if }
  ifelse exch readstring pop
  dup 0 3 index getinterval /rbmap xdef
  dup 2 index dup getinterval /gbmap xdef
  1 index dup 2 mul exch getinterval /bbmap xdef pop pop}bdef
/it {gs np dtri aload pop moveto lineto lineto cp c
  cols rows 8 compute_transform 
  rbmap gbmap bbmap true 3 colorimage gr}bdef
/il {newpath moveto lineto stroke}bdef
currentdict end def
%%EndProlog

%%BeginSetup
MathWorks begin

0 cap

end
%%EndSetup

%%Page: 1 1
%%BeginPageSetup
%%PageBoundingBox:  -126    75   721   766
MathWorks begin
bpage
%%EndPageSetup

%%BeginObject: obj1
bplot

/dpi2point 12 def
portraitMode -1512 9192 csm

    0     0 10169  8284 rc
85 dict begin %Colortable dictionary
/c0 { 0.000000 0.000000 0.000000 sr} bdef
/c1 { 1.000000 1.000000 1.000000 sr} bdef
/c2 { 0.900000 0.000000 0.000000 sr} bdef
/c3 { 0.000000 0.820000 0.000000 sr} bdef
/c4 { 0.000000 0.000000 0.800000 sr} bdef
/c5 { 0.910000 0.820000 0.320000 sr} bdef
/c6 { 1.000000 0.260000 0.820000 sr} bdef
/c7 { 0.000000 0.820000 0.820000 sr} bdef
c0
1 j
1 sg
   0    0 10170 8285 rf
6 w
0 2826 3403 0 0 -2826 1322 3447 4 MP
PP
-3403 0 0 2826 3403 0 0 -2826 1322 3447 5 MP stroke
4 w
DO
0 sg
1322 3447 mt 1322  621 L
1322  621 mt 1322  621 L
2002 3447 mt 2002  621 L
2002  621 mt 2002  621 L
2683 3447 mt 2683  621 L
2683  621 mt 2683  621 L
3363 3447 mt 3363  621 L
3363  621 mt 3363  621 L
4044 3447 mt 4044  621 L
4044  621 mt 4044  621 L
4725 3447 mt 4725  621 L
4725  621 mt 4725  621 L
1322 3447 mt 4725 3447 L
4725 3447 mt 4725 3447 L
1322 2976 mt 4725 2976 L
4725 2976 mt 4725 2976 L
1322 2505 mt 4725 2505 L
4725 2505 mt 4725 2505 L
1322 2034 mt 4725 2034 L
4725 2034 mt 4725 2034 L
1322 1562 mt 4725 1562 L
4725 1562 mt 4725 1562 L
1322 1092 mt 4725 1092 L
4725 1092 mt 4725 1092 L
1322  621 mt 4725  621 L
4725  621 mt 4725  621 L
SO
6 w
1322  621 mt 4725  621 L
1322 3447 mt 4725 3447 L
4725 3447 mt 4725  621 L
1322 3447 mt 1322  621 L
1322 3447 mt 4725 3447 L
1322 3447 mt 1322  621 L
1322 3447 mt 1322 3412 L
1322  621 mt 1322  655 L
%%IncludeResource: font Helvetica
/Helvetica /WindowsLatin1Encoding 120 FMSR

1289 3592 mt 
(0) s
2002 3447 mt 2002 3412 L
2002  621 mt 2002  655 L
1919 3592 mt 
(0.2) s
2683 3447 mt 2683 3412 L
2683  621 mt 2683  655 L
2600 3592 mt 
(0.4) s
3363 3447 mt 3363 3412 L
3363  621 mt 3363  655 L
3280 3592 mt 
(0.6) s
4044 3447 mt 4044 3412 L
4044  621 mt 4044  655 L
3961 3592 mt 
(0.8) s
4725 3447 mt 4725 3412 L
4725  621 mt 4725  655 L
4692 3592 mt 
(1) s
1322 3447 mt 1356 3447 L
4725 3447 mt 4690 3447 L
1221 3491 mt 
(0) s
1322 2976 mt 1356 2976 L
4725 2976 mt 4690 2976 L
1054 3020 mt 
(0.02) s
1322 2505 mt 1356 2505 L
4725 2505 mt 4690 2505 L
1054 2549 mt 
(0.04) s
1322 2034 mt 1356 2034 L
4725 2034 mt 4690 2034 L
1054 2078 mt 
(0.06) s
1322 1562 mt 1356 1562 L
4725 1562 mt 4690 1562 L
1054 1606 mt 
(0.08) s
1322 1092 mt 1356 1092 L
4725 1092 mt 4690 1092 L
1121 1136 mt 
(0.1) s
1322  621 mt 1356  621 L
4725  621 mt 4690  621 L
1054  665 mt 
(0.12) s
1322  621 mt 4725  621 L
1322 3447 mt 4725 3447 L
4725 3447 mt 4725  621 L
1322 3447 mt 1322  621 L
gs 1322 621 3404 2827 rc
17 37 17 37 17 38 17 37 17 37 17 37 17 37 17 37 
17 37 17 37 17 36 17 37 17 36 16 37 17 36 17 36 
17 36 17 36 17 35 17 36 17 35 17 35 17 35 17 34 
17 35 17 34 17 34 16 33 17 34 17 33 17 33 17 32 
17 33 17 32 17 31 17 32 17 31 17 31 17 30 17 30 
17 30 17 29 16 29 17 29 17 28 17 28 17 27 17 27 
17 27 17 26 17 26 17 26 17 25 17 24 17 24 17 24 
16 23 17 23 17 22 17 22 17 21 17 21 17 21 17 20 
17 19 17 19 17 18 17 18 17 18 17 16 16 17 17 16 
17 15 17 15 17 14 17 13 17 14 17 12 17 12 17 12 
17 11 17 10 17 10 17 9 17 9 16 8 17 7 17 7 
17 7 17 5 17 6 17 4 17 4 17 4 17 3 17 2 
17 2 17 1 17 1 16 0 17 -1 17 -1 17 -2 17 -2 
17 -3 17 -4 17 -4 17 -4 17 -6 17 -5 17 -7 17 -7 
17 -7 16 -8 17 -9 17 -9 17 -10 17 -10 17 -11 17 -12 
17 -12 17 -12 17 -14 17 -13 17 -14 17 -15 17 -15 17 -16 
16 -17 17 -16 17 -18 17 -18 17 -18 17 -19 17 -19 17 -20 
17 -21 17 -21 17 -21 17 -22 17 -22 17 -23 16 -23 17 -24 
17 -24 17 -24 17 -25 17 -26 17 -26 17 -26 17 -27 17 -27 
17 -27 17 -28 17 -28 17 -29 16 -29 17 -29 17 -30 17 -30 
17 -30 17 -31 17 -31 17 -32 17 -31 17 -32 17 -33 17 -32 
17 -33 17 -33 17 -34 16 -33 17 -34 17 -34 17 -35 17 -34 
17 -35 17 -35 17 -35 17 -36 17 -35 17 -36 17 -36 17 -36 
17 -36 16 -37 17 -36 17 -37 17 -36 17 -37 17 -37 17 -37 
17 -37 17 -37 17 -37 17 -37 17 -38 17 -37 17 -37 1338 3409 200 MP stroke
gr

1313 3384 mt 1363 3434 L
1363 3384 mt 1313 3434 L
1330 3347 mt 1380 3397 L
1380 3347 mt 1330 3397 L
1347 3310 mt 1397 3360 L
1397 3310 mt 1347 3360 L
1364 3272 mt 1414 3322 L
1414 3272 mt 1364 3322 L
1381 3235 mt 1431 3285 L
1431 3235 mt 1381 3285 L
1398 3198 mt 1448 3248 L
1448 3198 mt 1398 3248 L
1415 3161 mt 1465 3211 L
1465 3161 mt 1415 3211 L
1432 3124 mt 1482 3174 L
1482 3124 mt 1432 3174 L
1449 3087 mt 1499 3137 L
1499 3087 mt 1449 3137 L
1466 3050 mt 1516 3100 L
1516 3050 mt 1466 3100 L
1483 3013 mt 1533 3063 L
1533 3013 mt 1483 3063 L
1500 2977 mt 1550 3027 L
1550 2977 mt 1500 3027 L
1517 2940 mt 1567 2990 L
1567 2940 mt 1517 2990 L
1534 2904 mt 1584 2954 L
1584 2904 mt 1534 2954 L
1550 2867 mt 1600 2917 L
1600 2867 mt 1550 2917 L
1567 2831 mt 1617 2881 L
1617 2831 mt 1567 2881 L
1584 2795 mt 1634 2845 L
1634 2795 mt 1584 2845 L
1601 2759 mt 1651 2809 L
1651 2759 mt 1601 2809 L
1618 2723 mt 1668 2773 L
1668 2723 mt 1618 2773 L
1635 2688 mt 1685 2738 L
1685 2688 mt 1635 2738 L
1652 2652 mt 1702 2702 L
1702 2652 mt 1652 2702 L
1669 2617 mt 1719 2667 L
1719 2617 mt 1669 2667 L
1686 2582 mt 1736 2632 L
1736 2582 mt 1686 2632 L
1703 2547 mt 1753 2597 L
1753 2547 mt 1703 2597 L
1720 2513 mt 1770 2563 L
1770 2513 mt 1720 2563 L
1737 2478 mt 1787 2528 L
1787 2478 mt 1737 2528 L
1754 2444 mt 1804 2494 L
1804 2444 mt 1754 2494 L
1771 2410 mt 1821 2460 L
1821 2410 mt 1771 2460 L
1787 2377 mt 1837 2427 L
1837 2377 mt 1787 2427 L
1804 2343 mt 1854 2393 L
1854 2343 mt 1804 2393 L
1821 2310 mt 1871 2360 L
1871 2310 mt 1821 2360 L
1838 2277 mt 1888 2327 L
1888 2277 mt 1838 2327 L
1855 2245 mt 1905 2295 L
1905 2245 mt 1855 2295 L
1872 2212 mt 1922 2262 L
1922 2212 mt 1872 2262 L
1889 2180 mt 1939 2230 L
1939 2180 mt 1889 2230 L
1906 2149 mt 1956 2199 L
1956 2149 mt 1906 2199 L
1923 2117 mt 1973 2167 L
1973 2117 mt 1923 2167 L
1940 2086 mt 1990 2136 L
1990 2086 mt 1940 2136 L
1957 2055 mt 2007 2105 L
2007 2055 mt 1957 2105 L
1974 2025 mt 2024 2075 L
2024 2025 mt 1974 2075 L
1991 1995 mt 2041 2045 L
2041 1995 mt 1991 2045 L
2008 1965 mt 2058 2015 L
2058 1965 mt 2008 2015 L
2025 1936 mt 2075 1986 L
2075 1936 mt 2025 1986 L
2041 1907 mt 2091 1957 L
2091 1907 mt 2041 1957 L
2058 1878 mt 2108 1928 L
2108 1878 mt 2058 1928 L
2075 1850 mt 2125 1900 L
2125 1850 mt 2075 1900 L
2092 1822 mt 2142 1872 L
2142 1822 mt 2092 1872 L
2109 1795 mt 2159 1845 L
2159 1795 mt 2109 1845 L
2126 1768 mt 2176 1818 L
2176 1768 mt 2126 1818 L
2143 1741 mt 2193 1791 L
2193 1741 mt 2143 1791 L
2160 1715 mt 2210 1765 L
2210 1715 mt 2160 1765 L
2177 1689 mt 2227 1739 L
2227 1689 mt 2177 1739 L
2194 1663 mt 2244 1713 L
2244 1663 mt 2194 1713 L
2211 1638 mt 2261 1688 L
2261 1638 mt 2211 1688 L
2228 1614 mt 2278 1664 L
2278 1614 mt 2228 1664 L
2245 1590 mt 2295 1640 L
2295 1590 mt 2245 1640 L
2262 1566 mt 2312 1616 L
2312 1566 mt 2262 1616 L
2278 1543 mt 2328 1593 L
2328 1543 mt 2278 1593 L
2295 1520 mt 2345 1570 L
2345 1520 mt 2295 1570 L
2312 1498 mt 2362 1548 L
2362 1498 mt 2312 1548 L
2329 1476 mt 2379 1526 L
2379 1476 mt 2329 1526 L
2346 1455 mt 2396 1505 L
2396 1455 mt 2346 1505 L
2363 1434 mt 2413 1484 L
2413 1434 mt 2363 1484 L
2380 1413 mt 2430 1463 L
2430 1413 mt 2380 1463 L
2397 1393 mt 2447 1443 L
2447 1393 mt 2397 1443 L
2414 1374 mt 2464 1424 L
2464 1374 mt 2414 1424 L
2431 1355 mt 2481 1405 L
2481 1355 mt 2431 1405 L
2448 1337 mt 2498 1387 L
2498 1337 mt 2448 1387 L
2465 1319 mt 2515 1369 L
2515 1319 mt 2465 1369 L
2482 1301 mt 2532 1351 L
2532 1301 mt 2482 1351 L
2499 1285 mt 2549 1335 L
2549 1285 mt 2499 1335 L
2515 1268 mt 2565 1318 L
2565 1268 mt 2515 1318 L
2532 1252 mt 2582 1302 L
2582 1252 mt 2532 1302 L
2549 1237 mt 2599 1287 L
2599 1237 mt 2549 1287 L
2566 1222 mt 2616 1272 L
2616 1222 mt 2566 1272 L
2583 1208 mt 2633 1258 L
2633 1208 mt 2583 1258 L
2600 1195 mt 2650 1245 L
2650 1195 mt 2600 1245 L
2617 1181 mt 2667 1231 L
2667 1181 mt 2617 1231 L
2634 1169 mt 2684 1219 L
2684 1169 mt 2634 1219 L
2651 1157 mt 2701 1207 L
2701 1157 mt 2651 1207 L
2668 1145 mt 2718 1195 L
2718 1145 mt 2668 1195 L
2685 1134 mt 2735 1184 L
2735 1134 mt 2685 1184 L
2702 1124 mt 2752 1174 L
2752 1124 mt 2702 1174 L
2719 1114 mt 2769 1164 L
2769 1114 mt 2719 1164 L
2736 1105 mt 2786 1155 L
2786 1105 mt 2736 1155 L
2753 1096 mt 2803 1146 L
2803 1096 mt 2753 1146 L
2769 1088 mt 2819 1138 L
2819 1088 mt 2769 1138 L
2786 1081 mt 2836 1131 L
2836 1081 mt 2786 1131 L
2803 1074 mt 2853 1124 L
2853 1074 mt 2803 1124 L
2820 1067 mt 2870 1117 L
2870 1067 mt 2820 1117 L
2837 1062 mt 2887 1112 L
2887 1062 mt 2837 1112 L
2854 1056 mt 2904 1106 L
2904 1056 mt 2854 1106 L
2871 1052 mt 2921 1102 L
2921 1052 mt 2871 1102 L
2888 1048 mt 2938 1098 L
2938 1048 mt 2888 1098 L
2905 1044 mt 2955 1094 L
2955 1044 mt 2905 1094 L
2922 1041 mt 2972 1091 L
2972 1041 mt 2922 1091 L
2939 1039 mt 2989 1089 L
2989 1039 mt 2939 1089 L
2956 1037 mt 3006 1087 L
3006 1037 mt 2956 1087 L
2973 1036 mt 3023 1086 L
3023 1036 mt 2973 1086 L
2990 1035 mt 3040 1085 L
3040 1035 mt 2990 1085 L
3006 1035 mt 3056 1085 L
3056 1035 mt 3006 1085 L
3023 1036 mt 3073 1086 L
3073 1036 mt 3023 1086 L
3040 1037 mt 3090 1087 L
3090 1037 mt 3040 1087 L
3057 1039 mt 3107 1089 L
3107 1039 mt 3057 1089 L
3074 1041 mt 3124 1091 L
3124 1041 mt 3074 1091 L
3091 1044 mt 3141 1094 L
3141 1044 mt 3091 1094 L
3108 1048 mt 3158 1098 L
3158 1048 mt 3108 1098 L
3125 1052 mt 3175 1102 L
3175 1052 mt 3125 1102 L
3142 1056 mt 3192 1106 L
3192 1056 mt 3142 1106 L
3159 1062 mt 3209 1112 L
3209 1062 mt 3159 1112 L
3176 1067 mt 3226 1117 L
3226 1067 mt 3176 1117 L
3193 1074 mt 3243 1124 L
3243 1074 mt 3193 1124 L
3210 1081 mt 3260 1131 L
3260 1081 mt 3210 1131 L
3227 1088 mt 3277 1138 L
3277 1088 mt 3227 1138 L
3243 1096 mt 3293 1146 L
3293 1096 mt 3243 1146 L
3260 1105 mt 3310 1155 L
3310 1105 mt 3260 1155 L
3277 1114 mt 3327 1164 L
3327 1114 mt 3277 1164 L
3294 1124 mt 3344 1174 L
3344 1124 mt 3294 1174 L
3311 1134 mt 3361 1184 L
3361 1134 mt 3311 1184 L
3328 1145 mt 3378 1195 L
3378 1145 mt 3328 1195 L
3345 1157 mt 3395 1207 L
3395 1157 mt 3345 1207 L
3362 1169 mt 3412 1219 L
3412 1169 mt 3362 1219 L
3379 1181 mt 3429 1231 L
3429 1181 mt 3379 1231 L
3396 1195 mt 3446 1245 L
3446 1195 mt 3396 1245 L
3413 1208 mt 3463 1258 L
3463 1208 mt 3413 1258 L
3430 1222 mt 3480 1272 L
3480 1222 mt 3430 1272 L
3447 1237 mt 3497 1287 L
3497 1237 mt 3447 1287 L
3464 1252 mt 3514 1302 L
3514 1252 mt 3464 1302 L
3481 1268 mt 3531 1318 L
3531 1268 mt 3481 1318 L
3497 1285 mt 3547 1335 L
3547 1285 mt 3497 1335 L
3514 1301 mt 3564 1351 L
3564 1301 mt 3514 1351 L
3531 1319 mt 3581 1369 L
3581 1319 mt 3531 1369 L
3548 1337 mt 3598 1387 L
3598 1337 mt 3548 1387 L
3565 1355 mt 3615 1405 L
3615 1355 mt 3565 1405 L
3582 1374 mt 3632 1424 L
3632 1374 mt 3582 1424 L
3599 1393 mt 3649 1443 L
3649 1393 mt 3599 1443 L
3616 1413 mt 3666 1463 L
3666 1413 mt 3616 1463 L
3633 1434 mt 3683 1484 L
3683 1434 mt 3633 1484 L
3650 1455 mt 3700 1505 L
3700 1455 mt 3650 1505 L
3667 1476 mt 3717 1526 L
3717 1476 mt 3667 1526 L
3684 1498 mt 3734 1548 L
3734 1498 mt 3684 1548 L
3701 1520 mt 3751 1570 L
3751 1520 mt 3701 1570 L
3718 1543 mt 3768 1593 L
3768 1543 mt 3718 1593 L
3734 1566 mt 3784 1616 L
3784 1566 mt 3734 1616 L
3751 1590 mt 3801 1640 L
3801 1590 mt 3751 1640 L
3768 1614 mt 3818 1664 L
3818 1614 mt 3768 1664 L
3785 1638 mt 3835 1688 L
3835 1638 mt 3785 1688 L
3802 1663 mt 3852 1713 L
3852 1663 mt 3802 1713 L
3819 1689 mt 3869 1739 L
3869 1689 mt 3819 1739 L
3836 1715 mt 3886 1765 L
3886 1715 mt 3836 1765 L
3853 1741 mt 3903 1791 L
3903 1741 mt 3853 1791 L
3870 1768 mt 3920 1818 L
3920 1768 mt 3870 1818 L
3887 1795 mt 3937 1845 L
3937 1795 mt 3887 1845 L
3904 1822 mt 3954 1872 L
3954 1822 mt 3904 1872 L
3921 1850 mt 3971 1900 L
3971 1850 mt 3921 1900 L
3938 1878 mt 3988 1928 L
3988 1878 mt 3938 1928 L
3955 1907 mt 4005 1957 L
4005 1907 mt 3955 1957 L
3971 1936 mt 4021 1986 L
4021 1936 mt 3971 1986 L
3988 1965 mt 4038 2015 L
4038 1965 mt 3988 2015 L
4005 1995 mt 4055 2045 L
4055 1995 mt 4005 2045 L
4022 2025 mt 4072 2075 L
4072 2025 mt 4022 2075 L
4039 2055 mt 4089 2105 L
4089 2055 mt 4039 2105 L
4056 2086 mt 4106 2136 L
4106 2086 mt 4056 2136 L
4073 2117 mt 4123 2167 L
4123 2117 mt 4073 2167 L
4090 2149 mt 4140 2199 L
4140 2149 mt 4090 2199 L
4107 2180 mt 4157 2230 L
4157 2180 mt 4107 2230 L
4124 2212 mt 4174 2262 L
4174 2212 mt 4124 2262 L
4141 2245 mt 4191 2295 L
4191 2245 mt 4141 2295 L
4158 2277 mt 4208 2327 L
4208 2277 mt 4158 2327 L
4175 2310 mt 4225 2360 L
4225 2310 mt 4175 2360 L
4192 2343 mt 4242 2393 L
4242 2343 mt 4192 2393 L
4209 2377 mt 4259 2427 L
4259 2377 mt 4209 2427 L
4225 2410 mt 4275 2460 L
4275 2410 mt 4225 2460 L
4242 2444 mt 4292 2494 L
4292 2444 mt 4242 2494 L
4259 2478 mt 4309 2528 L
4309 2478 mt 4259 2528 L
4276 2513 mt 4326 2563 L
4326 2513 mt 4276 2563 L
4293 2547 mt 4343 2597 L
4343 2547 mt 4293 2597 L
4310 2582 mt 4360 2632 L
4360 2582 mt 4310 2632 L
4327 2617 mt 4377 2667 L
4377 2617 mt 4327 2667 L
4344 2652 mt 4394 2702 L
4394 2652 mt 4344 2702 L
4361 2688 mt 4411 2738 L
4411 2688 mt 4361 2738 L
4378 2723 mt 4428 2773 L
4428 2723 mt 4378 2773 L
4395 2759 mt 4445 2809 L
4445 2759 mt 4395 2809 L
4412 2795 mt 4462 2845 L
4462 2795 mt 4412 2845 L
4429 2831 mt 4479 2881 L
4479 2831 mt 4429 2881 L
4446 2867 mt 4496 2917 L
4496 2867 mt 4446 2917 L
4462 2904 mt 4512 2954 L
4512 2904 mt 4462 2954 L
4479 2940 mt 4529 2990 L
4529 2940 mt 4479 2990 L
4496 2977 mt 4546 3027 L
4546 2977 mt 4496 3027 L
4513 3013 mt 4563 3063 L
4563 3013 mt 4513 3063 L
4530 3050 mt 4580 3100 L
4580 3050 mt 4530 3100 L
4547 3087 mt 4597 3137 L
4597 3087 mt 4547 3137 L
4564 3124 mt 4614 3174 L
4614 3124 mt 4564 3174 L
4581 3161 mt 4631 3211 L
4631 3161 mt 4581 3211 L
4598 3198 mt 4648 3248 L
4648 3198 mt 4598 3248 L
4615 3235 mt 4665 3285 L
4665 3235 mt 4615 3285 L
4632 3272 mt 4682 3322 L
4682 3272 mt 4632 3322 L
4649 3310 mt 4699 3360 L
4699 3310 mt 4649 3360 L
4666 3347 mt 4716 3397 L
4716 3347 mt 4666 3397 L
4683 3384 mt 4733 3434 L
4733 3384 mt 4683 3434 L
gs 1322 621 3404 2827 rc
/c8 { 0.000000 0.000000 1.000000 sr} bdef
c8
17 17 17 17 17 17 17 17 17 17 17 17 17 17 17 16 
17 17 17 17 17 17 17 17 17 16 16 17 17 16 17 17 
17 16 17 17 17 16 17 16 17 16 17 16 17 16 17 16 
17 16 17 15 17 16 16 15 17 15 17 15 17 16 17 14 
17 15 17 15 17 14 17 15 17 14 17 14 17 14 17 14 
17 13 17 14 16 13 17 13 17 13 17 13 17 12 17 12 
17 13 17 12 17 11 17 12 17 12 17 11 17 11 17 11 
16 10 17 11 17 10 17 10 17 10 17 9 17 9 17 9 
17 9 17 9 17 8 17 9 17 8 17 7 16 8 17 7 
17 7 17 7 17 6 17 6 17 6 17 6 17 6 17 5 
17 5 17 5 17 4 17 4 17 4 16 4 17 3 17 4 
17 2 17 3 17 3 17 2 17 1 17 2 17 1 17 1 
17 1 17 1 17 0 16 0 17 0 17 -1 17 -1 17 -1 
17 -1 17 -2 17 -1 17 -2 17 -3 17 -3 17 -2 17 -4 
17 -3 16 -4 17 -4 17 -4 17 -4 17 -5 17 -5 17 -5 
17 -6 17 -6 17 -6 17 -6 17 -6 17 -7 17 -7 17 -7 
16 -8 17 -7 17 -8 17 -9 17 -8 17 -9 17 -9 17 -9 
17 -9 17 -9 17 -10 17 -10 17 -10 17 -11 16 -10 17 -11 
17 -11 17 -11 17 -12 17 -12 17 -11 17 -12 17 -13 17 -12 
17 -12 17 -13 17 -13 17 -13 16 -13 17 -14 17 -13 17 -14 
17 -14 17 -14 17 -14 17 -15 17 -14 17 -15 17 -15 17 -14 
17 -16 17 -15 17 -15 16 -15 17 -16 17 -15 17 -16 17 -16 
17 -16 17 -16 17 -16 17 -16 17 -16 17 -17 17 -16 17 -17 
17 -16 16 -17 17 -16 17 -17 17 -17 17 -17 17 -17 17 -16 
17 -17 17 -17 17 -17 17 -17 17 -17 17 -17 17 -17 1338 3429 200 MP stroke
gr

c8
  36   36 1338 3429 FO
  36   36 1355 3412 FO
  36   36 1372 3395 FO
  36   36 1389 3378 FO
  36   36 1406 3361 FO
  36   36 1423 3344 FO
  36   36 1440 3327 FO
  36   36 1457 3310 FO
  36   36 1474 3294 FO
  36   36 1491 3277 FO
  36   36 1508 3260 FO
  36   36 1525 3243 FO
  36   36 1542 3226 FO
  36   36 1559 3210 FO
  36   36 1575 3193 FO
  36   36 1592 3177 FO
  36   36 1609 3160 FO
  36   36 1626 3144 FO
  36   36 1643 3127 FO
  36   36 1660 3111 FO
  36   36 1677 3095 FO
  36   36 1694 3079 FO
  36   36 1711 3063 FO
  36   36 1728 3047 FO
  36   36 1745 3031 FO
  36   36 1762 3015 FO
  36   36 1779 3000 FO
  36   36 1796 2984 FO
  36   36 1812 2969 FO
  36   36 1829 2954 FO
  36   36 1846 2939 FO
  36   36 1863 2923 FO
  36   36 1880 2909 FO
  36   36 1897 2894 FO
  36   36 1914 2879 FO
  36   36 1931 2865 FO
  36   36 1948 2850 FO
  36   36 1965 2836 FO
  36   36 1982 2822 FO
  36   36 1999 2808 FO
  36   36 2016 2794 FO
  36   36 2033 2781 FO
  36   36 2050 2767 FO
  36   36 2066 2754 FO
  36   36 2083 2741 FO
  36   36 2100 2728 FO
  36   36 2117 2715 FO
  36   36 2134 2703 FO
  36   36 2151 2691 FO
  36   36 2168 2678 FO
  36   36 2185 2666 FO
  36   36 2202 2655 FO
  36   36 2219 2643 FO
  36   36 2236 2631 FO
  36   36 2253 2620 FO
  36   36 2270 2609 FO
  36   36 2287 2598 FO
  36   36 2303 2588 FO
  36   36 2320 2577 FO
  36   36 2337 2567 FO
  36   36 2354 2557 FO
  36   36 2371 2547 FO
  36   36 2388 2538 FO
  36   36 2405 2529 FO
  36   36 2422 2520 FO
  36   36 2439 2511 FO
  36   36 2456 2502 FO
  36   36 2473 2494 FO
  36   36 2490 2485 FO
  36   36 2507 2477 FO
  36   36 2524 2470 FO
  36   36 2540 2462 FO
  36   36 2557 2455 FO
  36   36 2574 2448 FO
  36   36 2591 2441 FO
  36   36 2608 2435 FO
  36   36 2625 2429 FO
  36   36 2642 2423 FO
  36   36 2659 2417 FO
  36   36 2676 2411 FO
  36   36 2693 2406 FO
  36   36 2710 2401 FO
  36   36 2727 2396 FO
  36   36 2744 2392 FO
  36   36 2761 2388 FO
  36   36 2778 2384 FO
  36   36 2794 2380 FO
  36   36 2811 2377 FO
  36   36 2828 2373 FO
  36   36 2845 2371 FO
  36   36 2862 2368 FO
  36   36 2879 2365 FO
  36   36 2896 2363 FO
  36   36 2913 2362 FO
  36   36 2930 2360 FO
  36   36 2947 2359 FO
  36   36 2964 2358 FO
  36   36 2981 2357 FO
  36   36 2998 2356 FO
  36   36 3015 2356 FO
  36   36 3031 2356 FO
  36   36 3048 2356 FO
  36   36 3065 2357 FO
  36   36 3082 2358 FO
  36   36 3099 2359 FO
  36   36 3116 2360 FO
  36   36 3133 2362 FO
  36   36 3150 2363 FO
  36   36 3167 2365 FO
  36   36 3184 2368 FO
  36   36 3201 2371 FO
  36   36 3218 2373 FO
  36   36 3235 2377 FO
  36   36 3252 2380 FO
  36   36 3268 2384 FO
  36   36 3285 2388 FO
  36   36 3302 2392 FO
  36   36 3319 2396 FO
  36   36 3336 2401 FO
  36   36 3353 2406 FO
  36   36 3370 2411 FO
  36   36 3387 2417 FO
  36   36 3404 2423 FO
  36   36 3421 2429 FO
  36   36 3438 2435 FO
  36   36 3455 2441 FO
  36   36 3472 2448 FO
  36   36 3489 2455 FO
  36   36 3506 2462 FO
  36   36 3522 2470 FO
  36   36 3539 2477 FO
  36   36 3556 2485 FO
  36   36 3573 2494 FO
  36   36 3590 2502 FO
  36   36 3607 2511 FO
  36   36 3624 2520 FO
  36   36 3641 2529 FO
  36   36 3658 2538 FO
  36   36 3675 2547 FO
  36   36 3692 2557 FO
  36   36 3709 2567 FO
  36   36 3726 2577 FO
  36   36 3743 2588 FO
  36   36 3759 2598 FO
  36   36 3776 2609 FO
  36   36 3793 2620 FO
  36   36 3810 2631 FO
  36   36 3827 2643 FO
  36   36 3844 2655 FO
  36   36 3861 2666 FO
  36   36 3878 2678 FO
  36   36 3895 2691 FO
  36   36 3912 2703 FO
  36   36 3929 2715 FO
  36   36 3946 2728 FO
  36   36 3963 2741 FO
  36   36 3980 2754 FO
  36   36 3996 2767 FO
  36   36 4013 2781 FO
  36   36 4030 2794 FO
  36   36 4047 2808 FO
  36   36 4064 2822 FO
  36   36 4081 2836 FO
  36   36 4098 2850 FO
  36   36 4115 2865 FO
  36   36 4132 2879 FO
  36   36 4149 2894 FO
  36   36 4166 2909 FO
  36   36 4183 2923 FO
  36   36 4200 2939 FO
  36   36 4217 2954 FO
  36   36 4234 2969 FO
  36   36 4250 2984 FO
  36   36 4267 3000 FO
  36   36 4284 3015 FO
  36   36 4301 3031 FO
  36   36 4318 3047 FO
  36   36 4335 3063 FO
  36   36 4352 3079 FO
  36   36 4369 3095 FO
  36   36 4386 3111 FO
  36   36 4403 3127 FO
  36   36 4420 3144 FO
  36   36 4437 3160 FO
  36   36 4454 3177 FO
  36   36 4471 3193 FO
  36   36 4487 3210 FO
  36   36 4504 3226 FO
  36   36 4521 3243 FO
  36   36 4538 3260 FO
  36   36 4555 3277 FO
  36   36 4572 3294 FO
  36   36 4589 3310 FO
  36   36 4606 3327 FO
  36   36 4623 3344 FO
  36   36 4640 3361 FO
  36   36 4657 3378 FO
  36   36 4674 3395 FO
  36   36 4691 3412 FO
  36   36 4708 3429 FO
gs 1322 621 3404 2827 rc
gr

0 sg
2992 3735 mt 
(x) s
 972 2138 mt  -90 rotate
(u\(x\)) s
90 rotate
2305  518 mt 
(Solution of Au\(x\) = sin\(1) s
%%IncludeResource: font Symbol
/Symbol /WindowsLatin1Encoding 120 FMSR

3585  518 mt 
(p) s
%%IncludeResource: font Helvetica
/Helvetica /WindowsLatin1Encoding 120 FMSR

3650  518 mt 
(x\)) s
1305 3490 mt 
( ) s
4709  663 mt 
( ) s
1 sg
0 334 1363 0 0 -334 3303 1015 4 MP
PP
-1363 0 0 334 1363 0 0 -334 3303 1015 5 MP stroke
4 w
DO
SO
6 w
0 sg
3303  681 mt 4666  681 L
3303 1015 mt 4666 1015 L
4666 1015 mt 4666  681 L
3303 1015 mt 3303  681 L
3303 1015 mt 4666 1015 L
3303 1015 mt 3303  681 L
3303  681 mt 4666  681 L
3303 1015 mt 4666 1015 L
4666 1015 mt 4666  681 L
3303 1015 mt 3303  681 L
3776  816 mt 
(analytic) s
gs 3303 681 1364 335 rc
364 0 3375 773 2 MP stroke
gs 3484 700 147 147 rc
3532  748 mt 3582  798 L
3582  748 mt 3532  798 L
gr

gr

3776  965 mt 
(weighted Jacobi) s
gs 3303 681 1364 335 rc
c8
364 0 3375 922 2 MP stroke
gs 3484 849 147 147 rc
  36   36 3557  922 FO
gr

gr

c8
1 sg
0 2826 3403 0 0 -2826 5800 3447 4 MP
PP
-3403 0 0 2826 3403 0 0 -2826 5800 3447 5 MP stroke
4 w
DO
0 sg
5800 3447 mt 5800  621 L
5800  621 mt 5800  621 L
6480 3447 mt 6480  621 L
6480  621 mt 6480  621 L
7161 3447 mt 7161  621 L
7161  621 mt 7161  621 L
7841 3447 mt 7841  621 L
7841  621 mt 7841  621 L
8522 3447 mt 8522  621 L
8522  621 mt 8522  621 L
9203 3447 mt 9203  621 L
9203  621 mt 9203  621 L
5800 3447 mt 9203 3447 L
9203 3447 mt 9203 3447 L
5800 2976 mt 9203 2976 L
9203 2976 mt 9203 2976 L
5800 2505 mt 9203 2505 L
9203 2505 mt 9203 2505 L
5800 2034 mt 9203 2034 L
9203 2034 mt 9203 2034 L
5800 1562 mt 9203 1562 L
9203 1562 mt 9203 1562 L
5800 1092 mt 9203 1092 L
9203 1092 mt 9203 1092 L
5800  621 mt 9203  621 L
9203  621 mt 9203  621 L
SO
6 w
5800  621 mt 9203  621 L
5800 3447 mt 9203 3447 L
9203 3447 mt 9203  621 L
5800 3447 mt 5800  621 L
5800 3447 mt 9203 3447 L
5800 3447 mt 5800  621 L
5800 3447 mt 5800 3412 L
5800  621 mt 5800  655 L
5767 3592 mt 
(0) s
6480 3447 mt 6480 3412 L
6480  621 mt 6480  655 L
6397 3592 mt 
(0.2) s
7161 3447 mt 7161 3412 L
7161  621 mt 7161  655 L
7078 3592 mt 
(0.4) s
7841 3447 mt 7841 3412 L
7841  621 mt 7841  655 L
7758 3592 mt 
(0.6) s
8522 3447 mt 8522 3412 L
8522  621 mt 8522  655 L
8439 3592 mt 
(0.8) s
9203 3447 mt 9203 3412 L
9203  621 mt 9203  655 L
9170 3592 mt 
(1) s
5800 3447 mt 5834 3447 L
9203 3447 mt 9168 3447 L
5462 3491 mt 
(-0.03) s
5800 2976 mt 5834 2976 L
9203 2976 mt 9168 2976 L
5462 3020 mt 
(-0.02) s
5800 2505 mt 5834 2505 L
9203 2505 mt 9168 2505 L
5462 2549 mt 
(-0.01) s
5800 2034 mt 5834 2034 L
9203 2034 mt 9168 2034 L
5699 2078 mt 
(0) s
5800 1562 mt 5834 1562 L
9203 1562 mt 9168 1562 L
5532 1606 mt 
(0.01) s
5800 1092 mt 5834 1092 L
9203 1092 mt 9168 1092 L
5532 1136 mt 
(0.02) s
5800  621 mt 5834  621 L
9203  621 mt 9168  621 L
5532  665 mt 
(0.03) s
5800  621 mt 9203  621 L
5800 3447 mt 9203 3447 L
9203 3447 mt 9203  621 L
5800 3447 mt 5800  621 L
gs 5800 621 3404 2827 rc
17 -37 17 -37 17 -37 17 -37 17 -37 17 -36 17 -37 17 -36 
17 -35 17 -36 17 -35 17 -34 17 -34 16 -34 17 -33 17 -32 
17 -32 17 -31 17 -31 17 -30 17 -29 17 -28 17 -28 17 -27 
17 -26 17 -25 17 -24 16 -24 17 -22 17 -22 17 -21 17 -19 
17 -19 17 -18 17 -16 17 -16 17 -14 17 -14 17 -12 17 -11 
17 -10 17 -9 16 -8 17 -7 17 -5 17 -4 17 -4 17 -2 
17 -1 17 1 17 1 17 3 17 4 17 5 17 6 17 7 
16 8 17 10 17 10 17 12 17 13 17 14 17 15 17 16 
17 17 17 18 17 19 17 21 17 21 17 22 16 23 17 24 
17 24 17 26 17 27 17 27 17 28 17 29 17 29 17 30 
17 31 17 32 17 32 17 33 17 33 16 34 17 34 17 35 
17 35 17 35 17 36 17 36 17 37 17 36 17 37 17 37 
17 37 17 38 17 37 16 37 17 37 17 38 17 37 17 37 
17 37 17 36 17 37 17 36 17 36 17 35 17 35 17 35 
17 34 16 34 17 33 17 33 17 32 17 32 17 31 17 30 
17 29 17 29 17 28 17 27 17 27 17 26 17 24 17 24 
16 23 17 22 17 21 17 21 17 19 17 18 17 17 17 16 
17 15 17 14 17 13 17 12 17 10 17 10 16 8 17 7 
17 6 17 5 17 4 17 3 17 1 17 1 17 -1 17 -2 
17 -4 17 -4 17 -5 17 -7 16 -8 17 -9 17 -10 17 -11 
17 -12 17 -14 17 -14 17 -16 17 -16 17 -18 17 -19 17 -19 
17 -21 17 -22 17 -22 16 -24 17 -24 17 -25 17 -26 17 -27 
17 -28 17 -28 17 -29 17 -30 17 -31 17 -31 17 -32 17 -32 
17 -33 16 -34 17 -34 17 -34 17 -35 17 -36 17 -35 17 -36 
17 -37 17 -36 17 -37 17 -37 17 -37 17 -37 17 -37 5816 1996 200 MP stroke
gr

5791 1971 mt 5841 2021 L
5841 1971 mt 5791 2021 L
5808 1934 mt 5858 1984 L
5858 1934 mt 5808 1984 L
5825 1897 mt 5875 1947 L
5875 1897 mt 5825 1947 L
5842 1860 mt 5892 1910 L
5892 1860 mt 5842 1910 L
5859 1823 mt 5909 1873 L
5909 1823 mt 5859 1873 L
5876 1786 mt 5926 1836 L
5926 1786 mt 5876 1836 L
5893 1750 mt 5943 1800 L
5943 1750 mt 5893 1800 L
5910 1713 mt 5960 1763 L
5960 1713 mt 5910 1763 L
5927 1677 mt 5977 1727 L
5977 1677 mt 5927 1727 L
5944 1642 mt 5994 1692 L
5994 1642 mt 5944 1692 L
5961 1606 mt 6011 1656 L
6011 1606 mt 5961 1656 L
5978 1571 mt 6028 1621 L
6028 1571 mt 5978 1621 L
5995 1537 mt 6045 1587 L
6045 1537 mt 5995 1587 L
6012 1503 mt 6062 1553 L
6062 1503 mt 6012 1553 L
6028 1469 mt 6078 1519 L
6078 1469 mt 6028 1519 L
6045 1436 mt 6095 1486 L
6095 1436 mt 6045 1486 L
6062 1404 mt 6112 1454 L
6112 1404 mt 6062 1454 L
6079 1372 mt 6129 1422 L
6129 1372 mt 6079 1422 L
6096 1341 mt 6146 1391 L
6146 1341 mt 6096 1391 L
6113 1310 mt 6163 1360 L
6163 1310 mt 6113 1360 L
6130 1280 mt 6180 1330 L
6180 1280 mt 6130 1330 L
6147 1251 mt 6197 1301 L
6197 1251 mt 6147 1301 L
6164 1223 mt 6214 1273 L
6214 1223 mt 6164 1273 L
6181 1195 mt 6231 1245 L
6231 1195 mt 6181 1245 L
6198 1168 mt 6248 1218 L
6248 1168 mt 6198 1218 L
6215 1142 mt 6265 1192 L
6265 1142 mt 6215 1192 L
6232 1117 mt 6282 1167 L
6282 1117 mt 6232 1167 L
6249 1093 mt 6299 1143 L
6299 1093 mt 6249 1143 L
6265 1069 mt 6315 1119 L
6315 1069 mt 6265 1119 L
6282 1047 mt 6332 1097 L
6332 1047 mt 6282 1097 L
6299 1025 mt 6349 1075 L
6349 1025 mt 6299 1075 L
6316 1004 mt 6366 1054 L
6366 1004 mt 6316 1054 L
6333  985 mt 6383 1035 L
6383  985 mt 6333 1035 L
6350  966 mt 6400 1016 L
6400  966 mt 6350 1016 L
6367  948 mt 6417  998 L
6417  948 mt 6367  998 L
6384  932 mt 6434  982 L
6434  932 mt 6384  982 L
6401  916 mt 6451  966 L
6451  916 mt 6401  966 L
6418  902 mt 6468  952 L
6468  902 mt 6418  952 L
6435  888 mt 6485  938 L
6485  888 mt 6435  938 L
6452  876 mt 6502  926 L
6502  876 mt 6452  926 L
6469  865 mt 6519  915 L
6519  865 mt 6469  915 L
6486  855 mt 6536  905 L
6536  855 mt 6486  905 L
6503  846 mt 6553  896 L
6553  846 mt 6503  896 L
6519  838 mt 6569  888 L
6569  838 mt 6519  888 L
6536  831 mt 6586  881 L
6586  831 mt 6536  881 L
6553  826 mt 6603  876 L
6603  826 mt 6553  876 L
6570  822 mt 6620  872 L
6620  822 mt 6570  872 L
6587  818 mt 6637  868 L
6637  818 mt 6587  868 L
6604  816 mt 6654  866 L
6654  816 mt 6604  866 L
6621  815 mt 6671  865 L
6671  815 mt 6621  865 L
6638  816 mt 6688  866 L
6688  816 mt 6638  866 L
6655  817 mt 6705  867 L
6705  817 mt 6655  867 L
6672  820 mt 6722  870 L
6722  820 mt 6672  870 L
6689  824 mt 6739  874 L
6739  824 mt 6689  874 L
6706  829 mt 6756  879 L
6756  829 mt 6706  879 L
6723  835 mt 6773  885 L
6773  835 mt 6723  885 L
6740  842 mt 6790  892 L
6790  842 mt 6740  892 L
6756  850 mt 6806  900 L
6806  850 mt 6756  900 L
6773  860 mt 6823  910 L
6823  860 mt 6773  910 L
6790  870 mt 6840  920 L
6840  870 mt 6790  920 L
6807  882 mt 6857  932 L
6857  882 mt 6807  932 L
6824  895 mt 6874  945 L
6874  895 mt 6824  945 L
6841  909 mt 6891  959 L
6891  909 mt 6841  959 L
6858  924 mt 6908  974 L
6908  924 mt 6858  974 L
6875  940 mt 6925  990 L
6925  940 mt 6875  990 L
6892  957 mt 6942 1007 L
6942  957 mt 6892 1007 L
6909  975 mt 6959 1025 L
6959  975 mt 6909 1025 L
6926  994 mt 6976 1044 L
6976  994 mt 6926 1044 L
6943 1015 mt 6993 1065 L
6993 1015 mt 6943 1065 L
6960 1036 mt 7010 1086 L
7010 1036 mt 6960 1086 L
6977 1058 mt 7027 1108 L
7027 1058 mt 6977 1108 L
6993 1081 mt 7043 1131 L
7043 1081 mt 6993 1131 L
7010 1105 mt 7060 1155 L
7060 1105 mt 7010 1155 L
7027 1129 mt 7077 1179 L
7077 1129 mt 7027 1179 L
7044 1155 mt 7094 1205 L
7094 1155 mt 7044 1205 L
7061 1182 mt 7111 1232 L
7111 1182 mt 7061 1232 L
7078 1209 mt 7128 1259 L
7128 1209 mt 7078 1259 L
7095 1237 mt 7145 1287 L
7145 1237 mt 7095 1287 L
7112 1266 mt 7162 1316 L
7162 1266 mt 7112 1316 L
7129 1295 mt 7179 1345 L
7179 1295 mt 7129 1345 L
7146 1325 mt 7196 1375 L
7196 1325 mt 7146 1375 L
7163 1356 mt 7213 1406 L
7213 1356 mt 7163 1406 L
7180 1388 mt 7230 1438 L
7230 1388 mt 7180 1438 L
7197 1420 mt 7247 1470 L
7247 1420 mt 7197 1470 L
7214 1453 mt 7264 1503 L
7264 1453 mt 7214 1503 L
7231 1486 mt 7281 1536 L
7281 1486 mt 7231 1536 L
7247 1520 mt 7297 1570 L
7297 1520 mt 7247 1570 L
7264 1554 mt 7314 1604 L
7314 1554 mt 7264 1604 L
7281 1589 mt 7331 1639 L
7331 1589 mt 7281 1639 L
7298 1624 mt 7348 1674 L
7348 1624 mt 7298 1674 L
7315 1659 mt 7365 1709 L
7365 1659 mt 7315 1709 L
7332 1695 mt 7382 1745 L
7382 1695 mt 7332 1745 L
7349 1731 mt 7399 1781 L
7399 1731 mt 7349 1781 L
7366 1768 mt 7416 1818 L
7416 1768 mt 7366 1818 L
7383 1804 mt 7433 1854 L
7433 1804 mt 7383 1854 L
7400 1841 mt 7450 1891 L
7450 1841 mt 7400 1891 L
7417 1878 mt 7467 1928 L
7467 1878 mt 7417 1928 L
7434 1915 mt 7484 1965 L
7484 1915 mt 7434 1965 L
7451 1953 mt 7501 2003 L
7501 1953 mt 7451 2003 L
7468 1990 mt 7518 2040 L
7518 1990 mt 7468 2040 L
7484 2027 mt 7534 2077 L
7534 2027 mt 7484 2077 L
7501 2064 mt 7551 2114 L
7551 2064 mt 7501 2114 L
7518 2102 mt 7568 2152 L
7568 2102 mt 7518 2152 L
7535 2139 mt 7585 2189 L
7585 2139 mt 7535 2189 L
7552 2176 mt 7602 2226 L
7602 2176 mt 7552 2226 L
7569 2213 mt 7619 2263 L
7619 2213 mt 7569 2263 L
7586 2249 mt 7636 2299 L
7636 2249 mt 7586 2299 L
7603 2286 mt 7653 2336 L
7653 2286 mt 7603 2336 L
7620 2322 mt 7670 2372 L
7670 2322 mt 7620 2372 L
7637 2358 mt 7687 2408 L
7687 2358 mt 7637 2408 L
7654 2393 mt 7704 2443 L
7704 2393 mt 7654 2443 L
7671 2428 mt 7721 2478 L
7721 2428 mt 7671 2478 L
7688 2463 mt 7738 2513 L
7738 2463 mt 7688 2513 L
7705 2497 mt 7755 2547 L
7755 2497 mt 7705 2547 L
7721 2531 mt 7771 2581 L
7771 2531 mt 7721 2581 L
7738 2564 mt 7788 2614 L
7788 2564 mt 7738 2614 L
7755 2597 mt 7805 2647 L
7805 2597 mt 7755 2647 L
7772 2629 mt 7822 2679 L
7822 2629 mt 7772 2679 L
7789 2661 mt 7839 2711 L
7839 2661 mt 7789 2711 L
7806 2692 mt 7856 2742 L
7856 2692 mt 7806 2742 L
7823 2722 mt 7873 2772 L
7873 2722 mt 7823 2772 L
7840 2751 mt 7890 2801 L
7890 2751 mt 7840 2801 L
7857 2780 mt 7907 2830 L
7907 2780 mt 7857 2830 L
7874 2808 mt 7924 2858 L
7924 2808 mt 7874 2858 L
7891 2835 mt 7941 2885 L
7941 2835 mt 7891 2885 L
7908 2862 mt 7958 2912 L
7958 2862 mt 7908 2912 L
7925 2888 mt 7975 2938 L
7975 2888 mt 7925 2938 L
7942 2912 mt 7992 2962 L
7992 2912 mt 7942 2962 L
7959 2936 mt 8009 2986 L
8009 2936 mt 7959 2986 L
7975 2959 mt 8025 3009 L
8025 2959 mt 7975 3009 L
7992 2981 mt 8042 3031 L
8042 2981 mt 7992 3031 L
8009 3002 mt 8059 3052 L
8059 3002 mt 8009 3052 L
8026 3023 mt 8076 3073 L
8076 3023 mt 8026 3073 L
8043 3042 mt 8093 3092 L
8093 3042 mt 8043 3092 L
8060 3060 mt 8110 3110 L
8110 3060 mt 8060 3110 L
8077 3077 mt 8127 3127 L
8127 3077 mt 8077 3127 L
8094 3093 mt 8144 3143 L
8144 3093 mt 8094 3143 L
8111 3108 mt 8161 3158 L
8161 3108 mt 8111 3158 L
8128 3122 mt 8178 3172 L
8178 3122 mt 8128 3172 L
8145 3135 mt 8195 3185 L
8195 3135 mt 8145 3185 L
8162 3147 mt 8212 3197 L
8212 3147 mt 8162 3197 L
8179 3157 mt 8229 3207 L
8229 3157 mt 8179 3207 L
8196 3167 mt 8246 3217 L
8246 3167 mt 8196 3217 L
8212 3175 mt 8262 3225 L
8262 3175 mt 8212 3225 L
8229 3182 mt 8279 3232 L
8279 3182 mt 8229 3232 L
8246 3188 mt 8296 3238 L
8296 3188 mt 8246 3238 L
8263 3193 mt 8313 3243 L
8313 3193 mt 8263 3243 L
8280 3197 mt 8330 3247 L
8330 3197 mt 8280 3247 L
8297 3200 mt 8347 3250 L
8347 3200 mt 8297 3250 L
8314 3201 mt 8364 3251 L
8364 3201 mt 8314 3251 L
8331 3202 mt 8381 3252 L
8381 3202 mt 8331 3252 L
8348 3201 mt 8398 3251 L
8398 3201 mt 8348 3251 L
8365 3199 mt 8415 3249 L
8415 3199 mt 8365 3249 L
8382 3195 mt 8432 3245 L
8432 3195 mt 8382 3245 L
8399 3191 mt 8449 3241 L
8449 3191 mt 8399 3241 L
8416 3186 mt 8466 3236 L
8466 3186 mt 8416 3236 L
8433 3179 mt 8483 3229 L
8483 3179 mt 8433 3229 L
8449 3171 mt 8499 3221 L
8499 3171 mt 8449 3221 L
8466 3162 mt 8516 3212 L
8516 3162 mt 8466 3212 L
8483 3152 mt 8533 3202 L
8533 3152 mt 8483 3202 L
8500 3141 mt 8550 3191 L
8550 3141 mt 8500 3191 L
8517 3129 mt 8567 3179 L
8567 3129 mt 8517 3179 L
8534 3115 mt 8584 3165 L
8584 3115 mt 8534 3165 L
8551 3101 mt 8601 3151 L
8601 3101 mt 8551 3151 L
8568 3085 mt 8618 3135 L
8618 3085 mt 8568 3135 L
8585 3069 mt 8635 3119 L
8635 3069 mt 8585 3119 L
8602 3051 mt 8652 3101 L
8652 3051 mt 8602 3101 L
8619 3032 mt 8669 3082 L
8669 3032 mt 8619 3082 L
8636 3013 mt 8686 3063 L
8686 3013 mt 8636 3063 L
8653 2992 mt 8703 3042 L
8703 2992 mt 8653 3042 L
8670 2970 mt 8720 3020 L
8720 2970 mt 8670 3020 L
8687 2948 mt 8737 2998 L
8737 2948 mt 8687 2998 L
8703 2924 mt 8753 2974 L
8753 2924 mt 8703 2974 L
8720 2900 mt 8770 2950 L
8770 2900 mt 8720 2950 L
8737 2875 mt 8787 2925 L
8787 2875 mt 8737 2925 L
8754 2849 mt 8804 2899 L
8804 2849 mt 8754 2899 L
8771 2822 mt 8821 2872 L
8821 2822 mt 8771 2872 L
8788 2794 mt 8838 2844 L
8838 2794 mt 8788 2844 L
8805 2766 mt 8855 2816 L
8855 2766 mt 8805 2816 L
8822 2737 mt 8872 2787 L
8872 2737 mt 8822 2787 L
8839 2707 mt 8889 2757 L
8889 2707 mt 8839 2757 L
8856 2676 mt 8906 2726 L
8906 2676 mt 8856 2726 L
8873 2645 mt 8923 2695 L
8923 2645 mt 8873 2695 L
8890 2613 mt 8940 2663 L
8940 2613 mt 8890 2663 L
8907 2581 mt 8957 2631 L
8957 2581 mt 8907 2631 L
8924 2548 mt 8974 2598 L
8974 2548 mt 8924 2598 L
8940 2514 mt 8990 2564 L
8990 2514 mt 8940 2564 L
8957 2480 mt 9007 2530 L
9007 2480 mt 8957 2530 L
8974 2446 mt 9024 2496 L
9024 2446 mt 8974 2496 L
8991 2411 mt 9041 2461 L
9041 2411 mt 8991 2461 L
9008 2375 mt 9058 2425 L
9058 2375 mt 9008 2425 L
9025 2340 mt 9075 2390 L
9075 2340 mt 9025 2390 L
9042 2304 mt 9092 2354 L
9092 2304 mt 9042 2354 L
9059 2267 mt 9109 2317 L
9109 2267 mt 9059 2317 L
9076 2231 mt 9126 2281 L
9126 2231 mt 9076 2281 L
9093 2194 mt 9143 2244 L
9143 2194 mt 9093 2244 L
9110 2157 mt 9160 2207 L
9160 2157 mt 9110 2207 L
9127 2120 mt 9177 2170 L
9177 2120 mt 9127 2170 L
9144 2083 mt 9194 2133 L
9194 2083 mt 9144 2133 L
9161 2046 mt 9211 2096 L
9211 2046 mt 9161 2096 L
gs 5800 621 3404 2827 rc
c8
17 -34 17 -34 17 -33 17 -34 17 -34 17 -33 17 -33 17 -33 
17 -33 17 -32 17 -32 17 -31 17 -31 16 -31 17 -30 17 -30 
17 -29 17 -28 17 -28 17 -27 17 -27 17 -26 17 -25 17 -25 
17 -24 17 -23 17 -22 16 -21 17 -21 17 -20 17 -18 17 -18 
17 -17 17 -17 17 -15 17 -14 17 -13 17 -12 17 -12 17 -10 
17 -9 17 -8 16 -7 17 -6 17 -5 17 -4 17 -3 17 -2 
17 -1 17 0 17 2 17 2 17 3 17 5 17 6 17 6 
16 8 17 9 17 9 17 11 17 12 17 12 17 14 17 15 
17 15 17 17 17 17 17 19 17 19 17 20 16 21 17 22 
17 23 17 23 17 24 17 25 17 26 17 26 17 27 17 28 
17 28 17 29 17 29 17 30 17 30 16 31 17 32 17 31 
17 32 17 33 17 32 17 33 17 34 17 33 17 34 17 34 
17 33 17 34 17 34 16 35 17 34 17 34 17 33 17 34 
17 34 17 33 17 34 17 33 17 32 17 33 17 32 17 31 
17 32 16 31 17 30 17 30 17 29 17 29 17 28 17 28 
17 27 17 26 17 26 17 25 17 24 17 23 17 23 17 22 
16 21 17 20 17 19 17 19 17 17 17 17 17 15 17 15 
17 14 17 12 17 12 17 11 17 9 17 9 16 8 17 6 
17 6 17 5 17 3 17 2 17 2 17 0 17 -1 17 -2 
17 -3 17 -4 17 -5 17 -6 16 -7 17 -8 17 -9 17 -10 
17 -12 17 -12 17 -13 17 -14 17 -15 17 -17 17 -17 17 -18 
17 -18 17 -20 17 -21 16 -21 17 -22 17 -23 17 -24 17 -25 
17 -25 17 -26 17 -27 17 -27 17 -28 17 -28 17 -29 17 -30 
17 -30 16 -31 17 -31 17 -31 17 -32 17 -32 17 -33 17 -33 
17 -33 17 -33 17 -34 17 -34 17 -33 17 -34 17 -34 5816 1999 200 MP stroke
gr

c8
  36   36 5816 1999 FO
  36   36 5833 1965 FO
  36   36 5850 1931 FO
  36   36 5867 1898 FO
  36   36 5884 1864 FO
  36   36 5901 1830 FO
  36   36 5918 1797 FO
  36   36 5935 1764 FO
  36   36 5952 1731 FO
  36   36 5969 1698 FO
  36   36 5986 1666 FO
  36   36 6003 1634 FO
  36   36 6020 1603 FO
  36   36 6037 1572 FO
  36   36 6053 1541 FO
  36   36 6070 1511 FO
  36   36 6087 1481 FO
  36   36 6104 1452 FO
  36   36 6121 1424 FO
  36   36 6138 1396 FO
  36   36 6155 1369 FO
  36   36 6172 1342 FO
  36   36 6189 1316 FO
  36   36 6206 1291 FO
  36   36 6223 1266 FO
  36   36 6240 1242 FO
  36   36 6257 1219 FO
  36   36 6274 1197 FO
  36   36 6290 1176 FO
  36   36 6307 1155 FO
  36   36 6324 1135 FO
  36   36 6341 1117 FO
  36   36 6358 1099 FO
  36   36 6375 1082 FO
  36   36 6392 1065 FO
  36   36 6409 1050 FO
  36   36 6426 1036 FO
  36   36 6443 1023 FO
  36   36 6460 1011 FO
  36   36 6477  999 FO
  36   36 6494  989 FO
  36   36 6511  980 FO
  36   36 6528  972 FO
  36   36 6544  965 FO
  36   36 6561  959 FO
  36   36 6578  954 FO
  36   36 6595  950 FO
  36   36 6612  947 FO
  36   36 6629  945 FO
  36   36 6646  944 FO
  36   36 6663  944 FO
  36   36 6680  946 FO
  36   36 6697  948 FO
  36   36 6714  951 FO
  36   36 6731  956 FO
  36   36 6748  962 FO
  36   36 6765  968 FO
  36   36 6781  976 FO
  36   36 6798  985 FO
  36   36 6815  994 FO
  36   36 6832 1005 FO
  36   36 6849 1017 FO
  36   36 6866 1029 FO
  36   36 6883 1043 FO
  36   36 6900 1058 FO
  36   36 6917 1073 FO
  36   36 6934 1090 FO
  36   36 6951 1107 FO
  36   36 6968 1126 FO
  36   36 6985 1145 FO
  36   36 7002 1165 FO
  36   36 7018 1186 FO
  36   36 7035 1208 FO
  36   36 7052 1231 FO
  36   36 7069 1254 FO
  36   36 7086 1278 FO
  36   36 7103 1303 FO
  36   36 7120 1329 FO
  36   36 7137 1355 FO
  36   36 7154 1382 FO
  36   36 7171 1410 FO
  36   36 7188 1438 FO
  36   36 7205 1467 FO
  36   36 7222 1496 FO
  36   36 7239 1526 FO
  36   36 7256 1556 FO
  36   36 7272 1587 FO
  36   36 7289 1619 FO
  36   36 7306 1650 FO
  36   36 7323 1682 FO
  36   36 7340 1715 FO
  36   36 7357 1747 FO
  36   36 7374 1780 FO
  36   36 7391 1814 FO
  36   36 7408 1847 FO
  36   36 7425 1881 FO
  36   36 7442 1915 FO
  36   36 7459 1948 FO
  36   36 7476 1982 FO
  36   36 7493 2016 FO
  36   36 7509 2051 FO
  36   36 7526 2085 FO
  36   36 7543 2119 FO
  36   36 7560 2152 FO
  36   36 7577 2186 FO
  36   36 7594 2220 FO
  36   36 7611 2253 FO
  36   36 7628 2287 FO
  36   36 7645 2320 FO
  36   36 7662 2352 FO
  36   36 7679 2385 FO
  36   36 7696 2417 FO
  36   36 7713 2448 FO
  36   36 7730 2480 FO
  36   36 7746 2511 FO
  36   36 7763 2541 FO
  36   36 7780 2571 FO
  36   36 7797 2600 FO
  36   36 7814 2629 FO
  36   36 7831 2657 FO
  36   36 7848 2685 FO
  36   36 7865 2712 FO
  36   36 7882 2738 FO
  36   36 7899 2764 FO
  36   36 7916 2789 FO
  36   36 7933 2813 FO
  36   36 7950 2836 FO
  36   36 7967 2859 FO
  36   36 7984 2881 FO
  36   36 8000 2902 FO
  36   36 8017 2922 FO
  36   36 8034 2941 FO
  36   36 8051 2960 FO
  36   36 8068 2977 FO
  36   36 8085 2994 FO
  36   36 8102 3009 FO
  36   36 8119 3024 FO
  36   36 8136 3038 FO
  36   36 8153 3050 FO
  36   36 8170 3062 FO
  36   36 8187 3073 FO
  36   36 8204 3082 FO
  36   36 8221 3091 FO
  36   36 8237 3099 FO
  36   36 8254 3105 FO
  36   36 8271 3111 FO
  36   36 8288 3116 FO
  36   36 8305 3119 FO
  36   36 8322 3121 FO
  36   36 8339 3123 FO
  36   36 8356 3123 FO
  36   36 8373 3122 FO
  36   36 8390 3120 FO
  36   36 8407 3117 FO
  36   36 8424 3113 FO
  36   36 8441 3108 FO
  36   36 8458 3102 FO
  36   36 8474 3095 FO
  36   36 8491 3087 FO
  36   36 8508 3078 FO
  36   36 8525 3068 FO
  36   36 8542 3056 FO
  36   36 8559 3044 FO
  36   36 8576 3031 FO
  36   36 8593 3017 FO
  36   36 8610 3002 FO
  36   36 8627 2985 FO
  36   36 8644 2968 FO
  36   36 8661 2950 FO
  36   36 8678 2932 FO
  36   36 8695 2912 FO
  36   36 8712 2891 FO
  36   36 8728 2870 FO
  36   36 8745 2848 FO
  36   36 8762 2825 FO
  36   36 8779 2801 FO
  36   36 8796 2776 FO
  36   36 8813 2751 FO
  36   36 8830 2725 FO
  36   36 8847 2698 FO
  36   36 8864 2671 FO
  36   36 8881 2643 FO
  36   36 8898 2615 FO
  36   36 8915 2586 FO
  36   36 8932 2556 FO
  36   36 8949 2526 FO
  36   36 8965 2495 FO
  36   36 8982 2464 FO
  36   36 8999 2433 FO
  36   36 9016 2401 FO
  36   36 9033 2369 FO
  36   36 9050 2336 FO
  36   36 9067 2303 FO
  36   36 9084 2270 FO
  36   36 9101 2237 FO
  36   36 9118 2203 FO
  36   36 9135 2169 FO
  36   36 9152 2136 FO
  36   36 9169 2102 FO
  36   36 9186 2068 FO
gs 5800 621 3404 2827 rc
gr

0 sg
7470 3735 mt 
(x) s
5380 2138 mt  -90 rotate
(u\(x\)) s
90 rotate
6783  518 mt 
(Solution of Au\(x\) = sin\(2) s
%%IncludeResource: font Symbol
/Symbol /WindowsLatin1Encoding 120 FMSR

8063  518 mt 
(p) s
%%IncludeResource: font Helvetica
/Helvetica /WindowsLatin1Encoding 120 FMSR

8128  518 mt 
(x\)) s
5783 3490 mt 
( ) s
9187  663 mt 
( ) s
1 sg
0 334 1362 0 0 -334 7782 1015 4 MP
PP
-1362 0 0 334 1362 0 0 -334 7782 1015 5 MP stroke
4 w
DO
SO
6 w
0 sg
7782  681 mt 9144  681 L
7782 1015 mt 9144 1015 L
9144 1015 mt 9144  681 L
7782 1015 mt 7782  681 L
7782 1015 mt 9144 1015 L
7782 1015 mt 7782  681 L
7782  681 mt 9144  681 L
7782 1015 mt 9144 1015 L
9144 1015 mt 9144  681 L
7782 1015 mt 7782  681 L
8255  816 mt 
(analytic) s
gs 7782 681 1363 335 rc
363 0 7854 773 2 MP stroke
gs 7963 700 147 147 rc
8011  748 mt 8061  798 L
8061  748 mt 8011  798 L
gr

gr

8255  965 mt 
(weighted Jacobi) s
gs 7782 681 1363 335 rc
c8
363 0 7854 922 2 MP stroke
gs 7963 849 147 147 rc
  36   36 8036  922 FO
gr

gr

c8
1 sg
0 2826 3403 0 0 -2826 1322 7373 4 MP
PP
-3403 0 0 2826 3403 0 0 -2826 1322 7373 5 MP stroke
4 w
DO
0 sg
1322 7373 mt 1322 4547 L
1322 4547 mt 1322 4547 L
2002 7373 mt 2002 4547 L
2002 4547 mt 2002 4547 L
2683 7373 mt 2683 4547 L
2683 4547 mt 2683 4547 L
3363 7373 mt 3363 4547 L
3363 4547 mt 3363 4547 L
4044 7373 mt 4044 4547 L
4044 4547 mt 4044 4547 L
4725 7373 mt 4725 4547 L
4725 4547 mt 4725 4547 L
1322 7373 mt 4725 7373 L
4725 7373 mt 4725 7373 L
1322 6902 mt 4725 6902 L
4725 6902 mt 4725 6902 L
1322 6431 mt 4725 6431 L
4725 6431 mt 4725 6431 L
1322 5960 mt 4725 5960 L
4725 5960 mt 4725 5960 L
1322 5489 mt 4725 5489 L
4725 5489 mt 4725 5489 L
1322 5018 mt 4725 5018 L
4725 5018 mt 4725 5018 L
1322 4547 mt 4725 4547 L
4725 4547 mt 4725 4547 L
SO
6 w
1322 4547 mt 4725 4547 L
1322 7373 mt 4725 7373 L
4725 7373 mt 4725 4547 L
1322 7373 mt 1322 4547 L
1322 7373 mt 4725 7373 L
1322 7373 mt 1322 4547 L
1322 7373 mt 1322 7338 L
1322 4547 mt 1322 4581 L
1289 7518 mt 
(0) s
2002 7373 mt 2002 7338 L
2002 4547 mt 2002 4581 L
1919 7518 mt 
(0.2) s
2683 7373 mt 2683 7338 L
2683 4547 mt 2683 4581 L
2600 7518 mt 
(0.4) s
3363 7373 mt 3363 7338 L
3363 4547 mt 3363 4581 L
3280 7518 mt 
(0.6) s
4044 7373 mt 4044 7338 L
4044 4547 mt 4044 4581 L
3961 7518 mt 
(0.8) s
4725 7373 mt 4725 7338 L
4725 4547 mt 4725 4581 L
4692 7518 mt 
(1) s
1322 7373 mt 1356 7373 L
4725 7373 mt 4690 7373 L
 917 7417 mt 
(-0.015) s
1322 6902 mt 1356 6902 L
4725 6902 mt 4690 6902 L
 984 6946 mt 
(-0.01) s
1322 6431 mt 1356 6431 L
4725 6431 mt 4690 6431 L
 917 6475 mt 
(-0.005) s
1322 5960 mt 1356 5960 L
4725 5960 mt 4690 5960 L
1221 6004 mt 
(0) s
1322 5489 mt 1356 5489 L
4725 5489 mt 4690 5489 L
 987 5533 mt 
(0.005) s
1322 5018 mt 1356 5018 L
4725 5018 mt 4690 5018 L
1054 5062 mt 
(0.01) s
1322 4547 mt 1356 4547 L
4725 4547 mt 4690 4547 L
 987 4591 mt 
(0.015) s
1322 4547 mt 4725 4547 L
1322 7373 mt 4725 7373 L
4725 7373 mt 4725 4547 L
1322 7373 mt 1322 4547 L
gs 1322 4547 3404 2827 rc
17 50 17 49 17 49 17 49 17 48 17 47 17 47 17 46 
17 45 17 44 17 42 17 42 17 40 16 38 17 38 17 35 
17 34 17 32 17 31 17 28 17 27 17 24 17 23 17 20 
17 18 17 16 17 14 16 11 17 10 17 7 17 4 17 3 
17 0 17 -3 17 -4 17 -7 17 -10 17 -11 17 -14 17 -16 
17 -18 17 -20 16 -23 17 -24 17 -27 17 -28 17 -31 17 -32 
17 -34 17 -35 17 -38 17 -38 17 -40 17 -42 17 -42 17 -44 
16 -45 17 -46 17 -47 17 -47 17 -48 17 -49 17 -49 17 -49 
17 -50 17 -49 17 -50 17 -50 17 -49 17 -49 16 -49 17 -48 
17 -47 17 -47 17 -46 17 -45 17 -44 17 -42 17 -42 17 -40 
17 -38 17 -38 17 -35 17 -34 17 -32 16 -31 17 -28 17 -27 
17 -24 17 -23 17 -20 17 -18 17 -16 17 -14 17 -11 17 -10 
17 -7 17 -4 17 -3 16 0 17 3 17 4 17 7 17 10 
17 11 17 14 17 16 17 18 17 20 17 23 17 24 17 27 
17 28 16 31 17 32 17 34 17 35 17 38 17 38 17 40 
17 42 17 42 17 44 17 45 17 46 17 47 17 47 17 48 
16 49 17 49 17 49 17 50 17 49 17 50 17 50 17 49 
17 49 17 49 17 48 17 47 17 47 17 46 16 45 17 44 
17 42 17 42 17 40 17 38 17 38 17 35 17 34 17 32 
17 31 17 28 17 27 17 24 16 23 17 20 17 18 17 16 
17 14 17 11 17 10 17 7 17 4 17 3 17 0 17 -3 
17 -4 17 -7 17 -10 16 -11 17 -14 17 -16 17 -18 17 -20 
17 -23 17 -24 17 -27 17 -28 17 -31 17 -32 17 -34 17 -35 
17 -38 16 -38 17 -40 17 -42 17 -42 17 -44 17 -45 17 -46 
17 -47 17 -47 17 -48 17 -49 17 -49 17 -49 17 -50 1338 5910 200 MP stroke
gr

1313 5885 mt 1363 5935 L
1363 5885 mt 1313 5935 L
1330 5835 mt 1380 5885 L
1380 5835 mt 1330 5885 L
1347 5786 mt 1397 5836 L
1397 5786 mt 1347 5836 L
1364 5737 mt 1414 5787 L
1414 5737 mt 1364 5787 L
1381 5688 mt 1431 5738 L
1431 5688 mt 1381 5738 L
1398 5640 mt 1448 5690 L
1448 5640 mt 1398 5690 L
1415 5593 mt 1465 5643 L
1465 5593 mt 1415 5643 L
1432 5546 mt 1482 5596 L
1482 5546 mt 1432 5596 L
1449 5500 mt 1499 5550 L
1499 5500 mt 1449 5550 L
1466 5455 mt 1516 5505 L
1516 5455 mt 1466 5505 L
1483 5411 mt 1533 5461 L
1533 5411 mt 1483 5461 L
1500 5369 mt 1550 5419 L
1550 5369 mt 1500 5419 L
1517 5327 mt 1567 5377 L
1567 5327 mt 1517 5377 L
1534 5287 mt 1584 5337 L
1584 5287 mt 1534 5337 L
1550 5249 mt 1600 5299 L
1600 5249 mt 1550 5299 L
1567 5211 mt 1617 5261 L
1617 5211 mt 1567 5261 L
1584 5176 mt 1634 5226 L
1634 5176 mt 1584 5226 L
1601 5142 mt 1651 5192 L
1651 5142 mt 1601 5192 L
1618 5110 mt 1668 5160 L
1668 5110 mt 1618 5160 L
1635 5079 mt 1685 5129 L
1685 5079 mt 1635 5129 L
1652 5051 mt 1702 5101 L
1702 5051 mt 1652 5101 L
1669 5024 mt 1719 5074 L
1719 5024 mt 1669 5074 L
1686 5000 mt 1736 5050 L
1736 5000 mt 1686 5050 L
1703 4977 mt 1753 5027 L
1753 4977 mt 1703 5027 L
1720 4957 mt 1770 5007 L
1770 4957 mt 1720 5007 L
1737 4939 mt 1787 4989 L
1787 4939 mt 1737 4989 L
1754 4923 mt 1804 4973 L
1804 4923 mt 1754 4973 L
1771 4909 mt 1821 4959 L
1821 4909 mt 1771 4959 L
1787 4898 mt 1837 4948 L
1837 4898 mt 1787 4948 L
1804 4888 mt 1854 4938 L
1854 4888 mt 1804 4938 L
1821 4881 mt 1871 4931 L
1871 4881 mt 1821 4931 L
1838 4877 mt 1888 4927 L
1888 4877 mt 1838 4927 L
1855 4874 mt 1905 4924 L
1905 4874 mt 1855 4924 L
1872 4874 mt 1922 4924 L
1922 4874 mt 1872 4924 L
1889 4877 mt 1939 4927 L
1939 4877 mt 1889 4927 L
1906 4881 mt 1956 4931 L
1956 4881 mt 1906 4931 L
1923 4888 mt 1973 4938 L
1973 4888 mt 1923 4938 L
1940 4898 mt 1990 4948 L
1990 4898 mt 1940 4948 L
1957 4909 mt 2007 4959 L
2007 4909 mt 1957 4959 L
1974 4923 mt 2024 4973 L
2024 4923 mt 1974 4973 L
1991 4939 mt 2041 4989 L
2041 4939 mt 1991 4989 L
2008 4957 mt 2058 5007 L
2058 4957 mt 2008 5007 L
2025 4977 mt 2075 5027 L
2075 4977 mt 2025 5027 L
2041 5000 mt 2091 5050 L
2091 5000 mt 2041 5050 L
2058 5024 mt 2108 5074 L
2108 5024 mt 2058 5074 L
2075 5051 mt 2125 5101 L
2125 5051 mt 2075 5101 L
2092 5079 mt 2142 5129 L
2142 5079 mt 2092 5129 L
2109 5110 mt 2159 5160 L
2159 5110 mt 2109 5160 L
2126 5142 mt 2176 5192 L
2176 5142 mt 2126 5192 L
2143 5176 mt 2193 5226 L
2193 5176 mt 2143 5226 L
2160 5211 mt 2210 5261 L
2210 5211 mt 2160 5261 L
2177 5249 mt 2227 5299 L
2227 5249 mt 2177 5299 L
2194 5287 mt 2244 5337 L
2244 5287 mt 2194 5337 L
2211 5327 mt 2261 5377 L
2261 5327 mt 2211 5377 L
2228 5369 mt 2278 5419 L
2278 5369 mt 2228 5419 L
2245 5411 mt 2295 5461 L
2295 5411 mt 2245 5461 L
2262 5455 mt 2312 5505 L
2312 5455 mt 2262 5505 L
2278 5500 mt 2328 5550 L
2328 5500 mt 2278 5550 L
2295 5546 mt 2345 5596 L
2345 5546 mt 2295 5596 L
2312 5593 mt 2362 5643 L
2362 5593 mt 2312 5643 L
2329 5640 mt 2379 5690 L
2379 5640 mt 2329 5690 L
2346 5688 mt 2396 5738 L
2396 5688 mt 2346 5738 L
2363 5737 mt 2413 5787 L
2413 5737 mt 2363 5787 L
2380 5786 mt 2430 5836 L
2430 5786 mt 2380 5836 L
2397 5835 mt 2447 5885 L
2447 5835 mt 2397 5885 L
2414 5885 mt 2464 5935 L
2464 5885 mt 2414 5935 L
2431 5935 mt 2481 5985 L
2481 5935 mt 2431 5985 L
2448 5984 mt 2498 6034 L
2498 5984 mt 2448 6034 L
2465 6034 mt 2515 6084 L
2515 6034 mt 2465 6084 L
2482 6083 mt 2532 6133 L
2532 6083 mt 2482 6133 L
2499 6132 mt 2549 6182 L
2549 6132 mt 2499 6182 L
2515 6181 mt 2565 6231 L
2565 6181 mt 2515 6231 L
2532 6229 mt 2582 6279 L
2582 6229 mt 2532 6279 L
2549 6276 mt 2599 6326 L
2599 6276 mt 2549 6326 L
2566 6323 mt 2616 6373 L
2616 6323 mt 2566 6373 L
2583 6369 mt 2633 6419 L
2633 6369 mt 2583 6419 L
2600 6414 mt 2650 6464 L
2650 6414 mt 2600 6464 L
2617 6458 mt 2667 6508 L
2667 6458 mt 2617 6508 L
2634 6500 mt 2684 6550 L
2684 6500 mt 2634 6550 L
2651 6542 mt 2701 6592 L
2701 6542 mt 2651 6592 L
2668 6582 mt 2718 6632 L
2718 6582 mt 2668 6632 L
2685 6620 mt 2735 6670 L
2735 6620 mt 2685 6670 L
2702 6658 mt 2752 6708 L
2752 6658 mt 2702 6708 L
2719 6693 mt 2769 6743 L
2769 6693 mt 2719 6743 L
2736 6727 mt 2786 6777 L
2786 6727 mt 2736 6777 L
2753 6759 mt 2803 6809 L
2803 6759 mt 2753 6809 L
2769 6790 mt 2819 6840 L
2819 6790 mt 2769 6840 L
2786 6818 mt 2836 6868 L
2836 6818 mt 2786 6868 L
2803 6845 mt 2853 6895 L
2853 6845 mt 2803 6895 L
2820 6869 mt 2870 6919 L
2870 6869 mt 2820 6919 L
2837 6892 mt 2887 6942 L
2887 6892 mt 2837 6942 L
2854 6912 mt 2904 6962 L
2904 6912 mt 2854 6962 L
2871 6930 mt 2921 6980 L
2921 6930 mt 2871 6980 L
2888 6946 mt 2938 6996 L
2938 6946 mt 2888 6996 L
2905 6960 mt 2955 7010 L
2955 6960 mt 2905 7010 L
2922 6971 mt 2972 7021 L
2972 6971 mt 2922 7021 L
2939 6981 mt 2989 7031 L
2989 6981 mt 2939 7031 L
2956 6988 mt 3006 7038 L
3006 6988 mt 2956 7038 L
2973 6992 mt 3023 7042 L
3023 6992 mt 2973 7042 L
2990 6995 mt 3040 7045 L
3040 6995 mt 2990 7045 L
3006 6995 mt 3056 7045 L
3056 6995 mt 3006 7045 L
3023 6992 mt 3073 7042 L
3073 6992 mt 3023 7042 L
3040 6988 mt 3090 7038 L
3090 6988 mt 3040 7038 L
3057 6981 mt 3107 7031 L
3107 6981 mt 3057 7031 L
3074 6971 mt 3124 7021 L
3124 6971 mt 3074 7021 L
3091 6960 mt 3141 7010 L
3141 6960 mt 3091 7010 L
3108 6946 mt 3158 6996 L
3158 6946 mt 3108 6996 L
3125 6930 mt 3175 6980 L
3175 6930 mt 3125 6980 L
3142 6912 mt 3192 6962 L
3192 6912 mt 3142 6962 L
3159 6892 mt 3209 6942 L
3209 6892 mt 3159 6942 L
3176 6869 mt 3226 6919 L
3226 6869 mt 3176 6919 L
3193 6845 mt 3243 6895 L
3243 6845 mt 3193 6895 L
3210 6818 mt 3260 6868 L
3260 6818 mt 3210 6868 L
3227 6790 mt 3277 6840 L
3277 6790 mt 3227 6840 L
3243 6759 mt 3293 6809 L
3293 6759 mt 3243 6809 L
3260 6727 mt 3310 6777 L
3310 6727 mt 3260 6777 L
3277 6693 mt 3327 6743 L
3327 6693 mt 3277 6743 L
3294 6658 mt 3344 6708 L
3344 6658 mt 3294 6708 L
3311 6620 mt 3361 6670 L
3361 6620 mt 3311 6670 L
3328 6582 mt 3378 6632 L
3378 6582 mt 3328 6632 L
3345 6542 mt 3395 6592 L
3395 6542 mt 3345 6592 L
3362 6500 mt 3412 6550 L
3412 6500 mt 3362 6550 L
3379 6458 mt 3429 6508 L
3429 6458 mt 3379 6508 L
3396 6414 mt 3446 6464 L
3446 6414 mt 3396 6464 L
3413 6369 mt 3463 6419 L
3463 6369 mt 3413 6419 L
3430 6323 mt 3480 6373 L
3480 6323 mt 3430 6373 L
3447 6276 mt 3497 6326 L
3497 6276 mt 3447 6326 L
3464 6229 mt 3514 6279 L
3514 6229 mt 3464 6279 L
3481 6181 mt 3531 6231 L
3531 6181 mt 3481 6231 L
3497 6132 mt 3547 6182 L
3547 6132 mt 3497 6182 L
3514 6083 mt 3564 6133 L
3564 6083 mt 3514 6133 L
3531 6034 mt 3581 6084 L
3581 6034 mt 3531 6084 L
3548 5984 mt 3598 6034 L
3598 5984 mt 3548 6034 L
3565 5934 mt 3615 5984 L
3615 5934 mt 3565 5984 L
3582 5885 mt 3632 5935 L
3632 5885 mt 3582 5935 L
3599 5835 mt 3649 5885 L
3649 5835 mt 3599 5885 L
3616 5786 mt 3666 5836 L
3666 5786 mt 3616 5836 L
3633 5737 mt 3683 5787 L
3683 5737 mt 3633 5787 L
3650 5688 mt 3700 5738 L
3700 5688 mt 3650 5738 L
3667 5640 mt 3717 5690 L
3717 5640 mt 3667 5690 L
3684 5593 mt 3734 5643 L
3734 5593 mt 3684 5643 L
3701 5546 mt 3751 5596 L
3751 5546 mt 3701 5596 L
3718 5500 mt 3768 5550 L
3768 5500 mt 3718 5550 L
3734 5455 mt 3784 5505 L
3784 5455 mt 3734 5505 L
3751 5411 mt 3801 5461 L
3801 5411 mt 3751 5461 L
3768 5369 mt 3818 5419 L
3818 5369 mt 3768 5419 L
3785 5327 mt 3835 5377 L
3835 5327 mt 3785 5377 L
3802 5287 mt 3852 5337 L
3852 5287 mt 3802 5337 L
3819 5249 mt 3869 5299 L
3869 5249 mt 3819 5299 L
3836 5211 mt 3886 5261 L
3886 5211 mt 3836 5261 L
3853 5176 mt 3903 5226 L
3903 5176 mt 3853 5226 L
3870 5142 mt 3920 5192 L
3920 5142 mt 3870 5192 L
3887 5110 mt 3937 5160 L
3937 5110 mt 3887 5160 L
3904 5079 mt 3954 5129 L
3954 5079 mt 3904 5129 L
3921 5051 mt 3971 5101 L
3971 5051 mt 3921 5101 L
3938 5024 mt 3988 5074 L
3988 5024 mt 3938 5074 L
3955 5000 mt 4005 5050 L
4005 5000 mt 3955 5050 L
3971 4977 mt 4021 5027 L
4021 4977 mt 3971 5027 L
3988 4957 mt 4038 5007 L
4038 4957 mt 3988 5007 L
4005 4939 mt 4055 4989 L
4055 4939 mt 4005 4989 L
4022 4923 mt 4072 4973 L
4072 4923 mt 4022 4973 L
4039 4909 mt 4089 4959 L
4089 4909 mt 4039 4959 L
4056 4898 mt 4106 4948 L
4106 4898 mt 4056 4948 L
4073 4888 mt 4123 4938 L
4123 4888 mt 4073 4938 L
4090 4881 mt 4140 4931 L
4140 4881 mt 4090 4931 L
4107 4877 mt 4157 4927 L
4157 4877 mt 4107 4927 L
4124 4874 mt 4174 4924 L
4174 4874 mt 4124 4924 L
4141 4874 mt 4191 4924 L
4191 4874 mt 4141 4924 L
4158 4877 mt 4208 4927 L
4208 4877 mt 4158 4927 L
4175 4881 mt 4225 4931 L
4225 4881 mt 4175 4931 L
4192 4888 mt 4242 4938 L
4242 4888 mt 4192 4938 L
4209 4898 mt 4259 4948 L
4259 4898 mt 4209 4948 L
4225 4909 mt 4275 4959 L
4275 4909 mt 4225 4959 L
4242 4923 mt 4292 4973 L
4292 4923 mt 4242 4973 L
4259 4939 mt 4309 4989 L
4309 4939 mt 4259 4989 L
4276 4957 mt 4326 5007 L
4326 4957 mt 4276 5007 L
4293 4977 mt 4343 5027 L
4343 4977 mt 4293 5027 L
4310 5000 mt 4360 5050 L
4360 5000 mt 4310 5050 L
4327 5024 mt 4377 5074 L
4377 5024 mt 4327 5074 L
4344 5051 mt 4394 5101 L
4394 5051 mt 4344 5101 L
4361 5079 mt 4411 5129 L
4411 5079 mt 4361 5129 L
4378 5110 mt 4428 5160 L
4428 5110 mt 4378 5160 L
4395 5142 mt 4445 5192 L
4445 5142 mt 4395 5192 L
4412 5176 mt 4462 5226 L
4462 5176 mt 4412 5226 L
4429 5211 mt 4479 5261 L
4479 5211 mt 4429 5261 L
4446 5249 mt 4496 5299 L
4496 5249 mt 4446 5299 L
4462 5287 mt 4512 5337 L
4512 5287 mt 4462 5337 L
4479 5327 mt 4529 5377 L
4529 5327 mt 4479 5377 L
4496 5369 mt 4546 5419 L
4546 5369 mt 4496 5419 L
4513 5411 mt 4563 5461 L
4563 5411 mt 4513 5461 L
4530 5455 mt 4580 5505 L
4580 5455 mt 4530 5505 L
4547 5500 mt 4597 5550 L
4597 5500 mt 4547 5550 L
4564 5546 mt 4614 5596 L
4614 5546 mt 4564 5596 L
4581 5593 mt 4631 5643 L
4631 5593 mt 4581 5643 L
4598 5640 mt 4648 5690 L
4648 5640 mt 4598 5690 L
4615 5688 mt 4665 5738 L
4665 5688 mt 4615 5738 L
4632 5737 mt 4682 5787 L
4682 5737 mt 4632 5787 L
4649 5786 mt 4699 5836 L
4699 5786 mt 4649 5836 L
4666 5835 mt 4716 5885 L
4716 5835 mt 4666 5885 L
4683 5885 mt 4733 5935 L
4733 5885 mt 4683 5935 L
gs 1322 4547 3404 2827 rc
c8
17 49 17 50 17 48 17 49 17 48 17 47 17 47 17 45 
17 45 17 44 17 42 17 41 17 40 16 39 17 37 17 35 
17 34 17 32 17 30 17 29 17 26 17 24 17 23 17 20 
17 18 17 16 17 14 16 11 17 10 17 7 17 4 17 3 
17 0 17 -3 17 -4 17 -7 17 -10 17 -11 17 -14 17 -16 
17 -18 17 -20 16 -23 17 -24 17 -26 17 -29 17 -30 17 -32 
17 -34 17 -35 17 -37 17 -39 17 -40 17 -41 17 -42 17 -44 
16 -45 17 -45 17 -47 17 -47 17 -48 17 -49 17 -48 17 -50 
17 -49 17 -50 17 -49 17 -49 17 -50 17 -48 16 -49 17 -48 
17 -47 17 -47 17 -45 17 -45 17 -44 17 -42 17 -41 17 -40 
17 -39 17 -37 17 -35 17 -34 17 -32 16 -30 17 -29 17 -26 
17 -24 17 -23 17 -20 17 -18 17 -16 17 -14 17 -11 17 -10 
17 -7 17 -4 17 -3 16 0 17 3 17 4 17 7 17 10 
17 11 17 14 17 16 17 18 17 20 17 23 17 24 17 26 
17 29 16 30 17 32 17 34 17 35 17 37 17 39 17 40 
17 41 17 42 17 44 17 45 17 45 17 47 17 47 17 48 
16 49 17 48 17 50 17 49 17 49 17 50 17 49 17 50 
17 48 17 49 17 48 17 47 17 47 17 45 16 45 17 44 
17 42 17 41 17 40 17 39 17 37 17 35 17 34 17 32 
17 30 17 29 17 26 17 24 16 23 17 20 17 18 17 16 
17 14 17 11 17 10 17 7 17 4 17 3 17 0 17 -3 
17 -4 17 -7 17 -10 16 -11 17 -14 17 -16 17 -18 17 -20 
17 -23 17 -24 17 -26 17 -29 17 -30 17 -32 17 -34 17 -35 
17 -37 16 -39 17 -40 17 -41 17 -42 17 -44 17 -45 17 -45 
17 -47 17 -47 17 -48 17 -49 17 -48 17 -50 17 -49 1338 5910 200 MP stroke
gr

c8
  36   36 1338 5910 FO
  36   36 1355 5861 FO
  36   36 1372 5811 FO
  36   36 1389 5763 FO
  36   36 1406 5714 FO
  36   36 1423 5666 FO
  36   36 1440 5619 FO
  36   36 1457 5572 FO
  36   36 1474 5527 FO
  36   36 1491 5482 FO
  36   36 1508 5438 FO
  36   36 1525 5396 FO
  36   36 1542 5355 FO
  36   36 1559 5315 FO
  36   36 1575 5276 FO
  36   36 1592 5239 FO
  36   36 1609 5204 FO
  36   36 1626 5170 FO
  36   36 1643 5138 FO
  36   36 1660 5108 FO
  36   36 1677 5079 FO
  36   36 1694 5053 FO
  36   36 1711 5029 FO
  36   36 1728 5006 FO
  36   36 1745 4986 FO
  36   36 1762 4968 FO
  36   36 1779 4952 FO
  36   36 1796 4938 FO
  36   36 1812 4927 FO
  36   36 1829 4917 FO
  36   36 1846 4910 FO
  36   36 1863 4906 FO
  36   36 1880 4903 FO
  36   36 1897 4903 FO
  36   36 1914 4906 FO
  36   36 1931 4910 FO
  36   36 1948 4917 FO
  36   36 1965 4927 FO
  36   36 1982 4938 FO
  36   36 1999 4952 FO
  36   36 2016 4968 FO
  36   36 2033 4986 FO
  36   36 2050 5006 FO
  36   36 2066 5029 FO
  36   36 2083 5053 FO
  36   36 2100 5079 FO
  36   36 2117 5108 FO
  36   36 2134 5138 FO
  36   36 2151 5170 FO
  36   36 2168 5204 FO
  36   36 2185 5239 FO
  36   36 2202 5276 FO
  36   36 2219 5315 FO
  36   36 2236 5355 FO
  36   36 2253 5396 FO
  36   36 2270 5438 FO
  36   36 2287 5482 FO
  36   36 2303 5527 FO
  36   36 2320 5572 FO
  36   36 2337 5619 FO
  36   36 2354 5666 FO
  36   36 2371 5714 FO
  36   36 2388 5763 FO
  36   36 2405 5811 FO
  36   36 2422 5861 FO
  36   36 2439 5910 FO
  36   36 2456 5960 FO
  36   36 2473 6009 FO
  36   36 2490 6058 FO
  36   36 2507 6108 FO
  36   36 2524 6156 FO
  36   36 2540 6205 FO
  36   36 2557 6253 FO
  36   36 2574 6300 FO
  36   36 2591 6347 FO
  36   36 2608 6392 FO
  36   36 2625 6437 FO
  36   36 2642 6481 FO
  36   36 2659 6523 FO
  36   36 2676 6564 FO
  36   36 2693 6604 FO
  36   36 2710 6643 FO
  36   36 2727 6680 FO
  36   36 2744 6715 FO
  36   36 2761 6749 FO
  36   36 2778 6781 FO
  36   36 2794 6811 FO
  36   36 2811 6840 FO
  36   36 2828 6866 FO
  36   36 2845 6890 FO
  36   36 2862 6913 FO
  36   36 2879 6933 FO
  36   36 2896 6951 FO
  36   36 2913 6967 FO
  36   36 2930 6981 FO
  36   36 2947 6992 FO
  36   36 2964 7002 FO
  36   36 2981 7009 FO
  36   36 2998 7013 FO
  36   36 3015 7016 FO
  36   36 3031 7016 FO
  36   36 3048 7013 FO
  36   36 3065 7009 FO
  36   36 3082 7002 FO
  36   36 3099 6992 FO
  36   36 3116 6981 FO
  36   36 3133 6967 FO
  36   36 3150 6951 FO
  36   36 3167 6933 FO
  36   36 3184 6913 FO
  36   36 3201 6890 FO
  36   36 3218 6866 FO
  36   36 3235 6840 FO
  36   36 3252 6811 FO
  36   36 3268 6781 FO
  36   36 3285 6749 FO
  36   36 3302 6715 FO
  36   36 3319 6680 FO
  36   36 3336 6643 FO
  36   36 3353 6604 FO
  36   36 3370 6564 FO
  36   36 3387 6523 FO
  36   36 3404 6481 FO
  36   36 3421 6437 FO
  36   36 3438 6392 FO
  36   36 3455 6347 FO
  36   36 3472 6300 FO
  36   36 3489 6253 FO
  36   36 3506 6205 FO
  36   36 3522 6156 FO
  36   36 3539 6108 FO
  36   36 3556 6058 FO
  36   36 3573 6009 FO
  36   36 3590 5960 FO
  36   36 3607 5910 FO
  36   36 3624 5861 FO
  36   36 3641 5811 FO
  36   36 3658 5763 FO
  36   36 3675 5714 FO
  36   36 3692 5666 FO
  36   36 3709 5619 FO
  36   36 3726 5572 FO
  36   36 3743 5527 FO
  36   36 3759 5482 FO
  36   36 3776 5438 FO
  36   36 3793 5396 FO
  36   36 3810 5355 FO
  36   36 3827 5315 FO
  36   36 3844 5276 FO
  36   36 3861 5239 FO
  36   36 3878 5204 FO
  36   36 3895 5170 FO
  36   36 3912 5138 FO
  36   36 3929 5108 FO
  36   36 3946 5079 FO
  36   36 3963 5053 FO
  36   36 3980 5029 FO
  36   36 3996 5006 FO
  36   36 4013 4986 FO
  36   36 4030 4968 FO
  36   36 4047 4952 FO
  36   36 4064 4938 FO
  36   36 4081 4927 FO
  36   36 4098 4917 FO
  36   36 4115 4910 FO
  36   36 4132 4906 FO
  36   36 4149 4903 FO
  36   36 4166 4903 FO
  36   36 4183 4906 FO
  36   36 4200 4910 FO
  36   36 4217 4917 FO
  36   36 4234 4927 FO
  36   36 4250 4938 FO
  36   36 4267 4952 FO
  36   36 4284 4968 FO
  36   36 4301 4986 FO
  36   36 4318 5006 FO
  36   36 4335 5029 FO
  36   36 4352 5053 FO
  36   36 4369 5079 FO
  36   36 4386 5108 FO
  36   36 4403 5138 FO
  36   36 4420 5170 FO
  36   36 4437 5204 FO
  36   36 4454 5239 FO
  36   36 4471 5276 FO
  36   36 4487 5315 FO
  36   36 4504 5355 FO
  36   36 4521 5396 FO
  36   36 4538 5438 FO
  36   36 4555 5482 FO
  36   36 4572 5527 FO
  36   36 4589 5572 FO
  36   36 4606 5619 FO
  36   36 4623 5666 FO
  36   36 4640 5714 FO
  36   36 4657 5763 FO
  36   36 4674 5811 FO
  36   36 4691 5861 FO
  36   36 4708 5910 FO
gs 1322 4547 3404 2827 rc
gr

0 sg
2992 7661 mt 
(x) s
 835 6064 mt  -90 rotate
(u\(x\)) s
90 rotate
2305 4444 mt 
(Solution of Au\(x\) = sin\(3) s
%%IncludeResource: font Symbol
/Symbol /WindowsLatin1Encoding 120 FMSR

3585 4444 mt 
(p) s
%%IncludeResource: font Helvetica
/Helvetica /WindowsLatin1Encoding 120 FMSR

3650 4444 mt 
(x\)) s
1305 7416 mt 
( ) s
4709 4589 mt 
( ) s
1 sg
0 334 1363 0 0 -334 3303 4941 4 MP
PP
-1363 0 0 334 1363 0 0 -334 3303 4941 5 MP stroke
4 w
DO
SO
6 w
0 sg
3303 4607 mt 4666 4607 L
3303 4941 mt 4666 4941 L
4666 4941 mt 4666 4607 L
3303 4941 mt 3303 4607 L
3303 4941 mt 4666 4941 L
3303 4941 mt 3303 4607 L
3303 4607 mt 4666 4607 L
3303 4941 mt 4666 4941 L
4666 4941 mt 4666 4607 L
3303 4941 mt 3303 4607 L
3776 4742 mt 
(analytic) s
gs 3303 4607 1364 335 rc
364 0 3375 4699 2 MP stroke
gs 3484 4626 147 147 rc
3532 4674 mt 3582 4724 L
3582 4674 mt 3532 4724 L
gr

gr

3776 4891 mt 
(weighted Jacobi) s
gs 3303 4607 1364 335 rc
c8
364 0 3375 4848 2 MP stroke
gs 3484 4775 147 147 rc
  36   36 3557 4848 FO
gr

gr

c8
1 sg
0 2826 3403 0 0 -2826 5800 7373 4 MP
PP
-3403 0 0 2826 3403 0 0 -2826 5800 7373 5 MP stroke
4 w
DO
0 sg
5800 7373 mt 5800 4547 L
5800 4547 mt 5800 4547 L
6480 7373 mt 6480 4547 L
6480 4547 mt 6480 4547 L
7161 7373 mt 7161 4547 L
7161 4547 mt 7161 4547 L
7841 7373 mt 7841 4547 L
7841 4547 mt 7841 4547 L
8522 7373 mt 8522 4547 L
8522 4547 mt 8522 4547 L
9203 7373 mt 9203 4547 L
9203 4547 mt 9203 4547 L
5800 7373 mt 9203 7373 L
9203 7373 mt 9203 7373 L
5800 7019 mt 9203 7019 L
9203 7019 mt 9203 7019 L
5800 6666 mt 9203 6666 L
9203 6666 mt 9203 6666 L
5800 6313 mt 9203 6313 L
9203 6313 mt 9203 6313 L
5800 5960 mt 9203 5960 L
9203 5960 mt 9203 5960 L
5800 5606 mt 9203 5606 L
9203 5606 mt 9203 5606 L
5800 5253 mt 9203 5253 L
9203 5253 mt 9203 5253 L
5800 4900 mt 9203 4900 L
9203 4900 mt 9203 4900 L
5800 4547 mt 9203 4547 L
9203 4547 mt 9203 4547 L
SO
6 w
5800 4547 mt 9203 4547 L
5800 7373 mt 9203 7373 L
9203 7373 mt 9203 4547 L
5800 7373 mt 5800 4547 L
5800 7373 mt 9203 7373 L
5800 7373 mt 5800 4547 L
5800 7373 mt 5800 7338 L
5800 4547 mt 5800 4581 L
5767 7518 mt 
(0) s
6480 7373 mt 6480 7338 L
6480 4547 mt 6480 4581 L
6397 7518 mt 
(0.2) s
7161 7373 mt 7161 7338 L
7161 4547 mt 7161 4581 L
7078 7518 mt 
(0.4) s
7841 7373 mt 7841 7338 L
7841 4547 mt 7841 4581 L
7758 7518 mt 
(0.6) s
8522 7373 mt 8522 7338 L
8522 4547 mt 8522 4581 L
8439 7518 mt 
(0.8) s
9203 7373 mt 9203 7338 L
9203 4547 mt 9203 4581 L
9170 7518 mt 
(1) s
5800 7373 mt 5834 7373 L
9203 7373 mt 9168 7373 L
5629 7417 mt 
(-8) s
5800 7019 mt 5834 7019 L
9203 7019 mt 9168 7019 L
5629 7063 mt 
(-6) s
5800 6666 mt 5834 6666 L
9203 6666 mt 9168 6666 L
5629 6710 mt 
(-4) s
5800 6313 mt 5834 6313 L
9203 6313 mt 9168 6313 L
5629 6357 mt 
(-2) s
5800 5960 mt 5834 5960 L
9203 5960 mt 9168 5960 L
5699 6004 mt 
(0) s
5800 5606 mt 5834 5606 L
9203 5606 mt 9168 5606 L
5699 5650 mt 
(2) s
5800 5253 mt 5834 5253 L
9203 5253 mt 9168 5253 L
5699 5297 mt 
(4) s
5800 4900 mt 5834 4900 L
9203 4900 mt 9168 4900 L
5699 4944 mt 
(6) s
5800 4547 mt 5834 4547 L
9203 4547 mt 9168 4547 L
5699 4591 mt 
(8) s
5800 4493 mt 
(x 10) s
%%IncludeResource: font Helvetica
/Helvetica /WindowsLatin1Encoding 80 FMSR

6026 4419 mt 
(-3) s
5800 4547 mt 9203 4547 L
5800 7373 mt 9203 7373 L
9203 7373 mt 9203 4547 L
5800 7373 mt 5800 4547 L
gs 5800 4547 3404 2827 rc
17 -70 17 -69 17 -68 17 -67 17 -66 17 -65 17 -62 17 -60 
17 -58 17 -55 17 -53 17 -50 17 -46 16 -43 17 -40 17 -36 
17 -32 17 -28 17 -24 17 -20 17 -16 17 -11 17 -7 17 -3 
17 2 17 6 17 10 16 15 17 19 17 23 17 27 17 31 
17 35 17 38 17 43 17 45 17 49 17 52 17 55 17 57 
17 60 17 62 16 63 17 66 17 67 17 68 17 69 17 69 
17 70 17 70 17 70 17 69 17 68 17 68 17 66 17 65 
16 62 17 61 17 59 17 56 17 53 17 51 17 47 17 44 
17 40 17 37 17 33 17 29 17 25 17 21 16 17 17 13 
17 8 17 4 17 -1 17 -5 17 -9 17 -14 17 -17 17 -22 
17 -27 17 -30 17 -34 17 -37 17 -42 16 -45 17 -48 17 -51 
17 -54 17 -57 17 -59 17 -61 17 -63 17 -65 17 -67 17 -68 
17 -68 17 -70 17 -70 16 -69 17 -70 17 -70 17 -68 17 -68 
17 -67 17 -65 17 -63 17 -61 17 -59 17 -57 17 -54 17 -51 
17 -48 16 -45 17 -42 17 -37 17 -34 17 -30 17 -27 17 -22 
17 -17 17 -14 17 -9 17 -5 17 -1 17 4 17 8 17 13 
16 17 17 21 17 25 17 29 17 33 17 37 17 40 17 44 
17 47 17 51 17 53 17 56 17 59 17 61 16 62 17 65 
17 66 17 68 17 68 17 69 17 70 17 70 17 70 17 69 
17 69 17 68 17 67 17 66 16 63 17 62 17 60 17 57 
17 55 17 52 17 49 17 45 17 43 17 38 17 35 17 31 
17 27 17 23 17 19 16 15 17 10 17 6 17 2 17 -3 
17 -7 17 -11 17 -16 17 -20 17 -24 17 -28 17 -32 17 -36 
17 -40 16 -43 17 -46 17 -50 17 -53 17 -55 17 -58 17 -60 
17 -62 17 -65 17 -66 17 -67 17 -68 17 -69 17 -70 5816 5890 200 MP stroke
gr

5791 5865 mt 5841 5915 L
5841 5865 mt 5791 5915 L
5808 5795 mt 5858 5845 L
5858 5795 mt 5808 5845 L
5825 5726 mt 5875 5776 L
5875 5726 mt 5825 5776 L
5842 5658 mt 5892 5708 L
5892 5658 mt 5842 5708 L
5859 5591 mt 5909 5641 L
5909 5591 mt 5859 5641 L
5876 5525 mt 5926 5575 L
5926 5525 mt 5876 5575 L
5893 5460 mt 5943 5510 L
5943 5460 mt 5893 5510 L
5910 5398 mt 5960 5448 L
5960 5398 mt 5910 5448 L
5927 5338 mt 5977 5388 L
5977 5338 mt 5927 5388 L
5944 5280 mt 5994 5330 L
5994 5280 mt 5944 5330 L
5961 5225 mt 6011 5275 L
6011 5225 mt 5961 5275 L
5978 5172 mt 6028 5222 L
6028 5172 mt 5978 5222 L
5995 5122 mt 6045 5172 L
6045 5122 mt 5995 5172 L
6012 5076 mt 6062 5126 L
6062 5076 mt 6012 5126 L
6028 5033 mt 6078 5083 L
6078 5033 mt 6028 5083 L
6045 4993 mt 6095 5043 L
6095 4993 mt 6045 5043 L
6062 4957 mt 6112 5007 L
6112 4957 mt 6062 5007 L
6079 4925 mt 6129 4975 L
6129 4925 mt 6079 4975 L
6096 4897 mt 6146 4947 L
6146 4897 mt 6096 4947 L
6113 4873 mt 6163 4923 L
6163 4873 mt 6113 4923 L
6130 4853 mt 6180 4903 L
6180 4853 mt 6130 4903 L
6147 4837 mt 6197 4887 L
6197 4837 mt 6147 4887 L
6164 4826 mt 6214 4876 L
6214 4826 mt 6164 4876 L
6181 4819 mt 6231 4869 L
6231 4819 mt 6181 4869 L
6198 4816 mt 6248 4866 L
6248 4816 mt 6198 4866 L
6215 4818 mt 6265 4868 L
6265 4818 mt 6215 4868 L
6232 4824 mt 6282 4874 L
6282 4824 mt 6232 4874 L
6249 4834 mt 6299 4884 L
6299 4834 mt 6249 4884 L
6265 4849 mt 6315 4899 L
6315 4849 mt 6265 4899 L
6282 4868 mt 6332 4918 L
6332 4868 mt 6282 4918 L
6299 4891 mt 6349 4941 L
6349 4891 mt 6299 4941 L
6316 4918 mt 6366 4968 L
6366 4918 mt 6316 4968 L
6333 4949 mt 6383 4999 L
6383 4949 mt 6333 4999 L
6350 4984 mt 6400 5034 L
6400 4984 mt 6350 5034 L
6367 5022 mt 6417 5072 L
6417 5022 mt 6367 5072 L
6384 5065 mt 6434 5115 L
6434 5065 mt 6384 5115 L
6401 5110 mt 6451 5160 L
6451 5110 mt 6401 5160 L
6418 5159 mt 6468 5209 L
6468 5159 mt 6418 5209 L
6435 5211 mt 6485 5261 L
6485 5211 mt 6435 5261 L
6452 5266 mt 6502 5316 L
6502 5266 mt 6452 5316 L
6469 5323 mt 6519 5373 L
6519 5323 mt 6469 5373 L
6486 5383 mt 6536 5433 L
6536 5383 mt 6486 5433 L
6503 5445 mt 6553 5495 L
6553 5445 mt 6503 5495 L
6519 5508 mt 6569 5558 L
6569 5508 mt 6519 5558 L
6536 5574 mt 6586 5624 L
6586 5574 mt 6536 5624 L
6553 5641 mt 6603 5691 L
6603 5641 mt 6553 5691 L
6570 5709 mt 6620 5759 L
6620 5709 mt 6570 5759 L
6587 5778 mt 6637 5828 L
6637 5778 mt 6587 5828 L
6604 5847 mt 6654 5897 L
6654 5847 mt 6604 5897 L
6621 5917 mt 6671 5967 L
6671 5917 mt 6621 5967 L
6638 5987 mt 6688 6037 L
6688 5987 mt 6638 6037 L
6655 6057 mt 6705 6107 L
6705 6057 mt 6655 6107 L
6672 6126 mt 6722 6176 L
6722 6126 mt 6672 6176 L
6689 6194 mt 6739 6244 L
6739 6194 mt 6689 6244 L
6706 6262 mt 6756 6312 L
6756 6262 mt 6706 6312 L
6723 6328 mt 6773 6378 L
6773 6328 mt 6723 6378 L
6740 6393 mt 6790 6443 L
6790 6393 mt 6740 6443 L
6756 6455 mt 6806 6505 L
6806 6455 mt 6756 6505 L
6773 6516 mt 6823 6566 L
6823 6516 mt 6773 6566 L
6790 6575 mt 6840 6625 L
6840 6575 mt 6790 6625 L
6807 6631 mt 6857 6681 L
6857 6631 mt 6807 6681 L
6824 6684 mt 6874 6734 L
6874 6684 mt 6824 6734 L
6841 6735 mt 6891 6785 L
6891 6735 mt 6841 6785 L
6858 6782 mt 6908 6832 L
6908 6782 mt 6858 6832 L
6875 6826 mt 6925 6876 L
6925 6826 mt 6875 6876 L
6892 6866 mt 6942 6916 L
6942 6866 mt 6892 6916 L
6909 6903 mt 6959 6953 L
6959 6903 mt 6909 6953 L
6926 6936 mt 6976 6986 L
6976 6936 mt 6926 6986 L
6943 6965 mt 6993 7015 L
6993 6965 mt 6943 7015 L
6960 6990 mt 7010 7040 L
7010 6990 mt 6960 7040 L
6977 7011 mt 7027 7061 L
7027 7011 mt 6977 7061 L
6993 7028 mt 7043 7078 L
7043 7028 mt 6993 7078 L
7010 7041 mt 7060 7091 L
7060 7041 mt 7010 7091 L
7027 7049 mt 7077 7099 L
7077 7049 mt 7027 7099 L
7044 7053 mt 7094 7103 L
7094 7053 mt 7044 7103 L
7061 7052 mt 7111 7102 L
7111 7052 mt 7061 7102 L
7078 7047 mt 7128 7097 L
7128 7047 mt 7078 7097 L
7095 7038 mt 7145 7088 L
7145 7038 mt 7095 7088 L
7112 7024 mt 7162 7074 L
7162 7024 mt 7112 7074 L
7129 7007 mt 7179 7057 L
7179 7007 mt 7129 7057 L
7146 6985 mt 7196 7035 L
7196 6985 mt 7146 7035 L
7163 6958 mt 7213 7008 L
7213 6958 mt 7163 7008 L
7180 6928 mt 7230 6978 L
7230 6928 mt 7180 6978 L
7197 6894 mt 7247 6944 L
7247 6894 mt 7197 6944 L
7214 6857 mt 7264 6907 L
7264 6857 mt 7214 6907 L
7231 6815 mt 7281 6865 L
7281 6815 mt 7231 6865 L
7247 6770 mt 7297 6820 L
7297 6770 mt 7247 6820 L
7264 6722 mt 7314 6772 L
7314 6722 mt 7264 6772 L
7281 6671 mt 7331 6721 L
7331 6671 mt 7281 6721 L
7298 6617 mt 7348 6667 L
7348 6617 mt 7298 6667 L
7315 6560 mt 7365 6610 L
7365 6560 mt 7315 6610 L
7332 6501 mt 7382 6551 L
7382 6501 mt 7332 6551 L
7349 6440 mt 7399 6490 L
7399 6440 mt 7349 6490 L
7366 6377 mt 7416 6427 L
7416 6377 mt 7366 6427 L
7383 6312 mt 7433 6362 L
7433 6312 mt 7383 6362 L
7400 6245 mt 7450 6295 L
7450 6245 mt 7400 6295 L
7417 6177 mt 7467 6227 L
7467 6177 mt 7417 6227 L
7434 6109 mt 7484 6159 L
7484 6109 mt 7434 6159 L
7451 6039 mt 7501 6089 L
7501 6039 mt 7451 6089 L
7468 5969 mt 7518 6019 L
7518 5969 mt 7468 6019 L
7484 5900 mt 7534 5950 L
7534 5900 mt 7484 5950 L
7501 5830 mt 7551 5880 L
7551 5830 mt 7501 5880 L
7518 5760 mt 7568 5810 L
7568 5760 mt 7518 5810 L
7535 5692 mt 7585 5742 L
7585 5692 mt 7535 5742 L
7552 5624 mt 7602 5674 L
7602 5624 mt 7552 5674 L
7569 5557 mt 7619 5607 L
7619 5557 mt 7569 5607 L
7586 5492 mt 7636 5542 L
7636 5492 mt 7586 5542 L
7603 5429 mt 7653 5479 L
7653 5429 mt 7603 5479 L
7620 5368 mt 7670 5418 L
7670 5368 mt 7620 5418 L
7637 5309 mt 7687 5359 L
7687 5309 mt 7637 5359 L
7654 5252 mt 7704 5302 L
7704 5252 mt 7654 5302 L
7671 5198 mt 7721 5248 L
7721 5198 mt 7671 5248 L
7688 5147 mt 7738 5197 L
7738 5147 mt 7688 5197 L
7705 5099 mt 7755 5149 L
7755 5099 mt 7705 5149 L
7721 5054 mt 7771 5104 L
7771 5054 mt 7721 5104 L
7738 5012 mt 7788 5062 L
7788 5012 mt 7738 5062 L
7755 4975 mt 7805 5025 L
7805 4975 mt 7755 5025 L
7772 4941 mt 7822 4991 L
7822 4941 mt 7772 4991 L
7789 4911 mt 7839 4961 L
7839 4911 mt 7789 4961 L
7806 4884 mt 7856 4934 L
7856 4884 mt 7806 4934 L
7823 4862 mt 7873 4912 L
7873 4862 mt 7823 4912 L
7840 4845 mt 7890 4895 L
7890 4845 mt 7840 4895 L
7857 4831 mt 7907 4881 L
7907 4831 mt 7857 4881 L
7874 4822 mt 7924 4872 L
7924 4822 mt 7874 4872 L
7891 4817 mt 7941 4867 L
7941 4817 mt 7891 4867 L
7908 4816 mt 7958 4866 L
7958 4816 mt 7908 4866 L
7925 4820 mt 7975 4870 L
7975 4820 mt 7925 4870 L
7942 4828 mt 7992 4878 L
7992 4828 mt 7942 4878 L
7959 4841 mt 8009 4891 L
8009 4841 mt 7959 4891 L
7975 4858 mt 8025 4908 L
8025 4858 mt 7975 4908 L
7992 4879 mt 8042 4929 L
8042 4879 mt 7992 4929 L
8009 4904 mt 8059 4954 L
8059 4904 mt 8009 4954 L
8026 4933 mt 8076 4983 L
8076 4933 mt 8026 4983 L
8043 4966 mt 8093 5016 L
8093 4966 mt 8043 5016 L
8060 5003 mt 8110 5053 L
8110 5003 mt 8060 5053 L
8077 5043 mt 8127 5093 L
8127 5043 mt 8077 5093 L
8094 5087 mt 8144 5137 L
8144 5087 mt 8094 5137 L
8111 5134 mt 8161 5184 L
8161 5134 mt 8111 5184 L
8128 5185 mt 8178 5235 L
8178 5185 mt 8128 5235 L
8145 5238 mt 8195 5288 L
8195 5238 mt 8145 5288 L
8162 5294 mt 8212 5344 L
8212 5294 mt 8162 5344 L
8179 5353 mt 8229 5403 L
8229 5353 mt 8179 5403 L
8196 5414 mt 8246 5464 L
8246 5414 mt 8196 5464 L
8212 5476 mt 8262 5526 L
8262 5476 mt 8212 5526 L
8229 5541 mt 8279 5591 L
8279 5541 mt 8229 5591 L
8246 5607 mt 8296 5657 L
8296 5607 mt 8246 5657 L
8263 5675 mt 8313 5725 L
8313 5675 mt 8263 5725 L
8280 5743 mt 8330 5793 L
8330 5743 mt 8280 5793 L
8297 5812 mt 8347 5862 L
8347 5812 mt 8297 5862 L
8314 5882 mt 8364 5932 L
8364 5882 mt 8314 5932 L
8331 5952 mt 8381 6002 L
8381 5952 mt 8331 6002 L
8348 6022 mt 8398 6072 L
8398 6022 mt 8348 6072 L
8365 6091 mt 8415 6141 L
8415 6091 mt 8365 6141 L
8382 6160 mt 8432 6210 L
8432 6160 mt 8382 6210 L
8399 6228 mt 8449 6278 L
8449 6228 mt 8399 6278 L
8416 6295 mt 8466 6345 L
8466 6295 mt 8416 6345 L
8433 6361 mt 8483 6411 L
8483 6361 mt 8433 6411 L
8449 6424 mt 8499 6474 L
8499 6424 mt 8449 6474 L
8466 6486 mt 8516 6536 L
8516 6486 mt 8466 6536 L
8483 6546 mt 8533 6596 L
8533 6546 mt 8483 6596 L
8500 6603 mt 8550 6653 L
8550 6603 mt 8500 6653 L
8517 6658 mt 8567 6708 L
8567 6658 mt 8517 6708 L
8534 6710 mt 8584 6760 L
8584 6710 mt 8534 6760 L
8551 6759 mt 8601 6809 L
8601 6759 mt 8551 6809 L
8568 6804 mt 8618 6854 L
8618 6804 mt 8568 6854 L
8585 6847 mt 8635 6897 L
8635 6847 mt 8585 6897 L
8602 6885 mt 8652 6935 L
8652 6885 mt 8602 6935 L
8619 6920 mt 8669 6970 L
8669 6920 mt 8619 6970 L
8636 6951 mt 8686 7001 L
8686 6951 mt 8636 7001 L
8653 6978 mt 8703 7028 L
8703 6978 mt 8653 7028 L
8670 7001 mt 8720 7051 L
8720 7001 mt 8670 7051 L
8687 7020 mt 8737 7070 L
8737 7020 mt 8687 7070 L
8703 7035 mt 8753 7085 L
8753 7035 mt 8703 7085 L
8720 7045 mt 8770 7095 L
8770 7045 mt 8720 7095 L
8737 7051 mt 8787 7101 L
8787 7051 mt 8737 7101 L
8754 7053 mt 8804 7103 L
8804 7053 mt 8754 7103 L
8771 7050 mt 8821 7100 L
8821 7050 mt 8771 7100 L
8788 7043 mt 8838 7093 L
8838 7043 mt 8788 7093 L
8805 7032 mt 8855 7082 L
8855 7032 mt 8805 7082 L
8822 7016 mt 8872 7066 L
8872 7016 mt 8822 7066 L
8839 6996 mt 8889 7046 L
8889 6996 mt 8839 7046 L
8856 6972 mt 8906 7022 L
8906 6972 mt 8856 7022 L
8873 6944 mt 8923 6994 L
8923 6944 mt 8873 6994 L
8890 6912 mt 8940 6962 L
8940 6912 mt 8890 6962 L
8907 6876 mt 8957 6926 L
8957 6876 mt 8907 6926 L
8924 6836 mt 8974 6886 L
8974 6836 mt 8924 6886 L
8940 6793 mt 8990 6843 L
8990 6793 mt 8940 6843 L
8957 6747 mt 9007 6797 L
9007 6747 mt 8957 6797 L
8974 6697 mt 9024 6747 L
9024 6697 mt 8974 6747 L
8991 6644 mt 9041 6694 L
9041 6644 mt 8991 6694 L
9008 6589 mt 9058 6639 L
9058 6589 mt 9008 6639 L
9025 6531 mt 9075 6581 L
9075 6531 mt 9025 6581 L
9042 6471 mt 9092 6521 L
9092 6471 mt 9042 6521 L
9059 6409 mt 9109 6459 L
9109 6409 mt 9059 6459 L
9076 6344 mt 9126 6394 L
9126 6344 mt 9076 6394 L
9093 6278 mt 9143 6328 L
9143 6278 mt 9093 6328 L
9110 6211 mt 9160 6261 L
9160 6211 mt 9110 6261 L
9127 6143 mt 9177 6193 L
9177 6143 mt 9127 6193 L
9144 6074 mt 9194 6124 L
9194 6074 mt 9144 6124 L
9161 6004 mt 9211 6054 L
9211 6004 mt 9161 6054 L
gs 5800 4547 3404 2827 rc
c8
17 -70 17 -69 17 -68 17 -68 17 -65 17 -65 17 -62 17 -60 
17 -58 17 -56 17 -52 17 -50 17 -46 16 -44 17 -39 17 -36 
17 -32 17 -28 17 -24 17 -20 17 -16 17 -11 17 -8 17 -2 
17 1 17 6 17 11 16 14 17 19 17 23 17 27 17 32 
17 35 17 38 17 42 17 46 17 49 17 52 17 55 17 57 
17 60 17 62 16 63 17 66 17 67 17 68 17 69 17 69 
17 70 17 70 17 70 17 69 17 68 17 68 17 66 17 65 
16 63 17 60 17 59 17 56 17 53 17 51 17 47 17 44 
17 41 17 36 17 33 17 30 17 25 17 21 16 16 17 13 
17 8 17 4 17 -1 17 -4 17 -10 17 -13 17 -18 17 -22 
17 -26 17 -30 17 -34 17 -38 17 -42 16 -44 17 -48 17 -52 
17 -54 17 -56 17 -60 17 -61 17 -63 17 -65 17 -67 17 -68 
17 -68 17 -70 17 -70 16 -69 17 -70 17 -70 17 -68 17 -68 
17 -67 17 -65 17 -63 17 -61 17 -60 17 -56 17 -54 17 -52 
17 -48 16 -44 17 -42 17 -38 17 -34 17 -30 17 -26 17 -22 
17 -18 17 -13 17 -10 17 -4 17 -1 17 4 17 8 17 13 
16 16 17 21 17 25 17 30 17 33 17 36 17 41 17 44 
17 47 17 51 17 53 17 56 17 59 17 60 16 63 17 65 
17 66 17 68 17 68 17 69 17 70 17 70 17 70 17 69 
17 69 17 68 17 67 17 66 16 63 17 62 17 60 17 57 
17 55 17 52 17 49 17 46 17 42 17 38 17 35 17 32 
17 27 17 23 17 19 16 14 17 11 17 6 17 1 17 -2 
17 -8 17 -11 17 -16 17 -20 17 -24 17 -28 17 -32 17 -36 
17 -39 16 -44 17 -46 17 -50 17 -52 17 -56 17 -58 17 -60 
17 -62 17 -65 17 -65 17 -68 17 -68 17 -69 17 -70 5816 5890 200 MP stroke
gr

c8
  36   36 5816 5890 FO
  36   36 5833 5820 FO
  36   36 5850 5751 FO
  36   36 5867 5683 FO
  36   36 5884 5615 FO
  36   36 5901 5550 FO
  36   36 5918 5485 FO
  36   36 5935 5423 FO
  36   36 5952 5363 FO
  36   36 5969 5305 FO
  36   36 5986 5249 FO
  36   36 6003 5197 FO
  36   36 6020 5147 FO
  36   36 6037 5101 FO
  36   36 6053 5057 FO
  36   36 6070 5018 FO
  36   36 6087 4982 FO
  36   36 6104 4950 FO
  36   36 6121 4922 FO
  36   36 6138 4898 FO
  36   36 6155 4878 FO
  36   36 6172 4862 FO
  36   36 6189 4851 FO
  36   36 6206 4843 FO
  36   36 6223 4841 FO
  36   36 6240 4842 FO
  36   36 6257 4848 FO
  36   36 6274 4859 FO
  36   36 6290 4873 FO
  36   36 6307 4892 FO
  36   36 6324 4915 FO
  36   36 6341 4942 FO
  36   36 6358 4974 FO
  36   36 6375 5009 FO
  36   36 6392 5047 FO
  36   36 6409 5089 FO
  36   36 6426 5135 FO
  36   36 6443 5184 FO
  36   36 6460 5236 FO
  36   36 6477 5291 FO
  36   36 6494 5348 FO
  36   36 6511 5408 FO
  36   36 6528 5470 FO
  36   36 6544 5533 FO
  36   36 6561 5599 FO
  36   36 6578 5666 FO
  36   36 6595 5734 FO
  36   36 6612 5803 FO
  36   36 6629 5872 FO
  36   36 6646 5942 FO
  36   36 6663 6012 FO
  36   36 6680 6082 FO
  36   36 6697 6151 FO
  36   36 6714 6219 FO
  36   36 6731 6287 FO
  36   36 6748 6353 FO
  36   36 6765 6418 FO
  36   36 6781 6481 FO
  36   36 6798 6541 FO
  36   36 6815 6600 FO
  36   36 6832 6656 FO
  36   36 6849 6709 FO
  36   36 6866 6760 FO
  36   36 6883 6807 FO
  36   36 6900 6851 FO
  36   36 6917 6892 FO
  36   36 6934 6928 FO
  36   36 6951 6961 FO
  36   36 6968 6991 FO
  36   36 6985 7016 FO
  36   36 7002 7037 FO
  36   36 7018 7053 FO
  36   36 7035 7066 FO
  36   36 7052 7074 FO
  36   36 7069 7078 FO
  36   36 7086 7077 FO
  36   36 7103 7073 FO
  36   36 7120 7063 FO
  36   36 7137 7050 FO
  36   36 7154 7032 FO
  36   36 7171 7010 FO
  36   36 7188 6984 FO
  36   36 7205 6954 FO
  36   36 7222 6920 FO
  36   36 7239 6882 FO
  36   36 7256 6840 FO
  36   36 7272 6796 FO
  36   36 7289 6748 FO
  36   36 7306 6696 FO
  36   36 7323 6642 FO
  36   36 7340 6586 FO
  36   36 7357 6526 FO
  36   36 7374 6465 FO
  36   36 7391 6402 FO
  36   36 7408 6337 FO
  36   36 7425 6270 FO
  36   36 7442 6202 FO
  36   36 7459 6134 FO
  36   36 7476 6064 FO
  36   36 7493 5994 FO
  36   36 7509 5925 FO
  36   36 7526 5855 FO
  36   36 7543 5785 FO
  36   36 7560 5717 FO
  36   36 7577 5649 FO
  36   36 7594 5582 FO
  36   36 7611 5517 FO
  36   36 7628 5454 FO
  36   36 7645 5393 FO
  36   36 7662 5333 FO
  36   36 7679 5277 FO
  36   36 7696 5223 FO
  36   36 7713 5171 FO
  36   36 7730 5123 FO
  36   36 7746 5079 FO
  36   36 7763 5037 FO
  36   36 7780 4999 FO
  36   36 7797 4965 FO
  36   36 7814 4935 FO
  36   36 7831 4909 FO
  36   36 7848 4887 FO
  36   36 7865 4869 FO
  36   36 7882 4856 FO
  36   36 7899 4846 FO
  36   36 7916 4842 FO
  36   36 7933 4841 FO
  36   36 7950 4845 FO
  36   36 7967 4853 FO
  36   36 7984 4866 FO
  36   36 8000 4882 FO
  36   36 8017 4903 FO
  36   36 8034 4928 FO
  36   36 8051 4958 FO
  36   36 8068 4991 FO
  36   36 8085 5027 FO
  36   36 8102 5068 FO
  36   36 8119 5112 FO
  36   36 8136 5159 FO
  36   36 8153 5210 FO
  36   36 8170 5263 FO
  36   36 8187 5319 FO
  36   36 8204 5378 FO
  36   36 8221 5438 FO
  36   36 8237 5501 FO
  36   36 8254 5566 FO
  36   36 8271 5632 FO
  36   36 8288 5700 FO
  36   36 8305 5768 FO
  36   36 8322 5837 FO
  36   36 8339 5907 FO
  36   36 8356 5977 FO
  36   36 8373 6047 FO
  36   36 8390 6116 FO
  36   36 8407 6185 FO
  36   36 8424 6253 FO
  36   36 8441 6320 FO
  36   36 8458 6386 FO
  36   36 8474 6449 FO
  36   36 8491 6511 FO
  36   36 8508 6571 FO
  36   36 8525 6628 FO
  36   36 8542 6683 FO
  36   36 8559 6735 FO
  36   36 8576 6784 FO
  36   36 8593 6830 FO
  36   36 8610 6872 FO
  36   36 8627 6910 FO
  36   36 8644 6945 FO
  36   36 8661 6977 FO
  36   36 8678 7004 FO
  36   36 8695 7027 FO
  36   36 8712 7046 FO
  36   36 8728 7060 FO
  36   36 8745 7071 FO
  36   36 8762 7077 FO
  36   36 8779 7078 FO
  36   36 8796 7076 FO
  36   36 8813 7068 FO
  36   36 8830 7057 FO
  36   36 8847 7041 FO
  36   36 8864 7021 FO
  36   36 8881 6997 FO
  36   36 8898 6969 FO
  36   36 8915 6937 FO
  36   36 8932 6901 FO
  36   36 8949 6862 FO
  36   36 8965 6818 FO
  36   36 8982 6772 FO
  36   36 8999 6722 FO
  36   36 9016 6670 FO
  36   36 9033 6614 FO
  36   36 9050 6556 FO
  36   36 9067 6496 FO
  36   36 9084 6434 FO
  36   36 9101 6369 FO
  36   36 9118 6304 FO
  36   36 9135 6236 FO
  36   36 9152 6168 FO
  36   36 9169 6099 FO
  36   36 9186 6029 FO
gs 5800 4547 3404 2827 rc
gr

0 sg
%%IncludeResource: font Helvetica
/Helvetica /WindowsLatin1Encoding 120 FMSR

7470 7661 mt 
(x) s
5547 6064 mt  -90 rotate
(u\(x\)) s
90 rotate
6783 4444 mt 
(Solution of Au\(x\) = sin\(4) s
%%IncludeResource: font Symbol
/Symbol /WindowsLatin1Encoding 120 FMSR

8063 4444 mt 
(p) s
%%IncludeResource: font Helvetica
/Helvetica /WindowsLatin1Encoding 120 FMSR

8128 4444 mt 
(x\)) s
5783 7416 mt 
( ) s
9187 4589 mt 
( ) s
1 sg
0 334 1362 0 0 -334 7782 4941 4 MP
PP
-1362 0 0 334 1362 0 0 -334 7782 4941 5 MP stroke
4 w
DO
SO
6 w
0 sg
7782 4607 mt 9144 4607 L
7782 4941 mt 9144 4941 L
9144 4941 mt 9144 4607 L
7782 4941 mt 7782 4607 L
7782 4941 mt 9144 4941 L
7782 4941 mt 7782 4607 L
7782 4607 mt 9144 4607 L
7782 4941 mt 9144 4941 L
9144 4941 mt 9144 4607 L
7782 4941 mt 7782 4607 L
8255 4742 mt 
(analytic) s
gs 7782 4607 1363 335 rc
363 0 7854 4699 2 MP stroke
gs 7963 4626 147 147 rc
8011 4674 mt 8061 4724 L
8061 4674 mt 8011 4724 L
gr

gr

8255 4891 mt 
(weighted Jacobi) s
gs 7782 4607 1363 335 rc
c8
363 0 7854 4848 2 MP stroke
gs 7963 4775 147 147 rc
  36   36 8036 4848 FO
gr

gr

c8

end %%Color Dict

eplot
%%EndObject

epage
end

showpage

%%Trailer
%%EOF
