%!PS-Adobe-3.0 EPSF-3.0
%%Creator: MATLAB, The Mathworks, Inc. Version 7.4.0.287 (R2007a). Operating System: Microsoft Windows XP.
%%Title: D:\Work\Courses\Iteratieve methoden voor het oplossen van stelsels en eigenwaardeproblemen\trunk\oefeningen\oef_2\vraag_3c_opl.eps
%%CreationDate: 03/04/2008  14:41:44
%%DocumentNeededFonts: Helvetica
%%DocumentProcessColors: Cyan Magenta Yellow Black
%%LanguageLevel: 2
%%Pages: 1
%%BoundingBox:    87   262   507   578
%%EndComments

%%BeginProlog
% MathWorks dictionary
/MathWorks 160 dict begin
% definition operators
/bdef {bind def} bind def
/ldef {load def} bind def
/xdef {exch def} bdef
/xstore {exch store} bdef
% operator abbreviations
/c  /clip ldef
/cc /concat ldef
/cp /closepath ldef
/gr /grestore ldef
/gs /gsave ldef
/mt /moveto ldef
/np /newpath ldef
/cm /currentmatrix ldef
/sm /setmatrix ldef
/rm /rmoveto ldef
/rl /rlineto ldef
/s {show newpath} bdef
/sc {setcmykcolor} bdef
/sr /setrgbcolor ldef
/sg /setgray ldef
/w /setlinewidth ldef
/j /setlinejoin ldef
/cap /setlinecap ldef
/rc {rectclip} bdef
/rf {rectfill} bdef
% page state control
/pgsv () def
/bpage {/pgsv save def} bdef
/epage {pgsv restore} bdef
/bplot /gsave ldef
/eplot {stroke grestore} bdef
% orientation switch
/portraitMode 0 def /landscapeMode 1 def /rotateMode 2 def
% coordinate system mappings
/dpi2point 0 def
% font control
/FontSize 0 def
/FMS {/FontSize xstore findfont [FontSize 0 0 FontSize neg 0 0]
  makefont setfont} bdef
/ISOLatin1Encoding where {pop /WindowsLatin1Encoding 256 array bdef
ISOLatin1Encoding WindowsLatin1Encoding copy pop
/.notdef/.notdef/quotesinglbase/florin/quotedblbase/ellipsis/dagger
/daggerdbl/circumflex/perthousand/Scaron/guilsinglleft/OE/.notdef/.notdef
/.notdef/.notdef/quoteleft/quoteright/quotedblleft/quotedblright/bullet
/endash/emdash/tilde/trademark/scaron/guilsinglright/oe/.notdef/.notdef
/Ydieresis WindowsLatin1Encoding 128 32 getinterval astore pop}
{/WindowsLatin1Encoding StandardEncoding bdef} ifelse
/reencode {exch dup where {pop load} {pop StandardEncoding} ifelse
  exch dup 3 1 roll findfont dup length dict begin
  { 1 index /FID ne {def}{pop pop} ifelse } forall
  /Encoding exch def currentdict end definefont pop} bdef
/isroman {findfont /CharStrings get /Agrave known} bdef
/FMSR {3 1 roll 1 index dup isroman {reencode} {pop pop} ifelse
  exch FMS} bdef
/csm {1 dpi2point div -1 dpi2point div scale neg translate
 dup landscapeMode eq {pop -90 rotate}
  {rotateMode eq {90 rotate} if} ifelse} bdef
% line types: solid, dotted, dashed, dotdash
/SO { [] 0 setdash } bdef
/DO { [.5 dpi2point mul 4 dpi2point mul] 0 setdash } bdef
/DA { [6 dpi2point mul] 0 setdash } bdef
/DD { [.5 dpi2point mul 4 dpi2point mul 6 dpi2point mul 4
  dpi2point mul] 0 setdash } bdef
% macros for lines and objects
/L {lineto stroke} bdef
/MP {3 1 roll moveto 1 sub {rlineto} repeat} bdef
/AP {{rlineto} repeat} bdef
/PDlw -1 def
/W {/PDlw currentlinewidth def setlinewidth} def
/PP {closepath eofill} bdef
/DP {closepath stroke} bdef
/MR {4 -2 roll moveto dup  0 exch rlineto exch 0 rlineto
  neg 0 exch rlineto closepath} bdef
/FR {MR stroke} bdef
/PR {MR fill} bdef
/L1i {{currentfile picstr readhexstring pop} image} bdef
/tMatrix matrix def
/MakeOval {newpath tMatrix currentmatrix pop translate scale
0 0 1 0 360 arc tMatrix setmatrix} bdef
/FO {MakeOval stroke} bdef
/PO {MakeOval fill} bdef
/PD {currentlinewidth 2 div 0 360 arc fill
   PDlw -1 eq not {PDlw w /PDlw -1 def} if} def
/FA {newpath tMatrix currentmatrix pop translate scale
  0 0 1 5 -2 roll arc tMatrix setmatrix stroke} bdef
/PA {newpath tMatrix currentmatrix pop	translate 0 0 moveto scale
  0 0 1 5 -2 roll arc closepath tMatrix setmatrix fill} bdef
/FAn {newpath tMatrix currentmatrix pop translate scale
  0 0 1 5 -2 roll arcn tMatrix setmatrix stroke} bdef
/PAn {newpath tMatrix currentmatrix pop translate 0 0 moveto scale
  0 0 1 5 -2 roll arcn closepath tMatrix setmatrix fill} bdef
/vradius 0 def /hradius 0 def /lry 0 def
/lrx 0 def /uly 0 def /ulx 0 def /rad 0 def
/MRR {/vradius xdef /hradius xdef /lry xdef /lrx xdef /uly xdef
  /ulx xdef newpath tMatrix currentmatrix pop ulx hradius add uly
  vradius add translate hradius vradius scale 0 0 1 180 270 arc 
  tMatrix setmatrix lrx hradius sub uly vradius add translate
  hradius vradius scale 0 0 1 270 360 arc tMatrix setmatrix
  lrx hradius sub lry vradius sub translate hradius vradius scale
  0 0 1 0 90 arc tMatrix setmatrix ulx hradius add lry vradius sub
  translate hradius vradius scale 0 0 1 90 180 arc tMatrix setmatrix
  closepath} bdef
/FRR {MRR stroke } bdef
/PRR {MRR fill } bdef
/MlrRR {/lry xdef /lrx xdef /uly xdef /ulx xdef /rad lry uly sub 2 div def
  newpath tMatrix currentmatrix pop ulx rad add uly rad add translate
  rad rad scale 0 0 1 90 270 arc tMatrix setmatrix lrx rad sub lry rad
  sub translate rad rad scale 0 0 1 270 90 arc tMatrix setmatrix
  closepath} bdef
/FlrRR {MlrRR stroke } bdef
/PlrRR {MlrRR fill } bdef
/MtbRR {/lry xdef /lrx xdef /uly xdef /ulx xdef /rad lrx ulx sub 2 div def
  newpath tMatrix currentmatrix pop ulx rad add uly rad add translate
  rad rad scale 0 0 1 180 360 arc tMatrix setmatrix lrx rad sub lry rad
  sub translate rad rad scale 0 0 1 0 180 arc tMatrix setmatrix
  closepath} bdef
/FtbRR {MtbRR stroke } bdef
/PtbRR {MtbRR fill } bdef
/stri 6 array def /dtri 6 array def
/smat 6 array def /dmat 6 array def
/tmat1 6 array def /tmat2 6 array def /dif 3 array def
/asub {/ind2 exch def /ind1 exch def dup dup
  ind1 get exch ind2 get sub exch } bdef
/tri_to_matrix {
  2 0 asub 3 1 asub 4 0 asub 5 1 asub
  dup 0 get exch 1 get 7 -1 roll astore } bdef
/compute_transform {
  dmat dtri tri_to_matrix tmat1 invertmatrix 
  smat stri tri_to_matrix tmat2 concatmatrix } bdef
/ds {stri astore pop} bdef
/dt {dtri astore pop} bdef
/db {2 copy /cols xdef /rows xdef mul dup 3 mul string
  currentfile 
  3 index 0 eq {/ASCIIHexDecode filter}
  {/ASCII85Decode filter 3 index 2 eq {/RunLengthDecode filter} if }
  ifelse exch readstring pop
  dup 0 3 index getinterval /rbmap xdef
  dup 2 index dup getinterval /gbmap xdef
  1 index dup 2 mul exch getinterval /bbmap xdef pop pop}bdef
/it {gs np dtri aload pop moveto lineto lineto cp c
  cols rows 8 compute_transform 
  rbmap gbmap bbmap true 3 colorimage gr}bdef
/il {newpath moveto lineto stroke}bdef
currentdict end def
%%EndProlog

%%BeginSetup
MathWorks begin

0 cap

end
%%EndSetup

%%Page: 1 1
%%BeginPageSetup
%%PageBoundingBox:    87   262   507   578
MathWorks begin
bpage
%%EndPageSetup

%%BeginObject: obj1
bplot

/dpi2point 12 def
portraitMode 1044 6936 csm

    0     0  5045  3782 rc
85 dict begin %Colortable dictionary
/c0 { 0.000000 0.000000 0.000000 sr} bdef
/c1 { 1.000000 1.000000 1.000000 sr} bdef
/c2 { 0.900000 0.000000 0.000000 sr} bdef
/c3 { 0.000000 0.820000 0.000000 sr} bdef
/c4 { 0.000000 0.000000 0.800000 sr} bdef
/c5 { 0.910000 0.820000 0.320000 sr} bdef
/c6 { 1.000000 0.260000 0.820000 sr} bdef
/c7 { 0.000000 0.820000 0.820000 sr} bdef
c0
1 j
1 sg
   0    0 5046 3783 rf
6 w
0 3083 3910 0 0 -3083 656 3366 4 MP
PP
-3910 0 0 3083 3910 0 0 -3083 656 3366 5 MP stroke
4 w
DO
SO
6 w
0 sg
 656  283 mt 4566  283 L
 656 3366 mt 4566 3366 L
4566 3366 mt 4566  283 L
 656 3366 mt  656  283 L
 656 3366 mt 4566 3366 L
 656 3366 mt  656  283 L
 656 3366 mt  656 3326 L
 656  284 mt  656  323 L
%%IncludeResource: font Helvetica
/Helvetica /WindowsLatin1Encoding 120 FMSR

 573 3511 mt 
(0.1) s
1144 3366 mt 1144 3326 L
1144  284 mt 1144  323 L
1061 3511 mt 
(0.2) s
1633 3366 mt 1633 3326 L
1633  284 mt 1633  323 L
1550 3511 mt 
(0.3) s
2122 3366 mt 2122 3326 L
2122  284 mt 2122  323 L
2039 3511 mt 
(0.4) s
2611 3366 mt 2611 3326 L
2611  284 mt 2611  323 L
2528 3511 mt 
(0.5) s
3099 3366 mt 3099 3326 L
3099  284 mt 3099  323 L
3016 3511 mt 
(0.6) s
3588 3366 mt 3588 3326 L
3588  284 mt 3588  323 L
3505 3511 mt 
(0.7) s
4077 3366 mt 4077 3326 L
4077  284 mt 4077  323 L
3994 3511 mt 
(0.8) s
4566 3366 mt 4566 3326 L
4566  284 mt 4566  323 L
4483 3511 mt 
(0.9) s
 656 3366 mt  695 3366 L
4566 3366 mt 4526 3366 L
 321 3410 mt 
(0.008) s
 656 3023 mt  695 3023 L
4566 3023 mt 4526 3023 L
 388 3067 mt 
(0.01) s
 656 2681 mt  695 2681 L
4566 2681 mt 4526 2681 L
 321 2725 mt 
(0.012) s
 656 2338 mt  695 2338 L
4566 2338 mt 4526 2338 L
 321 2382 mt 
(0.014) s
 656 1996 mt  695 1996 L
4566 1996 mt 4526 1996 L
 321 2040 mt 
(0.016) s
 656 1653 mt  695 1653 L
4566 1653 mt 4526 1653 L
 321 1697 mt 
(0.018) s
 656 1311 mt  695 1311 L
4566 1311 mt 4526 1311 L
 388 1355 mt 
(0.02) s
 656  968 mt  695  968 L
4566  968 mt 4526  968 L
 321 1012 mt 
(0.022) s
 656  626 mt  695  626 L
4566  626 mt 4526  626 L
 321  670 mt 
(0.024) s
 656  284 mt  695  284 L
4566  284 mt 4526  284 L
 321  328 mt 
(0.026) s
 656  283 mt 4566  283 L
 656 3366 mt 4566 3366 L
4566 3366 mt 4566  283 L
 656 3366 mt  656  283 L
gs 656 284 3911 3083 rc
543 1344 543 983 543 518 543 0 543 -518 543 -983 543 -1344 710 3187 8 MP stroke
gr

 685 3162 mt  735 3212 L
 735 3162 mt  685 3212 L
1228 1818 mt 1278 1868 L
1278 1818 mt 1228 1868 L
1771  835 mt 1821  885 L
1821  835 mt 1771  885 L
2314  317 mt 2364  367 L
2364  317 mt 2314  367 L
2857  317 mt 2907  367 L
2907  317 mt 2857  367 L
3400  835 mt 3450  885 L
3450  835 mt 3400  885 L
3943 1818 mt 3993 1868 L
3993 1818 mt 3943 1868 L
4486 3162 mt 4536 3212 L
4536 3162 mt 4486 3212 L
gs 656 284 3911 3083 rc
/c8 { 0.000000 0.000000 1.000000 sr} bdef
c8
543 1357 543 991 543 522 543 0 543 -522 543 -991 543 -1357 710 3169 8 MP stroke
gr

c8
  36   36  710 3169 FO
  36   36 1253 1812 FO
  36   36 1796  821 FO
  36   36 2339  299 FO
  36   36 2882  299 FO
  36   36 3425  821 FO
  36   36 3968 1812 FO
  36   36 4511 3169 FO
gs 656 284 3911 3083 rc
gr

0 sg
2580 3654 mt 
(x) s
 239 1929 mt  -90 rotate
(u\(x\)) s
90 rotate
1932  189 mt 
(Solution of Au\(x\) = x\(1-x\)) s
 639 3409 mt 
( ) s
4550  326 mt 
( ) s
1 sg
0 378 1458 0 0 -378 1923 3032 4 MP
PP
-1458 0 0 378 1458 0 0 -378 1923 3032 5 MP stroke
4 w
DO
SO
6 w
0 sg
1923 2654 mt 3381 2654 L
1923 3032 mt 3381 3032 L
3381 3032 mt 3381 2654 L
1923 3032 mt 1923 2654 L
1923 3032 mt 3381 3032 L
1923 3032 mt 1923 2654 L
1923 2654 mt 3381 2654 L
1923 3032 mt 3381 3032 L
3381 3032 mt 3381 2654 L
1923 3032 mt 1923 2654 L
2391 2801 mt 
(analytical solution) s
gs 1923 2654 1459 379 rc
360 0 1995 2759 2 MP stroke
gs 2102 2686 147 147 rc
2150 2734 mt 2200 2784 L
2200 2734 mt 2150 2784 L
gr

gr

2391 2970 mt 
(numeric solution) s
gs 1923 2654 1459 379 rc
c8
360 0 1995 2927 2 MP stroke
gs 2102 2854 147 147 rc
  36   36 2175 2927 FO
gr

gr

c8

end %%Color Dict

eplot
%%EndObject

epage
end

showpage

%%Trailer
%%EOF
