%!PS-Adobe-3.0 EPSF-3.0
%%Creator: MATLAB, The Mathworks, Inc. Version 7.4.0.287 (R2007a). Operating System: Microsoft Windows XP.
%%Title: D:\Work\Courses\Iteratieve methoden voor het oplossen van stelsels en eigenwaardeproblemen\trunk\oefeningen\oef_2\vraag_3d_opl.eps
%%CreationDate: 03/05/2008  10:19:42
%%DocumentNeededFonts: Helvetica
%%DocumentProcessColors: Cyan Magenta Yellow Black
%%LanguageLevel: 2
%%Pages: 1
%%BoundingBox:  -126    75   721   766
%%EndComments

%%BeginProlog
% MathWorks dictionary
/MathWorks 160 dict begin
% definition operators
/bdef {bind def} bind def
/ldef {load def} bind def
/xdef {exch def} bdef
/xstore {exch store} bdef
% operator abbreviations
/c  /clip ldef
/cc /concat ldef
/cp /closepath ldef
/gr /grestore ldef
/gs /gsave ldef
/mt /moveto ldef
/np /newpath ldef
/cm /currentmatrix ldef
/sm /setmatrix ldef
/rm /rmoveto ldef
/rl /rlineto ldef
/s {show newpath} bdef
/sc {setcmykcolor} bdef
/sr /setrgbcolor ldef
/sg /setgray ldef
/w /setlinewidth ldef
/j /setlinejoin ldef
/cap /setlinecap ldef
/rc {rectclip} bdef
/rf {rectfill} bdef
% page state control
/pgsv () def
/bpage {/pgsv save def} bdef
/epage {pgsv restore} bdef
/bplot /gsave ldef
/eplot {stroke grestore} bdef
% orientation switch
/portraitMode 0 def /landscapeMode 1 def /rotateMode 2 def
% coordinate system mappings
/dpi2point 0 def
% font control
/FontSize 0 def
/FMS {/FontSize xstore findfont [FontSize 0 0 FontSize neg 0 0]
  makefont setfont} bdef
/ISOLatin1Encoding where {pop /WindowsLatin1Encoding 256 array bdef
ISOLatin1Encoding WindowsLatin1Encoding copy pop
/.notdef/.notdef/quotesinglbase/florin/quotedblbase/ellipsis/dagger
/daggerdbl/circumflex/perthousand/Scaron/guilsinglleft/OE/.notdef/.notdef
/.notdef/.notdef/quoteleft/quoteright/quotedblleft/quotedblright/bullet
/endash/emdash/tilde/trademark/scaron/guilsinglright/oe/.notdef/.notdef
/Ydieresis WindowsLatin1Encoding 128 32 getinterval astore pop}
{/WindowsLatin1Encoding StandardEncoding bdef} ifelse
/reencode {exch dup where {pop load} {pop StandardEncoding} ifelse
  exch dup 3 1 roll findfont dup length dict begin
  { 1 index /FID ne {def}{pop pop} ifelse } forall
  /Encoding exch def currentdict end definefont pop} bdef
/isroman {findfont /CharStrings get /Agrave known} bdef
/FMSR {3 1 roll 1 index dup isroman {reencode} {pop pop} ifelse
  exch FMS} bdef
/csm {1 dpi2point div -1 dpi2point div scale neg translate
 dup landscapeMode eq {pop -90 rotate}
  {rotateMode eq {90 rotate} if} ifelse} bdef
% line types: solid, dotted, dashed, dotdash
/SO { [] 0 setdash } bdef
/DO { [.5 dpi2point mul 4 dpi2point mul] 0 setdash } bdef
/DA { [6 dpi2point mul] 0 setdash } bdef
/DD { [.5 dpi2point mul 4 dpi2point mul 6 dpi2point mul 4
  dpi2point mul] 0 setdash } bdef
% macros for lines and objects
/L {lineto stroke} bdef
/MP {3 1 roll moveto 1 sub {rlineto} repeat} bdef
/AP {{rlineto} repeat} bdef
/PDlw -1 def
/W {/PDlw currentlinewidth def setlinewidth} def
/PP {closepath eofill} bdef
/DP {closepath stroke} bdef
/MR {4 -2 roll moveto dup  0 exch rlineto exch 0 rlineto
  neg 0 exch rlineto closepath} bdef
/FR {MR stroke} bdef
/PR {MR fill} bdef
/L1i {{currentfile picstr readhexstring pop} image} bdef
/tMatrix matrix def
/MakeOval {newpath tMatrix currentmatrix pop translate scale
0 0 1 0 360 arc tMatrix setmatrix} bdef
/FO {MakeOval stroke} bdef
/PO {MakeOval fill} bdef
/PD {currentlinewidth 2 div 0 360 arc fill
   PDlw -1 eq not {PDlw w /PDlw -1 def} if} def
/FA {newpath tMatrix currentmatrix pop translate scale
  0 0 1 5 -2 roll arc tMatrix setmatrix stroke} bdef
/PA {newpath tMatrix currentmatrix pop	translate 0 0 moveto scale
  0 0 1 5 -2 roll arc closepath tMatrix setmatrix fill} bdef
/FAn {newpath tMatrix currentmatrix pop translate scale
  0 0 1 5 -2 roll arcn tMatrix setmatrix stroke} bdef
/PAn {newpath tMatrix currentmatrix pop translate 0 0 moveto scale
  0 0 1 5 -2 roll arcn closepath tMatrix setmatrix fill} bdef
/vradius 0 def /hradius 0 def /lry 0 def
/lrx 0 def /uly 0 def /ulx 0 def /rad 0 def
/MRR {/vradius xdef /hradius xdef /lry xdef /lrx xdef /uly xdef
  /ulx xdef newpath tMatrix currentmatrix pop ulx hradius add uly
  vradius add translate hradius vradius scale 0 0 1 180 270 arc 
  tMatrix setmatrix lrx hradius sub uly vradius add translate
  hradius vradius scale 0 0 1 270 360 arc tMatrix setmatrix
  lrx hradius sub lry vradius sub translate hradius vradius scale
  0 0 1 0 90 arc tMatrix setmatrix ulx hradius add lry vradius sub
  translate hradius vradius scale 0 0 1 90 180 arc tMatrix setmatrix
  closepath} bdef
/FRR {MRR stroke } bdef
/PRR {MRR fill } bdef
/MlrRR {/lry xdef /lrx xdef /uly xdef /ulx xdef /rad lry uly sub 2 div def
  newpath tMatrix currentmatrix pop ulx rad add uly rad add translate
  rad rad scale 0 0 1 90 270 arc tMatrix setmatrix lrx rad sub lry rad
  sub translate rad rad scale 0 0 1 270 90 arc tMatrix setmatrix
  closepath} bdef
/FlrRR {MlrRR stroke } bdef
/PlrRR {MlrRR fill } bdef
/MtbRR {/lry xdef /lrx xdef /uly xdef /ulx xdef /rad lrx ulx sub 2 div def
  newpath tMatrix currentmatrix pop ulx rad add uly rad add translate
  rad rad scale 0 0 1 180 360 arc tMatrix setmatrix lrx rad sub lry rad
  sub translate rad rad scale 0 0 1 0 180 arc tMatrix setmatrix
  closepath} bdef
/FtbRR {MtbRR stroke } bdef
/PtbRR {MtbRR fill } bdef
/stri 6 array def /dtri 6 array def
/smat 6 array def /dmat 6 array def
/tmat1 6 array def /tmat2 6 array def /dif 3 array def
/asub {/ind2 exch def /ind1 exch def dup dup
  ind1 get exch ind2 get sub exch } bdef
/tri_to_matrix {
  2 0 asub 3 1 asub 4 0 asub 5 1 asub
  dup 0 get exch 1 get 7 -1 roll astore } bdef
/compute_transform {
  dmat dtri tri_to_matrix tmat1 invertmatrix 
  smat stri tri_to_matrix tmat2 concatmatrix } bdef
/ds {stri astore pop} bdef
/dt {dtri astore pop} bdef
/db {2 copy /cols xdef /rows xdef mul dup 3 mul string
  currentfile 
  3 index 0 eq {/ASCIIHexDecode filter}
  {/ASCII85Decode filter 3 index 2 eq {/RunLengthDecode filter} if }
  ifelse exch readstring pop
  dup 0 3 index getinterval /rbmap xdef
  dup 2 index dup getinterval /gbmap xdef
  1 index dup 2 mul exch getinterval /bbmap xdef pop pop}bdef
/it {gs np dtri aload pop moveto lineto lineto cp c
  cols rows 8 compute_transform 
  rbmap gbmap bbmap true 3 colorimage gr}bdef
/il {newpath moveto lineto stroke}bdef
currentdict end def
%%EndProlog

%%BeginSetup
MathWorks begin

0 cap

end
%%EndSetup

%%Page: 1 1
%%BeginPageSetup
%%PageBoundingBox:  -126    75   721   766
MathWorks begin
bpage
%%EndPageSetup

%%BeginObject: obj1
bplot

/dpi2point 12 def
portraitMode -1512 9192 csm

    0     0 10169  8284 rc
85 dict begin %Colortable dictionary
/c0 { 0.000000 0.000000 0.000000 sr} bdef
/c1 { 1.000000 1.000000 1.000000 sr} bdef
/c2 { 0.900000 0.000000 0.000000 sr} bdef
/c3 { 0.000000 0.820000 0.000000 sr} bdef
/c4 { 0.000000 0.000000 0.800000 sr} bdef
/c5 { 0.910000 0.820000 0.320000 sr} bdef
/c6 { 1.000000 0.260000 0.820000 sr} bdef
/c7 { 0.000000 0.820000 0.820000 sr} bdef
c0
1 j
1 sg
   0    0 10170 8285 rf
6 w
0 2826 3403 0 0 -2826 1322 3447 4 MP
PP
-3403 0 0 2826 3403 0 0 -2826 1322 3447 5 MP stroke
4 w
DO
0 sg
1322 3447 mt 1322  621 L
1322  621 mt 1322  621 L
1747 3447 mt 1747  621 L
1747  621 mt 1747  621 L
2172 3447 mt 2172  621 L
2172  621 mt 2172  621 L
2598 3447 mt 2598  621 L
2598  621 mt 2598  621 L
3023 3447 mt 3023  621 L
3023  621 mt 3023  621 L
3448 3447 mt 3448  621 L
3448  621 mt 3448  621 L
3874 3447 mt 3874  621 L
3874  621 mt 3874  621 L
4299 3447 mt 4299  621 L
4299  621 mt 4299  621 L
4725 3447 mt 4725  621 L
4725  621 mt 4725  621 L
1322 3447 mt 4725 3447 L
4725 3447 mt 4725 3447 L
1322 3093 mt 4725 3093 L
4725 3093 mt 4725 3093 L
1322 2740 mt 4725 2740 L
4725 2740 mt 4725 2740 L
1322 2387 mt 4725 2387 L
4725 2387 mt 4725 2387 L
1322 2033 mt 4725 2033 L
4725 2033 mt 4725 2033 L
1322 1680 mt 4725 1680 L
4725 1680 mt 4725 1680 L
1322 1327 mt 4725 1327 L
4725 1327 mt 4725 1327 L
1322  974 mt 4725  974 L
4725  974 mt 4725  974 L
1322  621 mt 4725  621 L
4725  621 mt 4725  621 L
SO
6 w
1322  621 mt 4725  621 L
1322 3447 mt 4725 3447 L
4725 3447 mt 4725  621 L
1322 3447 mt 1322  621 L
1322 3447 mt 4725 3447 L
1322 3447 mt 1322  621 L
1322 3447 mt 1322 3412 L
1322  621 mt 1322  655 L
%%IncludeResource: font Helvetica
/Helvetica /WindowsLatin1Encoding 120 FMSR

1239 3592 mt 
(0.1) s
1747 3447 mt 1747 3412 L
1747  621 mt 1747  655 L
1664 3592 mt 
(0.2) s
2172 3447 mt 2172 3412 L
2172  621 mt 2172  655 L
2089 3592 mt 
(0.3) s
2598 3447 mt 2598 3412 L
2598  621 mt 2598  655 L
2515 3592 mt 
(0.4) s
3023 3447 mt 3023 3412 L
3023  621 mt 3023  655 L
2940 3592 mt 
(0.5) s
3448 3447 mt 3448 3412 L
3448  621 mt 3448  655 L
3365 3592 mt 
(0.6) s
3874 3447 mt 3874 3412 L
3874  621 mt 3874  655 L
3791 3592 mt 
(0.7) s
4299 3447 mt 4299 3412 L
4299  621 mt 4299  655 L
4216 3592 mt 
(0.8) s
4725 3447 mt 4725 3412 L
4725  621 mt 4725  655 L
4642 3592 mt 
(0.9) s
1322 3447 mt 1356 3447 L
4725 3447 mt 4690 3447 L
1054 3491 mt 
(0.03) s
1322 3093 mt 1356 3093 L
4725 3093 mt 4690 3093 L
1054 3137 mt 
(0.04) s
1322 2740 mt 1356 2740 L
4725 2740 mt 4690 2740 L
1054 2784 mt 
(0.05) s
1322 2387 mt 1356 2387 L
4725 2387 mt 4690 2387 L
1054 2431 mt 
(0.06) s
1322 2033 mt 1356 2033 L
4725 2033 mt 4690 2033 L
1054 2077 mt 
(0.07) s
1322 1680 mt 1356 1680 L
4725 1680 mt 4690 1680 L
1054 1724 mt 
(0.08) s
1322 1327 mt 1356 1327 L
4725 1327 mt 4690 1327 L
1054 1371 mt 
(0.09) s
1322  974 mt 1356  974 L
4725  974 mt 4690  974 L
1121 1018 mt 
(0.1) s
1322  621 mt 1356  621 L
4725  621 mt 4690  621 L
1054  665 mt 
(0.11) s
1322  621 mt 4725  621 L
1322 3447 mt 4725 3447 L
4725 3447 mt 4725  621 L
1322 3447 mt 1322  621 L
gs 1322 621 3404 2827 rc
472 1076 473 799 473 426 472 0 473 -426 473 -799 472 -1076 1369 3282 8 MP stroke
gr

1344 3257 mt 1394 3307 L
1394 3257 mt 1344 3307 L
1816 2181 mt 1866 2231 L
1866 2181 mt 1816 2231 L
2289 1382 mt 2339 1432 L
2339 1382 mt 2289 1432 L
2762  956 mt 2812 1006 L
2812  956 mt 2762 1006 L
3234  956 mt 3284 1006 L
3284  956 mt 3234 1006 L
3707 1382 mt 3757 1432 L
3757 1382 mt 3707 1432 L
4180 2181 mt 4230 2231 L
4230 2181 mt 4180 2231 L
4652 3257 mt 4702 3307 L
4702 3257 mt 4652 3307 L
gs 1322 621 3404 2827 rc
/c8 { 0.000000 0.000000 1.000000 sr} bdef
c8
472 1088 473 807 473 430 472 0 473 -430 473 -807 472 -1088 1369 3270 8 MP stroke
gr

c8
  36   36 1369 3270 FO
  36   36 1841 2182 FO
  36   36 2314 1375 FO
  36   36 2787  945 FO
  36   36 3259  945 FO
  36   36 3732 1375 FO
  36   36 4205 2182 FO
  36   36 4677 3270 FO
gs 1322 621 3404 2827 rc
gr

0 sg
2992 3735 mt 
(x) s
 972 2138 mt  -90 rotate
(u\(x\)) s
90 rotate
2305  518 mt 
(Solution of Au\(x\) = sin\(1) s
%%IncludeResource: font Symbol
/Symbol /WindowsLatin1Encoding 120 FMSR

3585  518 mt 
(p) s
%%IncludeResource: font Helvetica
/Helvetica /WindowsLatin1Encoding 120 FMSR

3650  518 mt 
(x\)) s
1305 3490 mt 
( ) s
4709  663 mt 
( ) s
1 sg
0 334 1363 0 0 -334 3303 1015 4 MP
PP
-1363 0 0 334 1363 0 0 -334 3303 1015 5 MP stroke
4 w
DO
SO
6 w
0 sg
3303  681 mt 4666  681 L
3303 1015 mt 4666 1015 L
4666 1015 mt 4666  681 L
3303 1015 mt 3303  681 L
3303 1015 mt 4666 1015 L
3303 1015 mt 3303  681 L
3303  681 mt 4666  681 L
3303 1015 mt 4666 1015 L
4666 1015 mt 4666  681 L
3303 1015 mt 3303  681 L
3776  816 mt 
(analytic) s
gs 3303 681 1364 335 rc
364 0 3375 773 2 MP stroke
gs 3484 700 147 147 rc
3532  748 mt 3582  798 L
3582  748 mt 3532  798 L
gr

gr

3776  965 mt 
(weighted Jacobi) s
gs 3303 681 1364 335 rc
c8
364 0 3375 922 2 MP stroke
gs 3484 849 147 147 rc
  36   36 3557  922 FO
gr

gr

c8
1 sg
0 2826 3403 0 0 -2826 5800 3447 4 MP
PP
-3403 0 0 2826 3403 0 0 -2826 5800 3447 5 MP stroke
4 w
DO
0 sg
5800 3447 mt 5800  621 L
5800  621 mt 5800  621 L
6225 3447 mt 6225  621 L
6225  621 mt 6225  621 L
6650 3447 mt 6650  621 L
6650  621 mt 6650  621 L
7076 3447 mt 7076  621 L
7076  621 mt 7076  621 L
7501 3447 mt 7501  621 L
7501  621 mt 7501  621 L
7926 3447 mt 7926  621 L
7926  621 mt 7926  621 L
8352 3447 mt 8352  621 L
8352  621 mt 8352  621 L
8777 3447 mt 8777  621 L
8777  621 mt 8777  621 L
9203 3447 mt 9203  621 L
9203  621 mt 9203  621 L
5800 3447 mt 9203 3447 L
9203 3447 mt 9203 3447 L
5800 2976 mt 9203 2976 L
9203 2976 mt 9203 2976 L
5800 2505 mt 9203 2505 L
9203 2505 mt 9203 2505 L
5800 2034 mt 9203 2034 L
9203 2034 mt 9203 2034 L
5800 1562 mt 9203 1562 L
9203 1562 mt 9203 1562 L
5800 1092 mt 9203 1092 L
9203 1092 mt 9203 1092 L
5800  621 mt 9203  621 L
9203  621 mt 9203  621 L
SO
6 w
5800  621 mt 9203  621 L
5800 3447 mt 9203 3447 L
9203 3447 mt 9203  621 L
5800 3447 mt 5800  621 L
5800 3447 mt 9203 3447 L
5800 3447 mt 5800  621 L
5800 3447 mt 5800 3412 L
5800  621 mt 5800  655 L
5717 3592 mt 
(0.1) s
6225 3447 mt 6225 3412 L
6225  621 mt 6225  655 L
6142 3592 mt 
(0.2) s
6650 3447 mt 6650 3412 L
6650  621 mt 6650  655 L
6567 3592 mt 
(0.3) s
7076 3447 mt 7076 3412 L
7076  621 mt 7076  655 L
6993 3592 mt 
(0.4) s
7501 3447 mt 7501 3412 L
7501  621 mt 7501  655 L
7418 3592 mt 
(0.5) s
7926 3447 mt 7926 3412 L
7926  621 mt 7926  655 L
7843 3592 mt 
(0.6) s
8352 3447 mt 8352 3412 L
8352  621 mt 8352  655 L
8269 3592 mt 
(0.7) s
8777 3447 mt 8777 3412 L
8777  621 mt 8777  655 L
8694 3592 mt 
(0.8) s
9203 3447 mt 9203 3412 L
9203  621 mt 9203  655 L
9120 3592 mt 
(0.9) s
5800 3447 mt 5834 3447 L
9203 3447 mt 9168 3447 L
5462 3491 mt 
(-0.03) s
5800 2976 mt 5834 2976 L
9203 2976 mt 9168 2976 L
5462 3020 mt 
(-0.02) s
5800 2505 mt 5834 2505 L
9203 2505 mt 9168 2505 L
5462 2549 mt 
(-0.01) s
5800 2034 mt 5834 2034 L
9203 2034 mt 9168 2034 L
5699 2078 mt 
(0) s
5800 1562 mt 5834 1562 L
9203 1562 mt 9168 1562 L
5532 1606 mt 
(0.01) s
5800 1092 mt 5834 1092 L
9203 1092 mt 9168 1092 L
5532 1136 mt 
(0.02) s
5800  621 mt 5834  621 L
9203  621 mt 9168  621 L
5532  665 mt 
(0.03) s
5800  621 mt 9203  621 L
5800 3447 mt 9203 3447 L
9203 3447 mt 9203  621 L
5800 3447 mt 5800  621 L
gs 5800 621 3404 2827 rc
472 -408 473 141 473 625 472 817 473 625 473 141 472 -408 5847 1267 8 MP stroke
gr

5822 1242 mt 5872 1292 L
5872 1242 mt 5822 1292 L
6294  834 mt 6344  884 L
6344  834 mt 6294  884 L
6767  975 mt 6817 1025 L
6817  975 mt 6767 1025 L
7240 1600 mt 7290 1650 L
7290 1600 mt 7240 1650 L
7712 2417 mt 7762 2467 L
7762 2417 mt 7712 2467 L
8185 3042 mt 8235 3092 L
8235 3042 mt 8185 3092 L
8658 3183 mt 8708 3233 L
8708 3183 mt 8658 3233 L
9130 2775 mt 9180 2825 L
9180 2775 mt 9130 2825 L
gs 5800 621 3404 2827 rc
c8
472 -425 473 147 473 651 472 851 473 651 473 147 472 -425 5847 1235 8 MP stroke
gr

c8
  36   36 5847 1235 FO
  36   36 6319  810 FO
  36   36 6792  957 FO
  36   36 7265 1608 FO
  36   36 7737 2459 FO
  36   36 8210 3110 FO
  36   36 8683 3257 FO
  36   36 9155 2832 FO
gs 5800 621 3404 2827 rc
gr

0 sg
7470 3735 mt 
(x) s
5380 2138 mt  -90 rotate
(u\(x\)) s
90 rotate
6783  518 mt 
(Solution of Au\(x\) = sin\(2) s
%%IncludeResource: font Symbol
/Symbol /WindowsLatin1Encoding 120 FMSR

8063  518 mt 
(p) s
%%IncludeResource: font Helvetica
/Helvetica /WindowsLatin1Encoding 120 FMSR

8128  518 mt 
(x\)) s
5783 3490 mt 
( ) s
9187  663 mt 
( ) s
1 sg
0 334 1362 0 0 -334 7782 1015 4 MP
PP
-1362 0 0 334 1362 0 0 -334 7782 1015 5 MP stroke
4 w
DO
SO
6 w
0 sg
7782  681 mt 9144  681 L
7782 1015 mt 9144 1015 L
9144 1015 mt 9144  681 L
7782 1015 mt 7782  681 L
7782 1015 mt 9144 1015 L
7782 1015 mt 7782  681 L
7782  681 mt 9144  681 L
7782 1015 mt 9144 1015 L
9144 1015 mt 9144  681 L
7782 1015 mt 7782  681 L
8255  816 mt 
(analytic) s
gs 7782 681 1363 335 rc
363 0 7854 773 2 MP stroke
gs 7963 700 147 147 rc
8011  748 mt 8061  798 L
8061  748 mt 8011  798 L
gr

gr

8255  965 mt 
(weighted Jacobi) s
gs 7782 681 1363 335 rc
c8
363 0 7854 922 2 MP stroke
gs 7963 849 147 147 rc
  36   36 8036  922 FO
gr

gr

c8
1 sg
0 2826 3403 0 0 -2826 1322 7373 4 MP
PP
-3403 0 0 2826 3403 0 0 -2826 1322 7373 5 MP stroke
4 w
DO
0 sg
1322 7373 mt 1322 4547 L
1322 4547 mt 1322 4547 L
1747 7373 mt 1747 4547 L
1747 4547 mt 1747 4547 L
2172 7373 mt 2172 4547 L
2172 4547 mt 2172 4547 L
2598 7373 mt 2598 4547 L
2598 4547 mt 2598 4547 L
3023 7373 mt 3023 4547 L
3023 4547 mt 3023 4547 L
3448 7373 mt 3448 4547 L
3448 4547 mt 3448 4547 L
3874 7373 mt 3874 4547 L
3874 4547 mt 3874 4547 L
4299 7373 mt 4299 4547 L
4299 4547 mt 4299 4547 L
4725 7373 mt 4725 4547 L
4725 4547 mt 4725 4547 L
1322 7373 mt 4725 7373 L
4725 7373 mt 4725 7373 L
1322 6902 mt 4725 6902 L
4725 6902 mt 4725 6902 L
1322 6431 mt 4725 6431 L
4725 6431 mt 4725 6431 L
1322 5960 mt 4725 5960 L
4725 5960 mt 4725 5960 L
1322 5489 mt 4725 5489 L
4725 5489 mt 4725 5489 L
1322 5018 mt 4725 5018 L
4725 5018 mt 4725 5018 L
1322 4547 mt 4725 4547 L
4725 4547 mt 4725 4547 L
SO
6 w
1322 4547 mt 4725 4547 L
1322 7373 mt 4725 7373 L
4725 7373 mt 4725 4547 L
1322 7373 mt 1322 4547 L
1322 7373 mt 4725 7373 L
1322 7373 mt 1322 4547 L
1322 7373 mt 1322 7338 L
1322 4547 mt 1322 4581 L
1239 7518 mt 
(0.1) s
1747 7373 mt 1747 7338 L
1747 4547 mt 1747 4581 L
1664 7518 mt 
(0.2) s
2172 7373 mt 2172 7338 L
2172 4547 mt 2172 4581 L
2089 7518 mt 
(0.3) s
2598 7373 mt 2598 7338 L
2598 4547 mt 2598 4581 L
2515 7518 mt 
(0.4) s
3023 7373 mt 3023 7338 L
3023 4547 mt 3023 4581 L
2940 7518 mt 
(0.5) s
3448 7373 mt 3448 7338 L
3448 4547 mt 3448 4581 L
3365 7518 mt 
(0.6) s
3874 7373 mt 3874 7338 L
3874 4547 mt 3874 4581 L
3791 7518 mt 
(0.7) s
4299 7373 mt 4299 7338 L
4299 4547 mt 4299 4581 L
4216 7518 mt 
(0.8) s
4725 7373 mt 4725 7338 L
4725 4547 mt 4725 4581 L
4642 7518 mt 
(0.9) s
1322 7373 mt 1356 7373 L
4725 7373 mt 4690 7373 L
 917 7417 mt 
(-0.015) s
1322 6902 mt 1356 6902 L
4725 6902 mt 4690 6902 L
 984 6946 mt 
(-0.01) s
1322 6431 mt 1356 6431 L
4725 6431 mt 4690 6431 L
 917 6475 mt 
(-0.005) s
1322 5960 mt 1356 5960 L
4725 5960 mt 4690 5960 L
1221 6004 mt 
(0) s
1322 5489 mt 1356 5489 L
4725 5489 mt 4690 5489 L
 987 5533 mt 
(0.005) s
1322 5018 mt 1356 5018 L
4725 5018 mt 4690 5018 L
1054 5062 mt 
(0.01) s
1322 4547 mt 1356 4547 L
4725 4547 mt 4690 4547 L
 987 4591 mt 
(0.015) s
1322 4547 mt 4725 4547 L
1322 7373 mt 4725 7373 L
4725 7373 mt 4725 4547 L
1322 7373 mt 1322 4547 L
gs 1322 4547 3404 2827 rc
472 0 473 -919 473 -918 472 0 473 919 473 918 472 0 1369 5041 8 MP stroke
gr

1344 5016 mt 1394 5066 L
1394 5016 mt 1344 5066 L
1816 5016 mt 1866 5066 L
1866 5016 mt 1816 5066 L
2289 5934 mt 2339 5984 L
2339 5934 mt 2289 5984 L
2762 6853 mt 2812 6903 L
2812 6853 mt 2762 6903 L
3234 6853 mt 3284 6903 L
3284 6853 mt 3234 6903 L
3707 5935 mt 3757 5985 L
3757 5935 mt 3707 5985 L
4180 5016 mt 4230 5066 L
4230 5016 mt 4180 5066 L
4652 5016 mt 4702 5066 L
4702 5016 mt 4652 5066 L
gs 1322 4547 3404 2827 rc
c8
472 0 473 -1008 473 -1007 472 0 473 1007 473 1008 472 0 1369 4952 8 MP stroke
gr

c8
  36   36 1369 4952 FO
  36   36 1841 4952 FO
  36   36 2314 5960 FO
  36   36 2787 6967 FO
  36   36 3259 6967 FO
  36   36 3732 5960 FO
  36   36 4205 4952 FO
  36   36 4677 4952 FO
gs 1322 4547 3404 2827 rc
gr

0 sg
2992 7661 mt 
(x) s
 835 6064 mt  -90 rotate
(u\(x\)) s
90 rotate
2305 4444 mt 
(Solution of Au\(x\) = sin\(3) s
%%IncludeResource: font Symbol
/Symbol /WindowsLatin1Encoding 120 FMSR

3585 4444 mt 
(p) s
%%IncludeResource: font Helvetica
/Helvetica /WindowsLatin1Encoding 120 FMSR

3650 4444 mt 
(x\)) s
1305 7416 mt 
( ) s
4709 4589 mt 
( ) s
1 sg
0 334 1363 0 0 -334 3303 4941 4 MP
PP
-1363 0 0 334 1363 0 0 -334 3303 4941 5 MP stroke
4 w
DO
SO
6 w
0 sg
3303 4607 mt 4666 4607 L
3303 4941 mt 4666 4941 L
4666 4941 mt 4666 4607 L
3303 4941 mt 3303 4607 L
3303 4941 mt 4666 4941 L
3303 4941 mt 3303 4607 L
3303 4607 mt 4666 4607 L
3303 4941 mt 4666 4941 L
4666 4941 mt 4666 4607 L
3303 4941 mt 3303 4607 L
3776 4742 mt 
(analytic) s
gs 3303 4607 1364 335 rc
364 0 3375 4699 2 MP stroke
gs 3484 4626 147 147 rc
3532 4674 mt 3582 4724 L
3582 4674 mt 3532 4724 L
gr

gr

3776 4891 mt 
(weighted Jacobi) s
gs 3303 4607 1364 335 rc
c8
364 0 3375 4848 2 MP stroke
gs 3484 4775 147 147 rc
  36   36 3557 4848 FO
gr

gr

c8
1 sg
0 2826 3403 0 0 -2826 5800 7373 4 MP
PP
-3403 0 0 2826 3403 0 0 -2826 5800 7373 5 MP stroke
4 w
DO
0 sg
5800 7373 mt 5800 4547 L
5800 4547 mt 5800 4547 L
6225 7373 mt 6225 4547 L
6225 4547 mt 6225 4547 L
6650 7373 mt 6650 4547 L
6650 4547 mt 6650 4547 L
7076 7373 mt 7076 4547 L
7076 4547 mt 7076 4547 L
7501 7373 mt 7501 4547 L
7501 4547 mt 7501 4547 L
7926 7373 mt 7926 4547 L
7926 4547 mt 7926 4547 L
8352 7373 mt 8352 4547 L
8352 4547 mt 8352 4547 L
8777 7373 mt 8777 4547 L
8777 4547 mt 8777 4547 L
9203 7373 mt 9203 4547 L
9203 4547 mt 9203 4547 L
5800 7373 mt 9203 7373 L
9203 7373 mt 9203 7373 L
5800 7019 mt 9203 7019 L
9203 7019 mt 9203 7019 L
5800 6666 mt 9203 6666 L
9203 6666 mt 9203 6666 L
5800 6313 mt 9203 6313 L
9203 6313 mt 9203 6313 L
5800 5960 mt 9203 5960 L
9203 5960 mt 9203 5960 L
5800 5606 mt 9203 5606 L
9203 5606 mt 9203 5606 L
5800 5253 mt 9203 5253 L
9203 5253 mt 9203 5253 L
5800 4900 mt 9203 4900 L
9203 4900 mt 9203 4900 L
5800 4547 mt 9203 4547 L
9203 4547 mt 9203 4547 L
SO
6 w
5800 4547 mt 9203 4547 L
5800 7373 mt 9203 7373 L
9203 7373 mt 9203 4547 L
5800 7373 mt 5800 4547 L
5800 7373 mt 9203 7373 L
5800 7373 mt 5800 4547 L
5800 7373 mt 5800 7338 L
5800 4547 mt 5800 4581 L
5717 7518 mt 
(0.1) s
6225 7373 mt 6225 7338 L
6225 4547 mt 6225 4581 L
6142 7518 mt 
(0.2) s
6650 7373 mt 6650 7338 L
6650 4547 mt 6650 4581 L
6567 7518 mt 
(0.3) s
7076 7373 mt 7076 7338 L
7076 4547 mt 7076 4581 L
6993 7518 mt 
(0.4) s
7501 7373 mt 7501 7338 L
7501 4547 mt 7501 4581 L
7418 7518 mt 
(0.5) s
7926 7373 mt 7926 7338 L
7926 4547 mt 7926 4581 L
7843 7518 mt 
(0.6) s
8352 7373 mt 8352 7338 L
8352 4547 mt 8352 4581 L
8269 7518 mt 
(0.7) s
8777 7373 mt 8777 7338 L
8777 4547 mt 8777 4581 L
8694 7518 mt 
(0.8) s
9203 7373 mt 9203 7338 L
9203 4547 mt 9203 4581 L
9120 7518 mt 
(0.9) s
5800 7373 mt 5834 7373 L
9203 7373 mt 9168 7373 L
5629 7417 mt 
(-8) s
5800 7019 mt 5834 7019 L
9203 7019 mt 9168 7019 L
5629 7063 mt 
(-6) s
5800 6666 mt 5834 6666 L
9203 6666 mt 9168 6666 L
5629 6710 mt 
(-4) s
5800 6313 mt 5834 6313 L
9203 6313 mt 9168 6313 L
5629 6357 mt 
(-2) s
5800 5960 mt 5834 5960 L
9203 5960 mt 9168 5960 L
5699 6004 mt 
(0) s
5800 5606 mt 5834 5606 L
9203 5606 mt 9168 5606 L
5699 5650 mt 
(2) s
5800 5253 mt 5834 5253 L
9203 5253 mt 9168 5253 L
5699 5297 mt 
(4) s
5800 4900 mt 5834 4900 L
9203 4900 mt 9168 4900 L
5699 4944 mt 
(6) s
5800 4547 mt 5834 4547 L
9203 4547 mt 9168 4547 L
5699 4591 mt 
(8) s
5800 4493 mt 
(x 10) s
%%IncludeResource: font Helvetica
/Helvetica /WindowsLatin1Encoding 80 FMSR

6026 4419 mt 
(-3) s
5800 4547 mt 9203 4547 L
5800 7373 mt 9203 7373 L
9203 7373 mt 9203 4547 L
5800 7373 mt 5800 4547 L
gs 5800 4547 3404 2827 rc
472 719 473 1351 473 -250 472 -1437 473 -250 473 1351 472 719 5847 4858 8 MP stroke
gr

5822 4833 mt 5872 4883 L
5872 4833 mt 5822 4883 L
6294 5552 mt 6344 5602 L
6344 5552 mt 6294 5602 L
6767 6903 mt 6817 6953 L
6817 6903 mt 6767 6953 L
7240 6653 mt 7290 6703 L
7290 6653 mt 7240 6703 L
7712 5216 mt 7762 5266 L
7762 5216 mt 7712 5266 L
8185 4966 mt 8235 5016 L
8235 4966 mt 8185 5016 L
8658 6317 mt 8708 6367 L
8708 6317 mt 8658 6367 L
9130 7036 mt 9180 7086 L
9180 7036 mt 9130 7086 L
gs 5800 4547 3404 2827 rc
c8
472 848 473 1594 473 -294 472 -1697 473 -294 473 1594 472 848 5847 4660 8 MP stroke
gr

c8
  36   36 5847 4660 FO
  36   36 6319 5508 FO
  36   36 6792 7102 FO
  36   36 7265 6808 FO
  36   36 7737 5111 FO
  36   36 8210 4817 FO
  36   36 8683 6411 FO
  36   36 9155 7259 FO
gs 5800 4547 3404 2827 rc
gr

0 sg
%%IncludeResource: font Helvetica
/Helvetica /WindowsLatin1Encoding 120 FMSR

7470 7661 mt 
(x) s
5547 6064 mt  -90 rotate
(u\(x\)) s
90 rotate
6783 4444 mt 
(Solution of Au\(x\) = sin\(4) s
%%IncludeResource: font Symbol
/Symbol /WindowsLatin1Encoding 120 FMSR

8063 4444 mt 
(p) s
%%IncludeResource: font Helvetica
/Helvetica /WindowsLatin1Encoding 120 FMSR

8128 4444 mt 
(x\)) s
5783 7416 mt 
( ) s
9187 4589 mt 
( ) s
1 sg
0 334 1362 0 0 -334 7782 4941 4 MP
PP
-1362 0 0 334 1362 0 0 -334 7782 4941 5 MP stroke
4 w
DO
SO
6 w
0 sg
7782 4607 mt 9144 4607 L
7782 4941 mt 9144 4941 L
9144 4941 mt 9144 4607 L
7782 4941 mt 7782 4607 L
7782 4941 mt 9144 4941 L
7782 4941 mt 7782 4607 L
7782 4607 mt 9144 4607 L
7782 4941 mt 9144 4941 L
9144 4941 mt 9144 4607 L
7782 4941 mt 7782 4607 L
8255 4742 mt 
(analytic) s
gs 7782 4607 1363 335 rc
363 0 7854 4699 2 MP stroke
gs 7963 4626 147 147 rc
8011 4674 mt 8061 4724 L
8061 4674 mt 8011 4724 L
gr

gr

8255 4891 mt 
(weighted Jacobi) s
gs 7782 4607 1363 335 rc
c8
363 0 7854 4848 2 MP stroke
gs 7963 4775 147 147 rc
  36   36 8036 4848 FO
gr

gr

c8

end %%Color Dict

eplot
%%EndObject

epage
end

showpage

%%Trailer
%%EOF
