%!PS-Adobe-3.0 EPSF-3.0
%%Creator: MATLAB, The Mathworks, Inc. Version 7.4.0.287 (R2007a). Operating System: Microsoft Windows XP.
%%Title: D:\Work\Courses\Iteratieve methoden voor het oplossen van stelsels en eigenwaardeproblemen\trunk\oefeningen\oef_2\vraag_3d_res.eps
%%CreationDate: 03/05/2008  10:19:08
%%DocumentNeededFonts: Helvetica
%%DocumentProcessColors: Cyan Magenta Yellow Black
%%LanguageLevel: 2
%%Pages: 1
%%BoundingBox:  -126    75   721   766
%%EndComments

%%BeginProlog
% MathWorks dictionary
/MathWorks 160 dict begin
% definition operators
/bdef {bind def} bind def
/ldef {load def} bind def
/xdef {exch def} bdef
/xstore {exch store} bdef
% operator abbreviations
/c  /clip ldef
/cc /concat ldef
/cp /closepath ldef
/gr /grestore ldef
/gs /gsave ldef
/mt /moveto ldef
/np /newpath ldef
/cm /currentmatrix ldef
/sm /setmatrix ldef
/rm /rmoveto ldef
/rl /rlineto ldef
/s {show newpath} bdef
/sc {setcmykcolor} bdef
/sr /setrgbcolor ldef
/sg /setgray ldef
/w /setlinewidth ldef
/j /setlinejoin ldef
/cap /setlinecap ldef
/rc {rectclip} bdef
/rf {rectfill} bdef
% page state control
/pgsv () def
/bpage {/pgsv save def} bdef
/epage {pgsv restore} bdef
/bplot /gsave ldef
/eplot {stroke grestore} bdef
% orientation switch
/portraitMode 0 def /landscapeMode 1 def /rotateMode 2 def
% coordinate system mappings
/dpi2point 0 def
% font control
/FontSize 0 def
/FMS {/FontSize xstore findfont [FontSize 0 0 FontSize neg 0 0]
  makefont setfont} bdef
/ISOLatin1Encoding where {pop /WindowsLatin1Encoding 256 array bdef
ISOLatin1Encoding WindowsLatin1Encoding copy pop
/.notdef/.notdef/quotesinglbase/florin/quotedblbase/ellipsis/dagger
/daggerdbl/circumflex/perthousand/Scaron/guilsinglleft/OE/.notdef/.notdef
/.notdef/.notdef/quoteleft/quoteright/quotedblleft/quotedblright/bullet
/endash/emdash/tilde/trademark/scaron/guilsinglright/oe/.notdef/.notdef
/Ydieresis WindowsLatin1Encoding 128 32 getinterval astore pop}
{/WindowsLatin1Encoding StandardEncoding bdef} ifelse
/reencode {exch dup where {pop load} {pop StandardEncoding} ifelse
  exch dup 3 1 roll findfont dup length dict begin
  { 1 index /FID ne {def}{pop pop} ifelse } forall
  /Encoding exch def currentdict end definefont pop} bdef
/isroman {findfont /CharStrings get /Agrave known} bdef
/FMSR {3 1 roll 1 index dup isroman {reencode} {pop pop} ifelse
  exch FMS} bdef
/csm {1 dpi2point div -1 dpi2point div scale neg translate
 dup landscapeMode eq {pop -90 rotate}
  {rotateMode eq {90 rotate} if} ifelse} bdef
% line types: solid, dotted, dashed, dotdash
/SO { [] 0 setdash } bdef
/DO { [.5 dpi2point mul 4 dpi2point mul] 0 setdash } bdef
/DA { [6 dpi2point mul] 0 setdash } bdef
/DD { [.5 dpi2point mul 4 dpi2point mul 6 dpi2point mul 4
  dpi2point mul] 0 setdash } bdef
% macros for lines and objects
/L {lineto stroke} bdef
/MP {3 1 roll moveto 1 sub {rlineto} repeat} bdef
/AP {{rlineto} repeat} bdef
/PDlw -1 def
/W {/PDlw currentlinewidth def setlinewidth} def
/PP {closepath eofill} bdef
/DP {closepath stroke} bdef
/MR {4 -2 roll moveto dup  0 exch rlineto exch 0 rlineto
  neg 0 exch rlineto closepath} bdef
/FR {MR stroke} bdef
/PR {MR fill} bdef
/L1i {{currentfile picstr readhexstring pop} image} bdef
/tMatrix matrix def
/MakeOval {newpath tMatrix currentmatrix pop translate scale
0 0 1 0 360 arc tMatrix setmatrix} bdef
/FO {MakeOval stroke} bdef
/PO {MakeOval fill} bdef
/PD {currentlinewidth 2 div 0 360 arc fill
   PDlw -1 eq not {PDlw w /PDlw -1 def} if} def
/FA {newpath tMatrix currentmatrix pop translate scale
  0 0 1 5 -2 roll arc tMatrix setmatrix stroke} bdef
/PA {newpath tMatrix currentmatrix pop	translate 0 0 moveto scale
  0 0 1 5 -2 roll arc closepath tMatrix setmatrix fill} bdef
/FAn {newpath tMatrix currentmatrix pop translate scale
  0 0 1 5 -2 roll arcn tMatrix setmatrix stroke} bdef
/PAn {newpath tMatrix currentmatrix pop translate 0 0 moveto scale
  0 0 1 5 -2 roll arcn closepath tMatrix setmatrix fill} bdef
/vradius 0 def /hradius 0 def /lry 0 def
/lrx 0 def /uly 0 def /ulx 0 def /rad 0 def
/MRR {/vradius xdef /hradius xdef /lry xdef /lrx xdef /uly xdef
  /ulx xdef newpath tMatrix currentmatrix pop ulx hradius add uly
  vradius add translate hradius vradius scale 0 0 1 180 270 arc 
  tMatrix setmatrix lrx hradius sub uly vradius add translate
  hradius vradius scale 0 0 1 270 360 arc tMatrix setmatrix
  lrx hradius sub lry vradius sub translate hradius vradius scale
  0 0 1 0 90 arc tMatrix setmatrix ulx hradius add lry vradius sub
  translate hradius vradius scale 0 0 1 90 180 arc tMatrix setmatrix
  closepath} bdef
/FRR {MRR stroke } bdef
/PRR {MRR fill } bdef
/MlrRR {/lry xdef /lrx xdef /uly xdef /ulx xdef /rad lry uly sub 2 div def
  newpath tMatrix currentmatrix pop ulx rad add uly rad add translate
  rad rad scale 0 0 1 90 270 arc tMatrix setmatrix lrx rad sub lry rad
  sub translate rad rad scale 0 0 1 270 90 arc tMatrix setmatrix
  closepath} bdef
/FlrRR {MlrRR stroke } bdef
/PlrRR {MlrRR fill } bdef
/MtbRR {/lry xdef /lrx xdef /uly xdef /ulx xdef /rad lrx ulx sub 2 div def
  newpath tMatrix currentmatrix pop ulx rad add uly rad add translate
  rad rad scale 0 0 1 180 360 arc tMatrix setmatrix lrx rad sub lry rad
  sub translate rad rad scale 0 0 1 0 180 arc tMatrix setmatrix
  closepath} bdef
/FtbRR {MtbRR stroke } bdef
/PtbRR {MtbRR fill } bdef
/stri 6 array def /dtri 6 array def
/smat 6 array def /dmat 6 array def
/tmat1 6 array def /tmat2 6 array def /dif 3 array def
/asub {/ind2 exch def /ind1 exch def dup dup
  ind1 get exch ind2 get sub exch } bdef
/tri_to_matrix {
  2 0 asub 3 1 asub 4 0 asub 5 1 asub
  dup 0 get exch 1 get 7 -1 roll astore } bdef
/compute_transform {
  dmat dtri tri_to_matrix tmat1 invertmatrix 
  smat stri tri_to_matrix tmat2 concatmatrix } bdef
/ds {stri astore pop} bdef
/dt {dtri astore pop} bdef
/db {2 copy /cols xdef /rows xdef mul dup 3 mul string
  currentfile 
  3 index 0 eq {/ASCIIHexDecode filter}
  {/ASCII85Decode filter 3 index 2 eq {/RunLengthDecode filter} if }
  ifelse exch readstring pop
  dup 0 3 index getinterval /rbmap xdef
  dup 2 index dup getinterval /gbmap xdef
  1 index dup 2 mul exch getinterval /bbmap xdef pop pop}bdef
/it {gs np dtri aload pop moveto lineto lineto cp c
  cols rows 8 compute_transform 
  rbmap gbmap bbmap true 3 colorimage gr}bdef
/il {newpath moveto lineto stroke}bdef
currentdict end def
%%EndProlog

%%BeginSetup
MathWorks begin

0 cap

end
%%EndSetup

%%Page: 1 1
%%BeginPageSetup
%%PageBoundingBox:  -126    75   721   766
MathWorks begin
bpage
%%EndPageSetup

%%BeginObject: obj1
bplot

/dpi2point 12 def
portraitMode -1512 9192 csm

    0     0 10169  8284 rc
85 dict begin %Colortable dictionary
/c0 { 0.000000 0.000000 0.000000 sr} bdef
/c1 { 1.000000 1.000000 1.000000 sr} bdef
/c2 { 0.900000 0.000000 0.000000 sr} bdef
/c3 { 0.000000 0.820000 0.000000 sr} bdef
/c4 { 0.000000 0.000000 0.800000 sr} bdef
/c5 { 0.910000 0.820000 0.320000 sr} bdef
/c6 { 1.000000 0.260000 0.820000 sr} bdef
/c7 { 0.000000 0.820000 0.820000 sr} bdef
c0
1 j
1 sg
   0    0 10170 8285 rf
6 w
0 6752 7881 0 0 -6752 1322 7373 4 MP
PP
-7881 0 0 6752 7881 0 0 -6752 1322 7373 5 MP stroke
4 w
DO
0 sg
1322 7373 mt 1322  621 L
1322  621 mt 1322  621 L
2110 7373 mt 2110  621 L
2110  621 mt 2110  621 L
2898 7373 mt 2898  621 L
2898  621 mt 2898  621 L
3686 7373 mt 3686  621 L
3686  621 mt 3686  621 L
4474 7373 mt 4474  621 L
4474  621 mt 4474  621 L
5262 7373 mt 5262  621 L
5262  621 mt 5262  621 L
6050 7373 mt 6050  621 L
6050  621 mt 6050  621 L
6838 7373 mt 6838  621 L
6838  621 mt 6838  621 L
7626 7373 mt 7626  621 L
7626  621 mt 7626  621 L
8414 7373 mt 8414  621 L
8414  621 mt 8414  621 L
9203 7373 mt 9203  621 L
9203  621 mt 9203  621 L
1322 7373 mt 9203 7373 L
9203 7373 mt 9203 7373 L
1322 6622 mt 9203 6622 L
9203 6622 mt 9203 6622 L
1322 5872 mt 9203 5872 L
9203 5872 mt 9203 5872 L
1322 5122 mt 9203 5122 L
9203 5122 mt 9203 5122 L
1322 4372 mt 9203 4372 L
9203 4372 mt 9203 4372 L
1322 3621 mt 9203 3621 L
9203 3621 mt 9203 3621 L
1322 2871 mt 9203 2871 L
9203 2871 mt 9203 2871 L
1322 2121 mt 9203 2121 L
9203 2121 mt 9203 2121 L
1322 1371 mt 9203 1371 L
9203 1371 mt 9203 1371 L
1322  621 mt 9203  621 L
9203  621 mt 9203  621 L
SO
6 w
1322  621 mt 9203  621 L
1322 7373 mt 9203 7373 L
9203 7373 mt 9203  621 L
1322 7373 mt 1322  621 L
1322 7373 mt 9203 7373 L
1322 7373 mt 1322  621 L
1322 7373 mt 1322 7294 L
1322  621 mt 1322  699 L
%%IncludeResource: font Helvetica
/Helvetica /WindowsLatin1Encoding 120 FMSR

1289 7518 mt 
(0) s
2110 7373 mt 2110 7294 L
2110  621 mt 2110  699 L
2010 7518 mt 
(100) s
2898 7373 mt 2898 7294 L
2898  621 mt 2898  699 L
2798 7518 mt 
(200) s
3686 7373 mt 3686 7294 L
3686  621 mt 3686  699 L
3586 7518 mt 
(300) s
4474 7373 mt 4474 7294 L
4474  621 mt 4474  699 L
4374 7518 mt 
(400) s
5262 7373 mt 5262 7294 L
5262  621 mt 5262  699 L
5162 7518 mt 
(500) s
6050 7373 mt 6050 7294 L
6050  621 mt 6050  699 L
5950 7518 mt 
(600) s
6838 7373 mt 6838 7294 L
6838  621 mt 6838  699 L
6738 7518 mt 
(700) s
7626 7373 mt 7626 7294 L
7626  621 mt 7626  699 L
7526 7518 mt 
(800) s
8414 7373 mt 8414 7294 L
8414  621 mt 8414  699 L
8314 7518 mt 
(900) s
9203 7373 mt 9203 7294 L
9203  621 mt 9203  699 L
9070 7518 mt 
(1000) s
1322 7373 mt 1322 7373 L
1322 7373 mt 1322 7373 L
DO
1322 7373 mt 1322 7373 L
1322 7373 mt 1322 7373 L
SO
1322 7373 mt 1322 7373 L
1322 7373 mt 1322 7373 L
DO
1322 7373 mt 1322 7373 L
1322 7373 mt 1322 7373 L
SO
1322 7373 mt 1322 7373 L
1322 7373 mt 1322 7373 L
DO
1322 7373 mt 1322 7373 L
1322 7373 mt 1322 7373 L
SO
1322 7373 mt 1322 7373 L
1322 7373 mt 1322 7373 L
DO
1322 7373 mt 1322 7373 L
1322 7373 mt 1322 7373 L
SO
1322 7373 mt 1322 7373 L
1322 7373 mt 1322 7373 L
DO
1322 7373 mt 1322 7373 L
1322 7373 mt 1322 7373 L
SO
1322 7373 mt 1322 7373 L
1322 7373 mt 1322 7373 L
DO
1322 7373 mt 1322 7373 L
1322 7373 mt 1322 7373 L
SO
1322 7373 mt 1322 7373 L
1322 7373 mt 1322 7373 L
DO
1322 7373 mt 1322 7373 L
1322 7373 mt 1322 7373 L
SO
1322 7373 mt 1322 7373 L
1322 7373 mt 1322 7373 L
DO
1322 7373 mt 1322 7373 L
1322 7373 mt 1322 7373 L
SO
1322 7373 mt 1322 7373 L
1322 7373 mt 1322 7373 L
DO
1322 7373 mt 1322 7373 L
1322 7373 mt 1322 7373 L
SO
1322 7373 mt 1400 7373 L
9203 7373 mt 9124 7373 L
1019 7417 mt 
(10) s
%%IncludeResource: font Helvetica
/Helvetica /WindowsLatin1Encoding 80 FMSR

1152 7343 mt 
(-16) s
1322 7373 mt 1322 7373 L
1322 7373 mt 1322 7373 L
DO
1322 7373 mt 1322 7373 L
1322 7373 mt 1322 7373 L
SO
1322 7373 mt 1322 7373 L
1322 7373 mt 1322 7373 L
DO
1322 7373 mt 1322 7373 L
1322 7373 mt 1322 7373 L
SO
1322 7373 mt 1322 7373 L
1322 7373 mt 1322 7373 L
DO
1322 7373 mt 1322 7373 L
1322 7373 mt 1322 7373 L
SO
1322 7373 mt 1322 7373 L
1322 7373 mt 1322 7373 L
DO
1322 7373 mt 1322 7373 L
1322 7373 mt 1322 7373 L
SO
1322 7373 mt 1322 7373 L
1322 7373 mt 1322 7373 L
DO
1322 7373 mt 1322 7373 L
1322 7373 mt 1322 7373 L
SO
1322 7373 mt 1322 7373 L
1322 7373 mt 1322 7373 L
DO
1322 7373 mt 1322 7373 L
1322 7373 mt 1322 7373 L
SO
1322 7373 mt 1322 7373 L
1322 7373 mt 1322 7373 L
DO
1322 7373 mt 1322 7373 L
1322 7373 mt 1322 7373 L
SO
1322 7373 mt 1322 7373 L
1322 7373 mt 1322 7373 L
DO
1322 7373 mt 1322 7373 L
1322 7373 mt 1322 7373 L
SO
1322 7373 mt 1322 7373 L
1322 7373 mt 1322 7373 L
DO
1322 7373 mt 1322 7373 L
1322 7373 mt 1322 7373 L
SO
1322 6622 mt 1400 6622 L
9203 6622 mt 9124 6622 L
%%IncludeResource: font Helvetica
/Helvetica /WindowsLatin1Encoding 120 FMSR

1019 6666 mt 
(10) s
%%IncludeResource: font Helvetica
/Helvetica /WindowsLatin1Encoding 80 FMSR

1152 6592 mt 
(-14) s
1322 7373 mt 1322 7373 L
1322 7373 mt 1322 7373 L
DO
1322 7373 mt 1322 7373 L
1322 7373 mt 1322 7373 L
SO
1322 7373 mt 1322 7373 L
1322 7373 mt 1322 7373 L
DO
1322 7373 mt 1322 7373 L
1322 7373 mt 1322 7373 L
SO
1322 7373 mt 1322 7373 L
1322 7373 mt 1322 7373 L
DO
1322 7373 mt 1322 7373 L
1322 7373 mt 1322 7373 L
SO
1322 7373 mt 1322 7373 L
1322 7373 mt 1322 7373 L
DO
1322 7373 mt 1322 7373 L
1322 7373 mt 1322 7373 L
SO
1322 7373 mt 1322 7373 L
1322 7373 mt 1322 7373 L
DO
1322 7373 mt 1322 7373 L
1322 7373 mt 1322 7373 L
SO
1322 7373 mt 1322 7373 L
1322 7373 mt 1322 7373 L
DO
1322 7373 mt 1322 7373 L
1322 7373 mt 1322 7373 L
SO
1322 7373 mt 1322 7373 L
1322 7373 mt 1322 7373 L
DO
1322 7373 mt 1322 7373 L
1322 7373 mt 1322 7373 L
SO
1322 7373 mt 1322 7373 L
1322 7373 mt 1322 7373 L
DO
1322 7373 mt 1322 7373 L
1322 7373 mt 1322 7373 L
SO
1322 7373 mt 1322 7373 L
1322 7373 mt 1322 7373 L
DO
1322 7373 mt 1322 7373 L
1322 7373 mt 1322 7373 L
SO
1322 5872 mt 1400 5872 L
9203 5872 mt 9124 5872 L
%%IncludeResource: font Helvetica
/Helvetica /WindowsLatin1Encoding 120 FMSR

1019 5916 mt 
(10) s
%%IncludeResource: font Helvetica
/Helvetica /WindowsLatin1Encoding 80 FMSR

1152 5842 mt 
(-12) s
1322 7373 mt 1322 7373 L
1322 7373 mt 1322 7373 L
DO
1322 7373 mt 1322 7373 L
1322 7373 mt 1322 7373 L
SO
1322 7373 mt 1322 7373 L
1322 7373 mt 1322 7373 L
DO
1322 7373 mt 1322 7373 L
1322 7373 mt 1322 7373 L
SO
1322 7373 mt 1322 7373 L
1322 7373 mt 1322 7373 L
DO
1322 7373 mt 1322 7373 L
1322 7373 mt 1322 7373 L
SO
1322 7373 mt 1322 7373 L
1322 7373 mt 1322 7373 L
DO
1322 7373 mt 1322 7373 L
1322 7373 mt 1322 7373 L
SO
1322 7373 mt 1322 7373 L
1322 7373 mt 1322 7373 L
DO
1322 7373 mt 1322 7373 L
1322 7373 mt 1322 7373 L
SO
1322 7373 mt 1322 7373 L
1322 7373 mt 1322 7373 L
DO
1322 7373 mt 1322 7373 L
1322 7373 mt 1322 7373 L
SO
1322 7373 mt 1322 7373 L
1322 7373 mt 1322 7373 L
DO
1322 7373 mt 1322 7373 L
1322 7373 mt 1322 7373 L
SO
1322 7373 mt 1322 7373 L
1322 7373 mt 1322 7373 L
DO
1322 7373 mt 1322 7373 L
1322 7373 mt 1322 7373 L
SO
1322 7373 mt 1322 7373 L
1322 7373 mt 1322 7373 L
DO
1322 7373 mt 1322 7373 L
1322 7373 mt 1322 7373 L
SO
1322 5122 mt 1400 5122 L
9203 5122 mt 9124 5122 L
%%IncludeResource: font Helvetica
/Helvetica /WindowsLatin1Encoding 120 FMSR

1019 5166 mt 
(10) s
%%IncludeResource: font Helvetica
/Helvetica /WindowsLatin1Encoding 80 FMSR

1152 5092 mt 
(-10) s
1322 7373 mt 1322 7373 L
1322 7373 mt 1322 7373 L
DO
1322 7373 mt 1322 7373 L
1322 7373 mt 1322 7373 L
SO
1322 7373 mt 1322 7373 L
1322 7373 mt 1322 7373 L
DO
1322 7373 mt 1322 7373 L
1322 7373 mt 1322 7373 L
SO
1322 7373 mt 1322 7373 L
1322 7373 mt 1322 7373 L
DO
1322 7373 mt 1322 7373 L
1322 7373 mt 1322 7373 L
SO
1322 7373 mt 1322 7373 L
1322 7373 mt 1322 7373 L
DO
1322 7373 mt 1322 7373 L
1322 7373 mt 1322 7373 L
SO
1322 7373 mt 1322 7373 L
1322 7373 mt 1322 7373 L
DO
1322 7373 mt 1322 7373 L
1322 7373 mt 1322 7373 L
SO
1322 7373 mt 1322 7373 L
1322 7373 mt 1322 7373 L
DO
1322 7373 mt 1322 7373 L
1322 7373 mt 1322 7373 L
SO
1322 7373 mt 1322 7373 L
1322 7373 mt 1322 7373 L
DO
1322 7373 mt 1322 7373 L
1322 7373 mt 1322 7373 L
SO
1322 7373 mt 1322 7373 L
1322 7373 mt 1322 7373 L
DO
1322 7373 mt 1322 7373 L
1322 7373 mt 1322 7373 L
SO
1322 7373 mt 1322 7373 L
1322 7373 mt 1322 7373 L
DO
1322 7373 mt 1322 7373 L
1322 7373 mt 1322 7373 L
SO
1322 4372 mt 1400 4372 L
9203 4372 mt 9124 4372 L
%%IncludeResource: font Helvetica
/Helvetica /WindowsLatin1Encoding 120 FMSR

1019 4416 mt 
(10) s
%%IncludeResource: font Helvetica
/Helvetica /WindowsLatin1Encoding 80 FMSR

1152 4342 mt 
(-8) s
1322 7373 mt 1322 7373 L
1322 7373 mt 1322 7373 L
DO
1322 7373 mt 1322 7373 L
1322 7373 mt 1322 7373 L
SO
1322 7373 mt 1322 7373 L
1322 7373 mt 1322 7373 L
DO
1322 7373 mt 1322 7373 L
1322 7373 mt 1322 7373 L
SO
1322 7373 mt 1322 7373 L
1322 7373 mt 1322 7373 L
DO
1322 7373 mt 1322 7373 L
1322 7373 mt 1322 7373 L
SO
1322 7373 mt 1322 7373 L
1322 7373 mt 1322 7373 L
DO
1322 7373 mt 1322 7373 L
1322 7373 mt 1322 7373 L
SO
1322 7373 mt 1322 7373 L
1322 7373 mt 1322 7373 L
DO
1322 7373 mt 1322 7373 L
1322 7373 mt 1322 7373 L
SO
1322 7373 mt 1322 7373 L
1322 7373 mt 1322 7373 L
DO
1322 7373 mt 1322 7373 L
1322 7373 mt 1322 7373 L
SO
1322 7373 mt 1322 7373 L
1322 7373 mt 1322 7373 L
DO
1322 7373 mt 1322 7373 L
1322 7373 mt 1322 7373 L
SO
1322 7373 mt 1322 7373 L
1322 7373 mt 1322 7373 L
DO
1322 7373 mt 1322 7373 L
1322 7373 mt 1322 7373 L
SO
1322 7373 mt 1322 7373 L
1322 7373 mt 1322 7373 L
DO
1322 7373 mt 1322 7373 L
1322 7373 mt 1322 7373 L
SO
1322 3621 mt 1400 3621 L
9203 3621 mt 9124 3621 L
%%IncludeResource: font Helvetica
/Helvetica /WindowsLatin1Encoding 120 FMSR

1019 3665 mt 
(10) s
%%IncludeResource: font Helvetica
/Helvetica /WindowsLatin1Encoding 80 FMSR

1152 3591 mt 
(-6) s
1322 7373 mt 1322 7373 L
1322 7373 mt 1322 7373 L
DO
1322 7373 mt 1322 7373 L
1322 7373 mt 1322 7373 L
SO
1322 7373 mt 1322 7373 L
1322 7373 mt 1322 7373 L
DO
1322 7373 mt 1322 7373 L
1322 7373 mt 1322 7373 L
SO
1322 7373 mt 1322 7373 L
1322 7373 mt 1322 7373 L
DO
1322 7373 mt 1322 7373 L
1322 7373 mt 1322 7373 L
SO
1322 7373 mt 1322 7373 L
1322 7373 mt 1322 7373 L
DO
1322 7373 mt 1322 7373 L
1322 7373 mt 1322 7373 L
SO
1322 7373 mt 1322 7373 L
1322 7373 mt 1322 7373 L
DO
1322 7373 mt 1322 7373 L
1322 7373 mt 1322 7373 L
SO
1322 7373 mt 1322 7373 L
1322 7373 mt 1322 7373 L
DO
1322 7373 mt 1322 7373 L
1322 7373 mt 1322 7373 L
SO
1322 7373 mt 1322 7373 L
1322 7373 mt 1322 7373 L
DO
1322 7373 mt 1322 7373 L
1322 7373 mt 1322 7373 L
SO
1322 7373 mt 1322 7373 L
1322 7373 mt 1322 7373 L
DO
1322 7373 mt 1322 7373 L
1322 7373 mt 1322 7373 L
SO
1322 7373 mt 1322 7373 L
1322 7373 mt 1322 7373 L
DO
1322 7373 mt 1322 7373 L
1322 7373 mt 1322 7373 L
SO
1322 2871 mt 1400 2871 L
9203 2871 mt 9124 2871 L
%%IncludeResource: font Helvetica
/Helvetica /WindowsLatin1Encoding 120 FMSR

1019 2915 mt 
(10) s
%%IncludeResource: font Helvetica
/Helvetica /WindowsLatin1Encoding 80 FMSR

1152 2841 mt 
(-4) s
1322 7373 mt 1322 7373 L
1322 7373 mt 1322 7373 L
DO
1322 7373 mt 1322 7373 L
1322 7373 mt 1322 7373 L
SO
1322 7373 mt 1322 7373 L
1322 7373 mt 1322 7373 L
DO
1322 7373 mt 1322 7373 L
1322 7373 mt 1322 7373 L
SO
1322 7373 mt 1322 7373 L
1322 7373 mt 1322 7373 L
DO
1322 7373 mt 1322 7373 L
1322 7373 mt 1322 7373 L
SO
1322 7373 mt 1322 7373 L
1322 7373 mt 1322 7373 L
DO
1322 7373 mt 1322 7373 L
1322 7373 mt 1322 7373 L
SO
1322 7373 mt 1322 7373 L
1322 7373 mt 1322 7373 L
DO
1322 7373 mt 1322 7373 L
1322 7373 mt 1322 7373 L
SO
1322 7373 mt 1322 7373 L
1322 7373 mt 1322 7373 L
DO
1322 7373 mt 1322 7373 L
1322 7373 mt 1322 7373 L
SO
1322 7373 mt 1322 7373 L
1322 7373 mt 1322 7373 L
DO
1322 7373 mt 1322 7373 L
1322 7373 mt 1322 7373 L
SO
1322 7373 mt 1322 7373 L
1322 7373 mt 1322 7373 L
DO
1322 7373 mt 1322 7373 L
1322 7373 mt 1322 7373 L
SO
1322 7373 mt 1322 7373 L
1322 7373 mt 1322 7373 L
DO
1322 7373 mt 1322 7373 L
1322 7373 mt 1322 7373 L
SO
1322 2121 mt 1400 2121 L
9203 2121 mt 9124 2121 L
%%IncludeResource: font Helvetica
/Helvetica /WindowsLatin1Encoding 120 FMSR

1019 2165 mt 
(10) s
%%IncludeResource: font Helvetica
/Helvetica /WindowsLatin1Encoding 80 FMSR

1152 2091 mt 
(-2) s
1322 7373 mt 1322 7373 L
1322 7373 mt 1322 7373 L
DO
1322 7373 mt 1322 7373 L
1322 7373 mt 1322 7373 L
SO
1322 7373 mt 1322 7373 L
1322 7373 mt 1322 7373 L
DO
1322 7373 mt 1322 7373 L
1322 7373 mt 1322 7373 L
SO
1322 7373 mt 1322 7373 L
1322 7373 mt 1322 7373 L
DO
1322 7373 mt 1322 7373 L
1322 7373 mt 1322 7373 L
SO
1322 7373 mt 1322 7373 L
1322 7373 mt 1322 7373 L
DO
1322 7373 mt 1322 7373 L
1322 7373 mt 1322 7373 L
SO
1322 7373 mt 1322 7373 L
1322 7373 mt 1322 7373 L
DO
1322 7373 mt 1322 7373 L
1322 7373 mt 1322 7373 L
SO
1322 7373 mt 1322 7373 L
1322 7373 mt 1322 7373 L
DO
1322 7373 mt 1322 7373 L
1322 7373 mt 1322 7373 L
SO
1322 7373 mt 1322 7373 L
1322 7373 mt 1322 7373 L
DO
1322 7373 mt 1322 7373 L
1322 7373 mt 1322 7373 L
SO
1322 7373 mt 1322 7373 L
1322 7373 mt 1322 7373 L
DO
1322 7373 mt 1322 7373 L
1322 7373 mt 1322 7373 L
SO
1322 7373 mt 1322 7373 L
1322 7373 mt 1322 7373 L
DO
1322 7373 mt 1322 7373 L
1322 7373 mt 1322 7373 L
SO
1322 1371 mt 1400 1371 L
9203 1371 mt 9124 1371 L
%%IncludeResource: font Helvetica
/Helvetica /WindowsLatin1Encoding 120 FMSR

1019 1415 mt 
(10) s
%%IncludeResource: font Helvetica
/Helvetica /WindowsLatin1Encoding 80 FMSR

1152 1341 mt 
(0) s
1322 7373 mt 1322 7373 L
1322 7373 mt 1322 7373 L
DO
1322 7373 mt 1322 7373 L
1322 7373 mt 1322 7373 L
SO
1322 7373 mt 1322 7373 L
1322 7373 mt 1322 7373 L
DO
1322 7373 mt 1322 7373 L
1322 7373 mt 1322 7373 L
SO
1322 7373 mt 1322 7373 L
1322 7373 mt 1322 7373 L
DO
1322 7373 mt 1322 7373 L
1322 7373 mt 1322 7373 L
SO
1322 7373 mt 1322 7373 L
1322 7373 mt 1322 7373 L
DO
1322 7373 mt 1322 7373 L
1322 7373 mt 1322 7373 L
SO
1322 7373 mt 1322 7373 L
1322 7373 mt 1322 7373 L
DO
1322 7373 mt 1322 7373 L
1322 7373 mt 1322 7373 L
SO
1322 7373 mt 1322 7373 L
1322 7373 mt 1322 7373 L
DO
1322 7373 mt 1322 7373 L
1322 7373 mt 1322 7373 L
SO
1322 7373 mt 1322 7373 L
1322 7373 mt 1322 7373 L
DO
1322 7373 mt 1322 7373 L
1322 7373 mt 1322 7373 L
SO
1322 7373 mt 1322 7373 L
1322 7373 mt 1322 7373 L
DO
1322 7373 mt 1322 7373 L
1322 7373 mt 1322 7373 L
SO
1322 7373 mt 1322 7373 L
1322 7373 mt 1322 7373 L
DO
1322 7373 mt 1322 7373 L
1322 7373 mt 1322 7373 L
SO
1322  621 mt 1400  621 L
9203  621 mt 9124  621 L
%%IncludeResource: font Helvetica
/Helvetica /WindowsLatin1Encoding 120 FMSR

1019  665 mt 
(10) s
%%IncludeResource: font Helvetica
/Helvetica /WindowsLatin1Encoding 80 FMSR

1152  591 mt 
(2) s
1322 7373 mt 1322 7373 L
1322 7373 mt 1322 7373 L
DO
1322 7373 mt 1322 7373 L
1322 7373 mt 1322 7373 L
SO
1322 7373 mt 1322 7373 L
1322 7373 mt 1322 7373 L
DO
1322 7373 mt 1322 7373 L
1322 7373 mt 1322 7373 L
SO
1322 7373 mt 1322 7373 L
1322 7373 mt 1322 7373 L
DO
1322 7373 mt 1322 7373 L
1322 7373 mt 1322 7373 L
SO
1322 7373 mt 1322 7373 L
1322 7373 mt 1322 7373 L
DO
1322 7373 mt 1322 7373 L
1322 7373 mt 1322 7373 L
SO
1322 7373 mt 1322 7373 L
1322 7373 mt 1322 7373 L
DO
1322 7373 mt 1322 7373 L
1322 7373 mt 1322 7373 L
SO
1322 7373 mt 1322 7373 L
1322 7373 mt 1322 7373 L
DO
1322 7373 mt 1322 7373 L
1322 7373 mt 1322 7373 L
SO
1322 7373 mt 1322 7373 L
1322 7373 mt 1322 7373 L
DO
1322 7373 mt 1322 7373 L
1322 7373 mt 1322 7373 L
SO
1322 7373 mt 1322 7373 L
1322 7373 mt 1322 7373 L
DO
1322 7373 mt 1322 7373 L
1322 7373 mt 1322 7373 L
SO
1322 7373 mt 1322 7373 L
1322 7373 mt 1322 7373 L
DO
1322 7373 mt 1322 7373 L
1322 7373 mt 1322 7373 L
SO
1322  621 mt 9203  621 L
1322 7373 mt 9203 7373 L
9203 7373 mt 9203  621 L
1322 7373 mt 1322  621 L
gs 1322 621 7882 6753 rc
/c8 { 0.000000 0.000000 1.000000 sr} bdef
c8
8 0 8 0 8 0 8 0 8 0 8 0 8 0 8 0 
7 0 8 0 8 0 8 0 8 0 8 0 8 0 8 0 
7 0 8 0 8 0 8 0 8 0 8 0 8 0 8 0 
8 0 7 0 8 0 8 0 8 0 8 0 8 0 8 0 
8 0 7 0 8 0 8 0 8 0 8 0 8 0 8 0 
8 0 8 0 7 0 8 0 8 0 8 0 8 0 8 0 
8 0 8 0 7 0 8 0 8 0 8 0 8 0 8 0 
8 0 8 0 7 0 8 0 8 0 8 0 8 0 8 0 
8 0 8 0 8 0 7 0 8 0 8 0 8 0 8 0 
8 0 8 0 8 0 7 0 8 0 8 0 8 0 8 0 
8 0 8 0 8 0 8 0 7 0 8 0 8 0 8 0 
8 0 8 0 8 0 8 0 7 0 8 0 8 0 8 0 
8 0 8 0 8 0 8 0 7 0 8 0 8 0 8 0 
8 0 8 0 8 0 8 0 8 0 7 0 8 0 8 0 
8 0 8 0 8 0 8 0 8 0 7 0 8 0 8 0 
8 0 8 0 8 0 8 0 8 0 8 0 7 0 8 0 
8 0 8 0 8 0 8 0 8 0 8 0 7 0 8 0 
8 0 8 0 8 0 8 0 8 0 8 0 7 0 8 0 
8 0 8 0 8 0 8 0 8 0 8 0 8 0 7 0 
8 0 8 0 8 0 8 0 8 0 8 0 8 0 7 0 
8 0 8 0 8 0 8 0 8 0 8 0 8 0 8 0 
7 0 8 0 8 0 8 0 8 0 8 0 8 0 8 0 
7 0 8 0 8 0 8 0 8 0 8 0 8 0 8 0 
7 0 8 0 8 0 8 0 8 0 8 0 8 0 8 0 
8 0 7 0 8 0 8 0 8 0 8 0 8 0 8 0 
8 0 7 0 8 0 8 0 8 0 8 0 8 0 8 0 
8 0 8 0 7 0 8 0 8 0 8 0 8 0 8 0 
8 0 8 0 7 0 8 0 8 0 8 0 8 0 8 0 
8 0 8 0 7 0 8 0 8 0 8 0 8 0 8 0 
8 0 8 0 8 0 7 0 8 0 8 0 8 0 8 0 
8 0 8 0 8 0 7 0 8 0 8 0 8 0 8 0 
8 0 8 0 8 0 8 0 7 0 8 0 8 0 8 0 
8 0 8 0 8 0 8 0 7 0 8 0 8 0 8 0 
8 0 8 0 8 0 8 0 7 0 8 0 8 0 8 0 
8 0 8 0 8 0 8 0 8 0 7 0 8 0 8 0 
8 0 8 0 8 0 8 0 8 0 7 0 8 0 8 0 
8 0 8 0 8 0 8 0 8 0 8 0 7 0 8 0 
8 0 8 0 8 0 6846 6760 300 MP stroke
8 0 8 0 8 0 7 0 8 0 8 0 8 0 8 0 
8 0 8 0 8 0 7 0 8 0 8 0 8 0 8 0 
8 0 8 0 8 0 8 0 7 0 8 0 8 0 8 0 
8 0 8 0 8 0 8 0 7 0 8 0 8 0 8 0 
8 0 8 0 8 0 8 0 8 0 7 0 8 0 8 0 
8 0 8 0 8 0 8 0 8 0 7 0 8 0 8 0 
8 0 8 0 8 0 8 0 8 0 7 0 8 0 8 0 
8 0 8 0 8 0 8 0 8 0 8 0 7 0 8 0 
8 0 8 0 8 0 8 0 8 0 8 0 7 0 8 0 
8 0 8 0 8 0 8 0 8 0 8 0 8 0 7 0 
8 0 8 0 8 0 8 0 8 0 8 0 8 0 7 0 
8 0 8 0 8 0 8 0 8 0 8 0 8 0 7 0 
8 0 8 0 8 0 8 0 8 0 8 0 8 0 8 0 
7 0 8 0 8 0 8 0 8 0 8 0 8 0 8 0 
7 0 8 0 8 0 8 0 8 0 8 0 8 0 8 0 
8 0 7 0 8 0 8 0 8 0 8 0 8 0 8 0 
8 0 7 0 8 0 8 0 8 0 8 0 8 0 8 0 
8 0 7 0 8 0 8 0 8 0 8 0 8 0 8 0 
8 0 8 27 7 -87 8 32 8 0 8 -6 8 -33 8 96 
8 -41 8 26 7 35 8 -13 8 -5 8 -20 8 30 8 -12 
8 13 8 18 8 -6 7 43 8 41 8 -34 8 4 8 7 
8 26 8 0 8 4 7 17 8 -14 8 24 8 14 8 11 
8 4 8 15 8 6 7 7 8 14 8 11 8 11 8 17 
8 7 8 2 8 15 8 7 7 5 8 14 8 10 8 11 
8 12 8 10 8 8 8 11 7 8 8 14 8 10 8 7 
8 10 8 11 8 11 8 9 8 12 7 10 8 11 8 10 
8 10 8 11 8 8 8 10 8 11 7 11 8 9 8 10 
8 10 8 11 8 9 8 11 8 10 8 10 7 10 8 10 
8 10 8 10 8 11 8 10 8 10 8 10 7 10 8 10 
8 10 8 11 8 10 8 10 8 10 8 10 7 10 8 11 
8 9 8 11 8 10 8 10 8 10 8 10 8 10 7 10 
8 10 8 11 8 10 8 10 8 10 8 10 8 10 7 11 
8 10 8 10 8 10 8 10 8 10 8 10 8 10 8 11 
7 10 8 10 8 10 8 10 8 10 8 10 8 10 8 11 
7 10 8 10 8 10 8 10 8 10 8 10 8 11 8 10 
7 10 8 10 8 10 8 10 8 10 8 10 8 11 8 10 
8 10 7 10 8 10 8 10 8 10 8 11 8 10 8 10 
8 10 7 10 8 10 4490 5322 300 MP stroke
8 10 8 10 8 11 8 10 8 10 8 10 8 10 7 10 
8 10 8 11 8 10 8 10 8 10 8 10 8 10 7 10 
8 10 8 11 8 10 8 10 8 10 8 10 8 10 7 10 
8 11 8 10 8 10 8 10 8 10 8 10 8 10 8 10 
7 11 8 10 8 10 8 10 8 10 8 10 8 10 8 11 
7 10 8 10 8 10 8 10 8 10 8 10 8 10 8 11 
8 10 7 10 8 10 8 10 8 10 8 10 8 11 8 10 
8 10 7 10 8 10 8 10 8 10 8 10 8 11 8 10 
8 10 7 10 8 10 8 10 8 10 8 11 8 10 8 10 
8 10 8 10 7 10 8 10 8 10 8 11 8 10 8 10 
8 10 8 10 7 10 8 10 8 11 8 10 8 10 8 10 
8 10 8 10 8 10 7 10 8 11 8 10 8 10 8 10 
8 10 8 10 8 10 7 11 8 10 8 10 8 10 8 10 
8 10 8 10 8 10 7 11 8 10 8 10 8 10 8 10 
8 10 8 10 8 11 8 10 7 10 8 10 8 10 8 10 
8 10 8 10 8 11 8 10 7 10 8 10 8 10 8 10 
8 10 8 11 8 10 8 10 8 10 7 10 8 10 8 10 
8 10 8 11 8 10 8 10 8 10 7 10 8 10 8 10 
8 11 8 10 8 10 8 10 8 10 7 10 8 10 8 10 
8 11 8 10 8 10 8 10 8 10 8 10 7 10 8 11 
8 10 8 10 8 10 8 10 8 10 8 10 7 10 8 11 
8 10 8 10 8 10 8 10 8 10 8 10 8 11 7 10 
8 10 8 10 8 10 8 10 8 10 8 10 8 11 7 10 
8 10 8 10 8 10 8 10 8 10 8 11 8 10 7 10 
8 10 8 10 8 10 8 10 8 10 8 11 8 10 8 10 
7 10 8 10 8 10 8 10 8 11 8 10 8 10 8 10 
7 10 8 10 8 10 8 10 8 11 8 10 8 10 8 10 
8 10 7 10 8 10 8 11 8 10 8 10 8 10 8 10 
8 10 7 10 8 10 8 11 8 10 8 10 8 10 8 10 
8 10 7 10 8 11 8 10 8 10 8 10 8 10 8 10 
8 10 8 10 7 11 8 10 8 10 8 10 8 10 8 10 
8 10 8 11 7 10 8 10 8 10 8 10 8 10 8 10 
8 10 8 11 8 10 7 10 8 10 8 10 8 10 8 10 
8 11 8 10 8 10 7 10 8 10 8 10 8 10 8 10 
8 11 8 10 8 10 7 10 8 10 8 10 8 10 8 11 
8 10 8 10 8 10 8 10 7 10 8 10 8 10 8 11 
8 10 8 10 8 10 8 10 7 10 8 10 8 11 8 10 
8 10 8 10 8 10 2133 2292 300 MP stroke
8 10 8 10 7 10 8 11 8 10 8 10 8 10 8 10 
8 10 8 10 7 11 8 10 8 10 8 10 8 10 8 10 
8 10 8 10 7 11 8 10 8 10 8 10 8 10 8 10 
8 10 8 11 8 10 7 10 8 10 8 10 8 10 8 10 
8 10 8 11 8 10 7 10 8 10 8 10 8 10 8 10 
8 11 8 10 8 10 8 10 7 10 8 10 8 10 8 10 
8 11 8 10 8 10 8 10 7 10 8 10 8 10 8 11 
8 10 8 10 8 10 8 10 7 10 8 10 8 10 8 11 
8 10 8 10 8 10 8 10 8 10 7 10 8 11 8 10 
8 10 8 10 8 10 8 10 8 10 7 10 8 11 8 10 
8 10 8 10 8 10 8 10 8 10 8 11 7 10 8 10 
8 10 8 10 8 10 8 10 8 10 8 11 7 10 8 10 
8 10 8 10 8 10 8 10 8 11 8 10 1329 1258 103 MP stroke
/c9 { 0.000000 0.500000 0.000000 sr} bdef
c9
8 2 8 -2 8 2 8 -2 8 2 8 -2 8 2 8 -2 
7 2 8 -2 8 2 8 -2 8 2 8 -2 8 2 8 -2 
7 2 8 -2 8 2 8 -2 8 2 8 -2 8 2 8 -2 
8 2 7 -2 8 2 8 -2 8 2 8 -2 8 2 8 -2 
8 2 7 -2 8 2 8 -2 8 2 8 -2 8 2 8 -2 
8 2 8 -2 7 2 8 -2 8 2 8 -2 8 2 8 -2 
8 2 8 -2 7 2 8 -2 8 2 8 -2 8 2 8 -2 
8 2 8 -2 7 2 8 -2 8 2 8 -2 8 2 8 -2 
8 2 8 -2 8 2 7 -2 8 2 8 -2 8 2 8 -2 
8 2 8 -2 8 2 7 -2 8 2 8 -2 8 2 8 -2 
8 2 8 -2 8 2 8 -2 7 2 8 -2 8 2 8 -2 
8 2 8 -2 8 2 8 -2 7 2 8 -2 8 2 8 -2 
8 2 8 -2 8 2 8 -2 7 2 8 -2 8 2 8 -2 
8 2 8 -2 8 2 8 -2 8 2 7 -2 8 2 8 -2 
8 2 8 -2 8 2 8 -2 8 2 7 -2 8 2 8 -2 
8 2 8 -2 8 2 8 -2 8 2 8 -2 7 2 8 -2 
8 2 8 -2 8 2 8 -2 8 2 8 -2 7 2 8 -2 
8 2 8 -2 8 2 8 -2 8 2 8 -2 7 2 8 -2 
8 2 8 -2 8 2 8 -2 8 2 8 -2 8 2 7 -2 
8 2 8 -2 8 2 8 -2 8 2 8 -2 8 2 7 -2 
8 2 8 -2 8 2 8 -2 8 2 8 -2 8 2 8 -2 
7 2 8 -2 8 2 8 -2 8 2 8 -2 8 2 8 -2 
7 2 8 -2 8 2 8 -2 8 2 8 -2 8 2 8 -2 
7 2 8 -2 8 2 8 -2 8 2 8 -2 8 2 8 -2 
8 2 7 -2 8 2 8 -2 8 2 8 -2 8 2 8 -2 
8 2 7 -2 8 2 8 -2 8 2 8 -2 8 2 8 -2 
8 2 8 -2 7 2 8 -2 8 2 8 -2 8 2 8 -2 
8 2 8 -2 7 2 8 -2 8 2 8 -2 8 2 8 -2 
8 2 8 -2 7 2 8 -2 8 2 8 -2 8 2 8 -2 
8 2 8 -2 8 2 7 -2 8 2 8 -2 8 2 8 -2 
8 2 8 -2 8 2 7 -2 8 2 8 -2 8 2 8 -2 
8 2 8 -2 8 2 8 -2 7 2 8 -2 8 2 8 -2 
8 2 8 -2 8 2 8 -2 7 2 8 -2 8 2 8 -2 
8 2 8 -2 8 2 8 -2 7 2 8 -2 8 2 8 -2 
8 2 8 -2 8 2 8 -2 8 2 7 -2 8 2 8 -2 
8 2 8 -2 8 2 8 -2 8 2 7 -2 8 2 8 -2 
8 2 8 -2 8 2 8 -2 8 2 8 -2 7 2 8 -2 
8 2 8 -2 8 2 6846 6839 300 MP stroke
8 -2 8 2 8 -2 7 2 8 -2 8 2 8 -2 8 2 
8 -2 8 2 8 -2 7 2 8 -2 8 2 8 -2 8 2 
8 -2 8 2 8 -2 8 2 7 -2 8 2 8 -2 8 2 
8 -2 8 2 8 -2 8 2 7 -2 8 2 8 -2 8 2 
8 -2 8 2 8 -2 8 2 8 -2 7 2 8 -2 8 2 
8 -2 8 2 8 -2 8 2 8 -2 7 2 8 -2 8 2 
8 -2 8 2 8 -2 8 2 8 -2 7 2 8 -2 8 2 
8 -2 8 2 8 -2 8 2 8 -2 8 2 7 -2 8 2 
8 -2 8 2 8 -2 8 2 8 -2 8 2 7 -2 8 2 
8 -2 8 2 8 -2 8 2 8 -2 8 2 8 -2 7 2 
8 -2 8 2 8 -2 8 2 8 -2 8 2 8 -2 7 2 
8 -2 8 2 8 -2 8 2 8 -2 8 2 8 -2 7 2 
8 -2 8 2 8 -2 8 2 8 -2 8 2 8 -2 8 2 
7 -2 8 2 8 -2 8 2 8 -2 8 2 8 -2 8 2 
7 -2 8 2 8 -2 8 2 8 -2 8 2 8 -2 8 2 
8 -2 7 2 8 -2 8 2 8 -2 8 2 8 -2 8 2 
8 -2 7 2 8 -2 8 2 8 -2 8 2 8 -2 8 2 
8 -2 7 2 8 -2 8 2 8 -2 8 2 8 -2 8 2 
8 -2 8 2 7 -2 8 2 8 -2 8 2 8 -2 8 2 
8 -2 8 2 7 -2 8 2 8 -2 8 2 8 -2 8 2 
8 -2 8 2 8 -2 7 2 8 -2 8 2 8 -2 8 2 
8 -2 8 2 8 -2 7 2 8 -2 8 2 8 -2 8 2 
8 -2 8 2 8 -2 7 2 8 -2 8 2 8 -2 8 2 
8 -2 8 2 8 -2 8 2 7 -2 8 2 8 -2 8 2 
8 -2 8 2 8 -2 8 2 7 -2 8 2 8 -2 8 2 
8 -2 8 2 8 -2 8 2 8 -2 7 2 8 -2 8 2 
8 -2 8 2 8 -2 8 2 8 -2 7 2 8 -2 8 2 
8 -2 8 2 8 -2 8 2 8 -2 8 2 7 -2 8 2 
8 -2 8 2 8 -2 8 2 8 -2 8 2 7 -2 8 2 
8 -2 8 2 8 -2 8 2 8 -2 8 2 7 -2 8 2 
8 -2 8 2 8 -2 8 2 8 -2 8 2 8 -2 7 2 
8 -2 8 2 8 -2 8 2 8 -2 8 2 8 -2 7 2 
8 -2 8 2 8 -2 8 2 8 -2 8 2 8 -2 8 2 
7 -2 8 2 8 -2 8 2 8 -2 8 2 8 -2 8 2 
7 -2 8 2 8 -2 8 2 8 -2 8 2 8 -2 8 2 
7 -2 8 2 8 -2 8 2 8 -2 8 2 8 -2 8 2 
8 -2 7 2 8 -2 8 2 8 -2 8 2 8 -2 8 2 
8 -2 7 2 8 -2 4490 6841 300 MP stroke
8 2 8 -2 8 2 8 -2 8 2 8 -2 8 2 7 -2 
8 2 8 -2 8 2 8 -2 8 2 8 -2 8 2 7 -2 
8 2 8 -2 8 2 8 -2 8 2 8 -2 8 2 7 -2 
8 2 8 -2 8 2 8 -2 8 2 8 -2 8 2 8 -2 
7 2 8 -2 8 2 8 -2 8 2 8 -2 8 2 8 -2 
7 2 8 -2 8 2 8 -2 8 2 8 -2 8 2 8 -2 
8 2 7 -2 8 2 8 -2 8 2 8 -2 8 2 8 -2 
8 2 7 -2 8 2 8 -2 8 2 8 -2 8 2 8 -2 
8 2 7 -2 8 2 8 -2 8 2 8 -2 8 2 8 -2 
8 2 8 -2 7 2 8 -2 8 2 8 -2 8 2 8 -2 
8 2 8 -2 7 2 8 -2 8 2 8 -2 8 2 8 -2 
8 2 8 -2 8 2 7 -2 8 2 8 -2 8 2 8 -2 
8 2 8 -2 8 2 7 -2 8 2 8 -2 8 2 8 -2 
8 2 8 -2 8 2 7 -2 8 2 8 -2 8 2 8 -2 
8 2 8 -2 8 2 8 -2 7 2 8 -2 8 2 8 -2 
8 2 8 -2 8 2 8 -2 7 2 8 -2 8 2 8 -2 
8 2 8 -2 8 2 8 -2 8 2 7 -2 8 2 8 -2 
8 2 8 -2 8 2 8 -2 8 2 7 -2 8 2 8 -2 
8 2 8 -2 8 2 8 -2 8 2 7 -2 8 2 8 -2 
8 2 8 -2 8 2 8 -2 8 2 8 -2 7 2 8 -2 
8 2 8 -2 8 2 8 -2 8 2 8 -2 7 2 8 -2 
8 2 8 -2 8 2 8 -2 8 2 8 -2 8 2 7 -2 
8 2 8 -2 8 2 8 -2 8 2 8 -2 8 2 7 -2 
8 2 8 -2 8 2 8 -2 8 2 8 -2 8 2 7 -2 
8 2 8 -2 8 2 8 -2 8 2 8 -2 8 2 8 -2 
7 2 8 -2 8 2 8 -2 8 2 8 -2 8 2 8 -2 
7 2 8 -2 8 2 8 -2 8 2 8 -2 8 2 8 -2 
8 2 7 -2 8 2 8 -2 8 2 8 -2 8 2 8 -2 
8 2 7 -2 8 2 8 -2 8 2 8 -2 8 2 8 -2 
8 2 7 -2 8 2 8 -2 8 2 8 -2 8 2 8 -2 
8 2 8 -2 7 2 8 -2 8 2 8 -2 8 2 8 -2 
8 2 8 -2 7 2 8 -2 8 2 8 -2 8 2 8 -2 
8 2 8 -2 8 2 7 -2 8 2 8 -2 8 2 8 -20 
8 -25 8 -39 8 11 7 -7 8 57 8 45 8 14 8 -15 
8 61 8 8 8 30 7 24 8 29 8 43 8 40 8 41 
8 44 8 41 8 43 8 43 7 43 8 44 8 43 8 44 
8 43 8 43 8 44 8 43 7 43 8 44 8 43 8 44 
8 43 8 43 8 44 2133 5720 300 MP stroke
8 43 8 44 7 43 8 43 8 44 8 43 8 44 8 43 
8 44 8 43 7 43 8 44 8 43 8 44 8 43 8 43 
8 44 8 43 7 44 8 43 8 44 8 43 8 43 8 44 
8 43 8 44 8 43 7 43 8 44 8 43 8 44 8 43 
8 44 8 43 8 43 7 44 8 43 8 44 8 43 8 43 
8 44 8 43 8 44 8 43 7 44 8 43 8 43 8 44 
8 43 8 44 8 43 8 43 7 44 8 43 8 44 8 43 
8 44 8 43 8 43 8 44 7 43 8 44 8 43 8 44 
8 43 8 43 8 44 8 43 8 44 7 43 8 43 8 44 
8 43 8 44 8 43 8 44 8 43 7 43 8 44 8 43 
8 44 8 43 8 43 8 44 8 43 8 44 7 43 8 44 
8 43 8 43 8 44 8 43 8 44 8 43 7 43 8 44 
8 43 8 44 8 43 8 44 8 43 8 43 1329 1292 103 MP stroke
/c10 { 1.000000 0.000000 0.000000 sr} bdef
c10
8 3 8 -3 8 3 8 -3 8 3 8 -3 8 3 8 -3 
7 3 8 -3 8 3 8 -3 8 3 8 -3 8 3 8 -3 
7 3 8 -3 8 3 8 -3 8 3 8 -3 8 3 8 -3 
8 3 7 -3 8 3 8 -3 8 3 8 -3 8 3 8 -3 
8 3 7 -3 8 3 8 -3 8 3 8 -3 8 3 8 -3 
8 3 8 -3 7 3 8 -3 8 3 8 -3 8 3 8 -3 
8 3 8 -3 7 3 8 -3 8 3 8 -3 8 3 8 -3 
8 3 8 -3 7 3 8 -3 8 3 8 -3 8 3 8 -3 
8 3 8 -3 8 3 7 -3 8 3 8 -3 8 3 8 -3 
8 3 8 -3 8 3 7 -3 8 3 8 -3 8 3 8 -3 
8 3 8 -3 8 3 8 -3 7 3 8 -3 8 3 8 -3 
8 3 8 -3 8 3 8 -3 7 3 8 -3 8 3 8 -3 
8 3 8 -3 8 3 8 -3 7 3 8 -3 8 3 8 -3 
8 3 8 -3 8 3 8 -3 8 3 7 -3 8 3 8 -3 
8 3 8 -3 8 3 8 -3 8 3 7 -3 8 3 8 -3 
8 3 8 -3 8 3 8 -3 8 3 8 -3 7 3 8 -3 
8 3 8 -3 8 3 8 -3 8 3 8 -3 7 3 8 -3 
8 3 8 -3 8 3 8 -3 8 3 8 -3 7 3 8 -3 
8 3 8 -3 8 3 8 -3 8 3 8 -3 8 3 7 -3 
8 3 8 -3 8 3 8 -3 8 3 8 -3 8 3 7 -3 
8 3 8 -3 8 3 8 -3 8 3 8 -3 8 3 8 -3 
7 3 8 -3 8 3 8 -3 8 3 8 -3 8 3 8 -3 
7 3 8 -3 8 3 8 -3 8 3 8 -3 8 3 8 -3 
7 3 8 -3 8 3 8 -3 8 3 8 -3 8 3 8 -3 
8 3 7 -3 8 3 8 -3 8 3 8 -3 8 3 8 -3 
8 3 7 -3 8 3 8 -3 8 3 8 -3 8 3 8 -3 
8 3 8 -3 7 3 8 -3 8 3 8 -3 8 3 8 -3 
8 3 8 -3 7 3 8 -3 8 3 8 -3 8 3 8 -3 
8 3 8 -3 7 3 8 -3 8 3 8 -3 8 3 8 -3 
8 3 8 -3 8 3 7 -3 8 3 8 -3 8 3 8 -3 
8 3 8 -3 8 3 7 -3 8 3 8 -3 8 3 8 -3 
8 3 8 -3 8 3 8 -3 7 3 8 -3 8 3 8 -3 
8 3 8 -3 8 3 8 -3 7 3 8 -3 8 3 8 -3 
8 3 8 -3 8 3 8 -3 7 3 8 -3 8 3 8 -3 
8 3 8 -3 8 3 8 -3 8 3 7 -3 8 3 8 -3 
8 3 8 -3 8 3 8 -3 8 3 7 -3 8 3 8 -3 
8 3 8 -3 8 3 8 -3 8 3 8 -3 7 3 8 -3 
8 3 8 -3 8 3 6846 7146 300 MP stroke
8 -3 8 3 8 -3 7 3 8 -3 8 3 8 -3 8 3 
8 -3 8 3 8 -3 7 3 8 -3 8 3 8 -3 8 3 
8 -3 8 3 8 -3 8 3 7 -3 8 3 8 -3 8 3 
8 -3 8 3 8 -3 8 3 7 -3 8 3 8 -3 8 3 
8 -3 8 3 8 -3 8 3 8 -3 7 3 8 -3 8 3 
8 -3 8 3 8 -3 8 3 8 -3 7 3 8 -3 8 3 
8 -3 8 3 8 -3 8 3 8 -3 7 3 8 -3 8 3 
8 -3 8 3 8 -3 8 3 8 -3 8 3 7 -3 8 3 
8 -3 8 3 8 -3 8 3 8 -3 8 3 7 -3 8 3 
8 -3 8 3 8 -3 8 3 8 -3 8 3 8 -3 7 3 
8 -3 8 3 8 -3 8 3 8 -3 8 3 8 -3 7 3 
8 -3 8 3 8 -3 8 3 8 -3 8 3 8 -3 7 3 
8 -3 8 3 8 -3 8 3 8 -3 8 3 8 -3 8 3 
7 -3 8 3 8 -3 8 3 8 -3 8 3 8 -3 8 3 
7 -3 8 3 8 -3 8 3 8 -3 8 3 8 -3 8 3 
8 -3 7 3 8 -3 8 3 8 -3 8 3 8 -3 8 3 
8 -3 7 3 8 -3 8 3 8 -3 8 3 8 -3 8 3 
8 -3 7 3 8 -3 8 3 8 -3 8 3 8 -3 8 3 
8 -3 8 3 7 -3 8 3 8 -3 8 3 8 -3 8 3 
8 -3 8 3 7 -3 8 3 8 -3 8 3 8 -3 8 3 
8 -3 8 3 8 -3 7 3 8 -3 8 3 8 -3 8 3 
8 -3 8 3 8 -3 7 3 8 -3 8 3 8 -3 8 3 
8 -3 8 3 8 -3 7 3 8 -3 8 3 8 -3 8 3 
8 -3 8 3 8 -3 8 3 7 -3 8 3 8 -3 8 3 
8 -3 8 3 8 -3 8 3 7 -3 8 3 8 -3 8 3 
8 -3 8 3 8 -3 8 3 8 -3 7 3 8 -3 8 3 
8 -3 8 3 8 -3 8 3 8 -3 7 3 8 -3 8 3 
8 -3 8 3 8 -3 8 3 8 -3 8 3 7 -3 8 3 
8 -3 8 3 8 -3 8 3 8 -3 8 3 7 -3 8 3 
8 -3 8 3 8 -3 8 3 8 -3 8 3 7 -3 8 3 
8 -3 8 3 8 -3 8 3 8 -3 8 3 8 -3 7 3 
8 -3 8 3 8 -3 8 3 8 -3 8 3 8 -3 7 3 
8 -3 8 3 8 -3 8 3 8 -3 8 3 8 -3 8 3 
7 -3 8 3 8 -3 8 3 8 -3 8 3 8 -3 8 3 
7 -3 8 3 8 -3 8 3 8 -3 8 3 8 -3 8 3 
7 -3 8 3 8 -3 8 3 8 -3 8 3 8 -3 8 3 
8 -3 7 3 8 -3 8 3 8 -3 8 3 8 -3 8 3 
8 -3 7 3 8 -3 4490 7149 300 MP stroke
8 3 8 -3 8 3 8 -3 8 3 8 -3 8 3 7 -3 
8 3 8 -3 8 3 8 -3 8 3 8 -3 8 3 7 -3 
8 3 8 -3 8 3 8 -3 8 3 8 -3 8 3 7 -3 
8 3 8 -3 8 3 8 -3 8 3 8 -3 8 3 8 -3 
7 3 8 -3 8 3 8 -3 8 3 8 -3 8 3 8 -3 
7 3 8 -3 8 3 8 -3 8 3 8 -3 8 3 8 -3 
8 3 7 -3 8 3 8 -3 8 3 8 -3 8 3 8 -3 
8 3 7 -3 8 3 8 -3 8 3 8 -3 8 3 8 -3 
8 3 7 -3 8 3 8 -3 8 3 8 -3 8 3 8 -3 
8 3 8 -3 7 3 8 -3 8 3 8 -3 8 3 8 -3 
8 3 8 -3 7 3 8 -3 8 3 8 -3 8 3 8 -3 
8 3 8 -3 8 3 7 -3 8 3 8 -3 8 3 8 -3 
8 3 8 -3 8 3 7 -3 8 3 8 -3 8 3 8 -3 
8 3 8 -3 8 3 7 -3 8 3 8 -3 8 3 8 -3 
8 3 8 -3 8 3 8 -3 7 3 8 -3 8 3 8 -3 
8 3 8 -3 8 3 8 -3 7 3 8 -3 8 3 8 -3 
8 3 8 -3 8 3 8 -3 8 3 7 -3 8 3 8 -3 
8 3 8 -3 8 3 8 -3 8 3 7 -3 8 3 8 -3 
8 3 8 -3 8 3 8 -3 8 3 7 -3 8 3 8 -3 
8 3 8 -3 8 3 8 -3 8 3 8 -3 7 3 8 -3 
8 3 8 -3 8 3 8 -3 8 3 8 -3 7 3 8 -3 
8 3 8 -3 8 3 8 -3 8 3 8 -3 8 3 7 -3 
8 3 8 -3 8 3 8 -3 8 3 8 -3 8 3 7 -3 
8 3 8 -3 8 3 8 -3 8 3 8 -3 8 3 7 -3 
8 3 8 -3 8 3 8 -3 8 3 8 -3 8 3 8 -3 
7 3 8 -3 8 3 8 -3 8 3 8 -3 8 3 8 -3 
7 3 8 -3 8 3 8 -3 8 3 8 -3 8 3 8 -3 
8 3 7 -3 8 3 8 -3 8 3 8 -3 8 3 8 -3 
8 3 7 -3 8 3 8 -3 8 3 8 -3 8 3 8 -3 
8 3 7 -3 8 3 8 -3 8 3 8 -3 8 3 8 -3 
8 3 8 -3 7 3 8 -3 8 3 8 -3 8 3 8 -3 
8 3 8 -3 7 3 8 -3 8 3 8 -3 8 3 8 -3 
8 3 8 -3 8 3 7 -3 8 3 8 -3 8 3 8 -3 
8 3 8 -3 8 3 7 -3 8 3 8 -3 8 3 8 -3 
8 3 8 -3 8 3 7 -3 8 3 8 -3 8 3 8 -3 
8 3 8 -3 8 3 8 -3 7 3 8 -3 8 3 8 -3 
8 3 8 -3 8 3 8 -3 7 3 8 -3 8 3 8 -3 
8 3 8 -3 8 3 2133 7146 300 MP stroke
8 -3 8 3 7 -3 8 3 8 -3 8 3 8 -3 8 3 
8 -3 8 3 7 -3 8 3 8 -3 8 3 8 -3 8 3 
8 -3 8 3 7 -3 8 3 8 -3 8 3 8 -3 8 3 
8 -3 8 3 8 -3 7 3 8 -3 8 3 8 -3 8 3 
8 -3 8 3 8 -3 7 3 8 -3 8 3 8 -3 8 3 
8 -3 8 3 8 -3 8 3 7 -3 8 3 8 -3 8 3 
8 11 8 85 8 20 8 93 7 64 8 100 8 106 8 113 
8 113 8 112 8 113 8 112 7 113 8 113 8 113 8 113 
8 113 8 113 8 113 8 113 8 113 7 112 8 113 8 113 
8 113 8 113 8 113 8 113 8 113 7 113 8 113 8 113 
8 113 8 112 8 113 8 113 8 113 8 113 7 113 8 113 
8 113 8 113 8 113 8 113 8 113 8 113 7 112 8 113 
8 113 8 113 8 113 8 113 8 113 8 113 1329 1361 103 MP stroke
/c11 { 0.000000 0.750000 0.750000 sr} bdef
c11
8 0 8 0 8 0 8 0 8 0 8 0 8 0 8 0 
7 0 8 0 8 0 8 0 8 0 8 0 8 0 8 0 
7 0 8 0 8 0 8 0 8 0 8 0 8 0 8 0 
8 0 7 0 8 0 8 0 8 0 8 0 8 0 8 0 
8 0 7 0 8 0 8 0 8 0 8 0 8 0 8 0 
8 0 8 0 7 0 8 0 8 0 8 0 8 0 8 0 
8 0 8 0 7 0 8 0 8 0 8 0 8 0 8 0 
8 0 8 0 7 0 8 0 8 0 8 0 8 0 8 0 
8 0 8 0 8 0 7 0 8 0 8 0 8 0 8 0 
8 0 8 0 8 0 7 0 8 0 8 0 8 0 8 0 
8 0 8 0 8 0 8 0 7 0 8 0 8 0 8 0 
8 0 8 0 8 0 8 0 7 0 8 0 8 0 8 0 
8 0 8 0 8 0 8 0 7 0 8 0 8 0 8 0 
8 0 8 0 8 0 8 0 8 0 7 0 8 0 8 0 
8 0 8 0 8 0 8 0 8 0 7 0 8 0 8 0 
8 0 8 0 8 0 8 0 8 0 8 0 7 0 8 0 
8 0 8 0 8 0 8 0 8 0 8 0 7 0 8 0 
8 0 8 0 8 0 8 0 8 0 8 0 7 0 8 0 
8 0 8 0 8 0 8 0 8 0 8 0 8 0 7 0 
8 0 8 0 8 0 8 0 8 0 8 0 8 0 7 0 
8 0 8 0 8 0 8 0 8 0 8 0 8 0 8 0 
7 0 8 0 8 0 8 0 8 0 8 0 8 0 8 0 
7 0 8 0 8 0 8 0 8 0 8 0 8 0 8 0 
7 0 8 0 8 0 8 0 8 0 8 0 8 0 8 0 
8 0 7 0 8 0 8 0 8 0 8 0 8 0 8 0 
8 0 7 0 8 0 8 0 8 0 8 0 8 0 8 0 
8 0 8 0 7 0 8 0 8 0 8 0 8 0 8 0 
8 0 8 0 7 0 8 0 8 0 8 0 8 0 8 0 
8 0 8 0 7 0 8 0 8 0 8 0 8 0 8 0 
8 0 8 0 8 0 7 0 8 0 8 0 8 0 8 0 
8 0 8 0 8 0 7 0 8 0 8 0 8 0 8 0 
8 0 8 0 8 0 8 0 7 0 8 0 8 0 8 0 
8 0 8 0 8 0 8 0 7 0 8 0 8 0 8 0 
8 0 8 0 8 0 8 0 7 0 8 0 8 0 8 0 
8 0 8 0 8 0 8 0 8 0 7 0 8 0 8 0 
8 0 8 0 8 0 8 0 8 0 7 0 8 0 8 0 
8 0 8 0 8 0 8 0 8 0 8 0 7 0 8 0 
8 0 8 0 8 0 6846 7238 300 MP stroke
8 0 8 0 8 0 7 0 8 0 8 0 8 0 8 0 
8 0 8 0 8 0 7 0 8 0 8 0 8 0 8 0 
8 0 8 0 8 0 8 0 7 0 8 0 8 0 8 0 
8 0 8 0 8 0 8 0 7 0 8 0 8 0 8 0 
8 0 8 0 8 0 8 0 8 0 7 0 8 0 8 0 
8 0 8 0 8 0 8 0 8 0 7 0 8 0 8 0 
8 0 8 0 8 0 8 0 8 0 7 0 8 0 8 0 
8 0 8 0 8 0 8 0 8 0 8 0 7 0 8 0 
8 0 8 0 8 0 8 0 8 0 8 0 7 0 8 0 
8 0 8 0 8 0 8 0 8 0 8 0 8 0 7 0 
8 0 8 0 8 0 8 0 8 0 8 0 8 0 7 0 
8 0 8 0 8 0 8 0 8 0 8 0 8 0 7 0 
8 0 8 0 8 0 8 0 8 0 8 0 8 0 8 0 
7 0 8 0 8 0 8 0 8 0 8 0 8 0 8 0 
7 0 8 0 8 0 8 0 8 0 8 0 8 0 8 0 
8 0 7 0 8 0 8 0 8 0 8 0 8 0 8 0 
8 0 7 0 8 0 8 0 8 0 8 0 8 0 8 0 
8 0 7 0 8 0 8 0 8 0 8 0 8 0 8 0 
8 0 8 0 7 0 8 0 8 0 8 0 8 0 8 0 
8 0 8 0 7 0 8 0 8 0 8 0 8 0 8 0 
8 0 8 0 8 0 7 0 8 0 8 0 8 0 8 0 
8 0 8 0 8 0 7 0 8 0 8 0 8 0 8 0 
8 0 8 0 8 0 7 0 8 0 8 0 8 0 8 0 
8 0 8 0 8 0 8 0 7 0 8 0 8 0 8 0 
8 0 8 0 8 0 8 0 7 0 8 0 8 0 8 0 
8 0 8 0 8 0 8 0 8 0 7 0 8 0 8 0 
8 0 8 0 8 0 8 0 8 0 7 0 8 0 8 0 
8 0 8 0 8 0 8 0 8 0 8 0 7 0 8 0 
8 0 8 0 8 0 8 0 8 0 8 0 7 0 8 0 
8 0 8 0 8 0 8 0 8 0 8 0 7 0 8 0 
8 0 8 0 8 0 8 0 8 0 8 0 8 0 7 0 
8 0 8 0 8 0 8 0 8 0 8 0 8 0 7 0 
8 0 8 0 8 0 8 0 8 0 8 0 8 0 8 0 
7 0 8 0 8 0 8 0 8 0 8 0 8 0 8 0 
7 0 8 0 8 0 8 0 8 0 8 0 8 0 8 0 
7 0 8 0 8 0 8 0 8 0 8 0 8 0 8 0 
8 0 7 0 8 0 8 0 8 0 8 0 8 0 8 0 
8 0 7 0 8 0 4490 7238 300 MP stroke
8 0 8 0 8 0 8 0 8 0 8 0 8 0 7 0 
8 0 8 0 8 0 8 0 8 0 8 0 8 0 7 0 
8 0 8 0 8 0 8 0 8 0 8 0 8 0 7 0 
8 0 8 0 8 0 8 0 8 0 8 0 8 0 8 0 
7 0 8 0 8 0 8 0 8 0 8 0 8 0 8 0 
7 0 8 0 8 0 8 0 8 0 8 0 8 0 8 0 
8 0 7 0 8 0 8 0 8 0 8 0 8 0 8 0 
8 0 7 0 8 0 8 0 8 0 8 0 8 0 8 0 
8 0 7 0 8 0 8 0 8 0 8 0 8 0 8 0 
8 0 8 0 7 0 8 0 8 0 8 0 8 0 8 0 
8 0 8 0 7 0 8 0 8 0 8 0 8 0 8 0 
8 0 8 0 8 0 7 0 8 0 8 0 8 0 8 0 
8 0 8 0 8 0 7 0 8 0 8 0 8 0 8 0 
8 0 8 0 8 0 7 0 8 0 8 0 8 0 8 0 
8 0 8 0 8 0 8 0 7 0 8 0 8 0 8 0 
8 0 8 0 8 0 8 0 7 0 8 0 8 0 8 0 
8 0 8 0 8 0 8 0 8 0 7 0 8 0 8 0 
8 0 8 0 8 0 8 0 8 0 7 0 8 0 8 0 
8 0 8 0 8 0 8 0 8 0 7 0 8 0 8 0 
8 0 8 0 8 0 8 0 8 0 8 0 7 0 8 0 
8 0 8 0 8 0 8 0 8 0 8 0 7 0 8 0 
8 0 8 0 8 0 8 0 8 0 8 0 8 0 7 0 
8 0 8 0 8 0 8 0 8 0 8 0 8 0 7 0 
8 0 8 0 8 0 8 0 8 0 8 0 8 0 7 0 
8 0 8 0 8 0 8 0 8 0 8 0 8 0 8 0 
7 0 8 0 8 0 8 0 8 0 8 0 8 0 8 0 
7 0 8 0 8 0 8 0 8 0 8 0 8 0 8 0 
8 0 7 0 8 0 8 0 8 0 8 0 8 0 8 0 
8 0 7 0 8 0 8 0 8 0 8 0 8 0 8 0 
8 0 7 0 8 0 8 0 8 0 8 0 8 0 8 0 
8 0 8 0 7 0 8 0 8 0 8 0 8 0 8 0 
8 0 8 0 7 0 8 0 8 0 8 0 8 0 8 0 
8 0 8 0 8 0 7 0 8 0 8 0 8 0 8 0 
8 0 8 0 8 0 7 0 8 0 8 0 8 0 8 0 
8 0 8 0 8 0 7 0 8 0 8 0 8 0 8 0 
8 0 8 0 8 0 8 0 7 0 8 0 8 0 8 0 
8 0 8 0 8 0 8 0 7 0 8 0 8 0 8 0 
8 0 8 0 8 0 2133 7238 300 MP stroke
8 0 8 0 7 0 8 0 8 0 8 0 8 0 8 0 
8 0 8 0 7 0 8 0 8 0 8 0 8 0 8 0 
8 0 8 0 7 0 8 0 8 0 8 0 8 0 8 0 
8 0 8 0 8 0 7 0 8 0 8 0 8 0 8 0 
8 0 8 0 8 0 7 0 8 0 8 0 8 0 8 0 
8 0 8 0 8 0 8 0 7 0 8 0 8 0 8 0 
8 0 8 0 8 0 8 0 7 0 8 0 8 0 8 0 
8 0 8 0 8 0 8 0 7 0 8 0 8 0 8 0 
8 0 8 0 8 0 8 -21 8 49 7 16 8 74 8 23 
8 -26 8 42 8 -42 8 24 8 -98 7 31 8 -40 8 55 
8 28 8 33 8 155 8 272 8 281 8 285 7 285 8 286 
8 285 8 285 8 285 8 286 8 285 8 285 7 285 8 285 
8 286 8 285 8 285 8 285 8 285 8 286 1329 1533 103 MP stroke
DA
0 sg
8 0 8 0 8 0 8 0 8 0 8 0 8 0 8 0 
7 0 8 0 8 0 8 0 8 0 8 0 8 0 8 0 
7 0 8 0 8 0 8 0 8 0 8 0 8 0 8 0 
8 0 7 0 8 0 8 0 8 0 8 0 8 0 8 0 
8 0 7 0 8 0 8 0 8 0 8 0 8 0 8 0 
8 0 8 0 7 0 8 0 8 0 8 0 8 0 8 0 
8 0 8 0 7 0 8 0 8 0 8 0 8 0 8 0 
8 0 8 0 7 0 8 0 8 0 8 0 8 0 8 0 
8 0 8 0 8 0 7 0 8 0 8 0 8 0 8 0 
8 0 8 0 8 0 7 0 8 0 8 0 8 0 8 0 
8 0 8 0 8 0 8 0 7 0 8 0 8 0 8 0 
8 0 8 0 8 0 8 0 7 0 8 0 8 0 8 0 
8 0 8 0 8 0 8 0 7 0 8 0 8 0 8 0 
8 0 8 0 8 0 8 0 8 0 7 0 8 0 8 0 
8 0 8 0 8 0 8 0 8 0 7 0 8 0 8 0 
8 0 8 0 8 0 8 0 8 0 8 0 7 0 8 0 
8 0 8 0 8 0 8 0 8 0 8 0 7 0 8 0 
8 0 8 0 8 0 8 0 8 0 8 0 7 0 8 0 
8 0 8 0 8 0 8 0 8 0 8 0 8 0 7 0 
8 0 8 0 8 0 8 0 8 0 8 0 8 0 7 0 
8 0 8 0 8 0 8 0 8 0 8 0 8 0 8 0 
7 0 8 0 8 0 8 0 8 0 8 0 8 0 8 0 
7 0 8 0 8 0 8 0 8 0 8 0 8 0 8 0 
7 0 8 0 8 0 8 0 8 0 8 0 8 0 8 0 
8 0 7 0 8 0 8 0 8 0 8 0 8 0 8 0 
8 0 7 0 8 0 8 0 8 0 8 0 8 0 8 0 
8 0 8 0 7 0 8 0 8 0 8 0 8 0 8 0 
8 0 8 0 7 0 8 0 8 0 8 0 8 0 8 0 
8 0 8 0 7 0 8 0 8 0 8 0 8 0 8 0 
8 0 8 0 8 0 7 0 8 0 8 0 8 0 8 0 
8 0 8 0 8 0 7 0 8 0 8 0 8 0 8 0 
8 0 8 0 8 0 8 0 7 0 8 0 8 0 8 0 
8 0 8 0 8 0 8 0 7 0 8 0 8 0 8 0 
8 0 8 0 8 0 8 0 7 0 8 0 8 0 8 0 
8 0 8 0 8 0 8 0 8 0 7 0 8 0 8 0 
8 0 8 0 8 0 8 0 8 0 7 0 8 0 8 0 
8 0 8 0 8 0 8 0 8 0 8 0 7 0 8 0 
8 0 8 0 8 0 6846 6939 300 MP stroke
8 0 8 0 8 0 7 0 8 0 8 0 8 0 8 0 
8 0 8 0 8 0 7 0 8 0 8 0 8 0 8 0 
8 0 8 0 8 0 8 0 7 0 8 0 8 0 8 0 
8 0 8 0 8 0 8 0 7 0 8 0 8 0 8 0 
8 0 8 0 8 0 8 0 8 0 7 0 8 0 8 0 
8 0 8 0 8 0 8 0 8 0 7 0 8 0 8 0 
8 0 8 0 8 0 8 0 8 0 7 0 8 0 8 0 
8 0 8 0 8 0 8 0 8 0 8 0 7 0 8 0 
8 0 8 0 8 0 8 0 8 0 8 0 7 0 8 0 
8 0 8 0 8 0 8 0 8 0 8 0 8 0 7 0 
8 0 8 0 8 0 8 0 8 0 8 0 8 0 7 0 
8 0 8 0 8 0 8 0 8 0 8 0 8 0 7 0 
8 0 8 0 8 0 8 0 8 0 8 0 8 0 8 0 
7 0 8 0 8 0 8 0 8 0 8 0 8 0 8 0 
7 0 8 0 8 0 8 0 8 0 8 0 8 0 8 0 
8 0 7 0 8 0 8 0 8 0 8 0 8 0 8 0 
8 0 7 0 8 0 8 0 8 0 8 0 8 0 8 0 
8 0 7 -2 8 -16 8 -54 8 11 8 -24 8 9 8 -15 
8 89 8 2 7 -40 8 20 8 22 8 -66 8 74 8 -50 
8 4 8 66 7 -36 8 2 8 -16 8 70 8 -39 8 -8 
8 45 8 -9 8 22 7 -25 8 32 8 5 8 12 8 0 
8 11 8 21 8 -13 7 17 8 9 8 23 8 6 8 2 
8 1 8 15 8 14 7 13 8 6 8 10 8 0 8 22 
8 5 8 5 8 16 8 3 7 18 8 7 8 13 8 7 
8 9 8 8 8 13 8 9 7 8 8 10 8 9 8 10 
8 13 8 8 8 11 8 10 8 11 7 11 8 8 8 10 
8 12 8 9 8 10 8 11 8 9 7 11 8 9 8 11 
8 11 8 9 8 10 8 11 8 9 8 11 7 9 8 10 
8 11 8 10 8 10 8 10 8 11 8 9 7 11 8 10 
8 10 8 10 8 10 8 10 8 10 8 11 7 10 8 10 
8 10 8 10 8 10 8 10 8 10 8 10 8 11 7 10 
8 10 8 10 8 10 8 10 8 10 8 10 8 11 7 10 
8 10 8 10 8 10 8 10 8 10 8 11 8 10 8 10 
7 10 8 10 8 10 8 10 8 10 8 11 8 10 8 10 
7 10 8 10 8 10 8 10 8 11 8 10 8 10 8 10 
7 10 8 10 8 10 8 10 8 11 8 10 8 10 8 10 
8 10 7 10 8 10 8 11 8 10 8 10 8 10 8 10 
8 10 7 10 8 10 4490 5543 300 MP stroke
8 11 8 10 8 10 8 10 8 10 8 10 8 10 7 11 
8 10 8 10 8 10 8 10 8 10 8 10 8 10 7 11 
8 10 8 10 8 10 8 10 8 10 8 10 8 11 7 10 
8 10 8 10 8 10 8 10 8 10 8 10 8 11 8 10 
7 10 8 10 8 10 8 10 8 10 8 11 8 10 8 10 
7 10 8 10 8 10 8 10 8 10 8 11 8 10 8 10 
8 10 7 10 8 10 8 10 8 11 8 10 8 10 8 10 
8 10 7 10 8 10 8 10 8 11 8 10 8 10 8 10 
8 10 7 10 8 10 8 11 8 10 8 10 8 10 8 10 
8 10 8 10 7 10 8 11 8 10 8 10 8 10 8 10 
8 10 8 10 7 11 8 10 8 10 8 10 8 10 8 10 
8 10 8 10 8 11 7 10 8 10 8 10 8 10 8 10 
8 10 8 11 8 10 7 10 8 10 8 10 8 10 8 10 
8 10 8 11 8 10 7 10 8 10 8 10 8 10 8 10 
8 11 8 10 8 10 8 10 7 10 8 10 8 10 8 10 
8 11 8 10 8 10 8 10 7 10 8 10 8 10 8 11 
8 10 8 10 8 10 8 10 8 10 7 10 8 10 8 11 
8 10 8 10 8 10 8 10 8 10 7 10 8 11 8 10 
8 10 8 10 8 10 8 10 8 10 7 10 8 11 8 10 
8 10 8 10 8 10 8 10 8 10 8 11 7 10 8 10 
8 10 8 10 8 10 8 10 8 10 8 11 7 10 8 10 
8 10 8 10 8 10 8 10 8 11 8 10 8 10 7 10 
8 10 8 10 8 10 8 10 8 11 8 10 8 10 7 10 
8 10 8 10 8 10 8 11 8 10 8 10 8 10 7 10 
8 10 8 10 8 10 8 11 8 10 8 10 8 10 8 10 
7 10 8 10 8 11 8 10 8 10 8 10 8 10 8 10 
7 10 8 10 8 11 8 10 8 10 8 10 8 10 8 10 
8 10 7 11 8 10 8 10 8 10 8 10 8 10 8 10 
8 10 7 11 8 10 8 10 8 10 8 10 8 10 8 10 
8 11 7 10 8 10 8 10 8 10 8 10 8 10 8 10 
8 11 8 10 7 10 8 10 8 10 8 10 8 10 8 11 
8 10 8 10 7 10 8 10 8 10 8 10 8 10 8 11 
8 10 8 10 8 10 7 10 8 10 8 10 8 11 8 10 
8 10 8 10 8 10 7 10 8 10 8 10 8 11 8 10 
8 10 8 10 8 10 7 10 8 10 8 11 8 10 8 10 
8 10 8 10 8 10 8 10 7 10 8 11 8 10 8 10 
8 10 8 10 8 10 8 10 7 11 8 10 8 10 8 10 
8 10 8 10 8 10 2133 2513 300 MP stroke
8 10 8 11 7 10 8 10 8 10 8 10 8 10 8 10 
8 11 8 10 7 10 8 10 8 10 8 10 8 10 8 10 
8 11 8 10 7 10 8 10 8 10 8 10 8 10 8 11 
8 10 8 10 8 10 7 10 8 10 8 10 8 10 8 11 
8 10 8 10 8 10 7 10 8 10 8 10 8 11 8 10 
8 10 8 10 8 10 8 10 7 10 8 10 8 11 8 10 
8 10 8 10 8 10 8 10 7 10 8 11 8 10 8 10 
8 10 8 10 8 10 8 10 7 10 8 11 8 10 8 10 
8 10 8 10 8 10 8 10 8 11 7 10 8 10 8 10 
8 10 8 10 8 10 8 10 8 11 7 10 8 10 8 10 
8 10 8 10 8 10 8 11 8 10 8 10 7 10 8 10 
8 10 8 10 8 10 8 11 8 10 8 10 7 10 8 10 
8 10 8 10 8 11 8 10 8 10 8 10 1329 1479 103 MP stroke
gr

DA
%%IncludeResource: font Helvetica
/Helvetica /WindowsLatin1Encoding 120 FMSR

5048 7661 mt 
(iteration) s
 937 4080 mt  -90 rotate
(||r||) s
90 rotate
4159  526 mt 
(Residual convergence of weighted Jacobi) s
1305 7416 mt 
( ) s
9187  663 mt 
( ) s
SO
1 sg
0 844 1347 0 0 -844 7797 1525 4 MP
PP
-1347 0 0 844 1347 0 0 -844 7797 1525 5 MP stroke
4 w
DO
SO
6 w
0 sg
7797  681 mt 9144  681 L
7797 1525 mt 9144 1525 L
9144 1525 mt 9144  681 L
7797 1525 mt 7797  681 L
7797 1525 mt 9144 1525 L
7797 1525 mt 7797  681 L
7797  681 mt 9144  681 L
7797 1525 mt 9144 1525 L
9144 1525 mt 9144  681 L
7797 1525 mt 7797  681 L
8264  825 mt 
(Au\(x\) = sin\() s
%%IncludeResource: font Symbol
/Symbol /WindowsLatin1Encoding 120 FMSR

8877  825 mt 
(p) s
%%IncludeResource: font Helvetica
/Helvetica /WindowsLatin1Encoding 120 FMSR

8942  825 mt 
(x\)) s
gs 7797 681 1348 845 rc
c8
360 0 7868 781 2 MP stroke
gr

c8
0 sg
8264  988 mt 
(Au\(x\) = sin\(2) s
%%IncludeResource: font Symbol
/Symbol /WindowsLatin1Encoding 120 FMSR

8943  988 mt 
(p) s
%%IncludeResource: font Helvetica
/Helvetica /WindowsLatin1Encoding 120 FMSR

9008  988 mt 
(x\)) s
gs 7797 681 1348 845 rc
c9
360 0 7868 944 2 MP stroke
gr

c9
0 sg
8264 1151 mt 
(Au\(x\) = sin\(3) s
%%IncludeResource: font Symbol
/Symbol /WindowsLatin1Encoding 120 FMSR

8943 1151 mt 
(p) s
%%IncludeResource: font Helvetica
/Helvetica /WindowsLatin1Encoding 120 FMSR

9008 1151 mt 
(x\)) s
gs 7797 681 1348 845 rc
c10
360 0 7868 1107 2 MP stroke
gr

c10
0 sg
8264 1314 mt 
(Au\(x\) = sin\(4) s
%%IncludeResource: font Symbol
/Symbol /WindowsLatin1Encoding 120 FMSR

8943 1314 mt 
(p) s
%%IncludeResource: font Helvetica
/Helvetica /WindowsLatin1Encoding 120 FMSR

9008 1314 mt 
(x\)) s
gs 7797 681 1348 845 rc
c11
360 0 7868 1269 2 MP stroke
gr

c11
0 sg
8264 1471 mt 
(Au\(x\) = x\(1-x\)) s
gs 7797 681 1348 845 rc
DA
360 0 7868 1428 2 MP stroke
SO
gr


end %%Color Dict

eplot
%%EndObject

epage
end

showpage

%%Trailer
%%EOF
