%!PS-Adobe-3.0 EPSF-3.0
%%Creator: MATLAB, The Mathworks, Inc. Version 7.4.0.287 (R2007a). Operating System: Microsoft Windows XP.
%%Title: D:\Work\Courses\Iteratieve methoden voor het oplossen van stelsels en eigenwaardeproblemen\trunk\oefeningen\oef_2\vraag_3d_rat.eps
%%CreationDate: 03/05/2008  10:19:23
%%DocumentNeededFonts: Helvetica
%%DocumentProcessColors: Cyan Magenta Yellow Black
%%LanguageLevel: 2
%%Pages: 1
%%BoundingBox:  -126    75   721   766
%%EndComments

%%BeginProlog
% MathWorks dictionary
/MathWorks 160 dict begin
% definition operators
/bdef {bind def} bind def
/ldef {load def} bind def
/xdef {exch def} bdef
/xstore {exch store} bdef
% operator abbreviations
/c  /clip ldef
/cc /concat ldef
/cp /closepath ldef
/gr /grestore ldef
/gs /gsave ldef
/mt /moveto ldef
/np /newpath ldef
/cm /currentmatrix ldef
/sm /setmatrix ldef
/rm /rmoveto ldef
/rl /rlineto ldef
/s {show newpath} bdef
/sc {setcmykcolor} bdef
/sr /setrgbcolor ldef
/sg /setgray ldef
/w /setlinewidth ldef
/j /setlinejoin ldef
/cap /setlinecap ldef
/rc {rectclip} bdef
/rf {rectfill} bdef
% page state control
/pgsv () def
/bpage {/pgsv save def} bdef
/epage {pgsv restore} bdef
/bplot /gsave ldef
/eplot {stroke grestore} bdef
% orientation switch
/portraitMode 0 def /landscapeMode 1 def /rotateMode 2 def
% coordinate system mappings
/dpi2point 0 def
% font control
/FontSize 0 def
/FMS {/FontSize xstore findfont [FontSize 0 0 FontSize neg 0 0]
  makefont setfont} bdef
/ISOLatin1Encoding where {pop /WindowsLatin1Encoding 256 array bdef
ISOLatin1Encoding WindowsLatin1Encoding copy pop
/.notdef/.notdef/quotesinglbase/florin/quotedblbase/ellipsis/dagger
/daggerdbl/circumflex/perthousand/Scaron/guilsinglleft/OE/.notdef/.notdef
/.notdef/.notdef/quoteleft/quoteright/quotedblleft/quotedblright/bullet
/endash/emdash/tilde/trademark/scaron/guilsinglright/oe/.notdef/.notdef
/Ydieresis WindowsLatin1Encoding 128 32 getinterval astore pop}
{/WindowsLatin1Encoding StandardEncoding bdef} ifelse
/reencode {exch dup where {pop load} {pop StandardEncoding} ifelse
  exch dup 3 1 roll findfont dup length dict begin
  { 1 index /FID ne {def}{pop pop} ifelse } forall
  /Encoding exch def currentdict end definefont pop} bdef
/isroman {findfont /CharStrings get /Agrave known} bdef
/FMSR {3 1 roll 1 index dup isroman {reencode} {pop pop} ifelse
  exch FMS} bdef
/csm {1 dpi2point div -1 dpi2point div scale neg translate
 dup landscapeMode eq {pop -90 rotate}
  {rotateMode eq {90 rotate} if} ifelse} bdef
% line types: solid, dotted, dashed, dotdash
/SO { [] 0 setdash } bdef
/DO { [.5 dpi2point mul 4 dpi2point mul] 0 setdash } bdef
/DA { [6 dpi2point mul] 0 setdash } bdef
/DD { [.5 dpi2point mul 4 dpi2point mul 6 dpi2point mul 4
  dpi2point mul] 0 setdash } bdef
% macros for lines and objects
/L {lineto stroke} bdef
/MP {3 1 roll moveto 1 sub {rlineto} repeat} bdef
/AP {{rlineto} repeat} bdef
/PDlw -1 def
/W {/PDlw currentlinewidth def setlinewidth} def
/PP {closepath eofill} bdef
/DP {closepath stroke} bdef
/MR {4 -2 roll moveto dup  0 exch rlineto exch 0 rlineto
  neg 0 exch rlineto closepath} bdef
/FR {MR stroke} bdef
/PR {MR fill} bdef
/L1i {{currentfile picstr readhexstring pop} image} bdef
/tMatrix matrix def
/MakeOval {newpath tMatrix currentmatrix pop translate scale
0 0 1 0 360 arc tMatrix setmatrix} bdef
/FO {MakeOval stroke} bdef
/PO {MakeOval fill} bdef
/PD {currentlinewidth 2 div 0 360 arc fill
   PDlw -1 eq not {PDlw w /PDlw -1 def} if} def
/FA {newpath tMatrix currentmatrix pop translate scale
  0 0 1 5 -2 roll arc tMatrix setmatrix stroke} bdef
/PA {newpath tMatrix currentmatrix pop	translate 0 0 moveto scale
  0 0 1 5 -2 roll arc closepath tMatrix setmatrix fill} bdef
/FAn {newpath tMatrix currentmatrix pop translate scale
  0 0 1 5 -2 roll arcn tMatrix setmatrix stroke} bdef
/PAn {newpath tMatrix currentmatrix pop translate 0 0 moveto scale
  0 0 1 5 -2 roll arcn closepath tMatrix setmatrix fill} bdef
/vradius 0 def /hradius 0 def /lry 0 def
/lrx 0 def /uly 0 def /ulx 0 def /rad 0 def
/MRR {/vradius xdef /hradius xdef /lry xdef /lrx xdef /uly xdef
  /ulx xdef newpath tMatrix currentmatrix pop ulx hradius add uly
  vradius add translate hradius vradius scale 0 0 1 180 270 arc 
  tMatrix setmatrix lrx hradius sub uly vradius add translate
  hradius vradius scale 0 0 1 270 360 arc tMatrix setmatrix
  lrx hradius sub lry vradius sub translate hradius vradius scale
  0 0 1 0 90 arc tMatrix setmatrix ulx hradius add lry vradius sub
  translate hradius vradius scale 0 0 1 90 180 arc tMatrix setmatrix
  closepath} bdef
/FRR {MRR stroke } bdef
/PRR {MRR fill } bdef
/MlrRR {/lry xdef /lrx xdef /uly xdef /ulx xdef /rad lry uly sub 2 div def
  newpath tMatrix currentmatrix pop ulx rad add uly rad add translate
  rad rad scale 0 0 1 90 270 arc tMatrix setmatrix lrx rad sub lry rad
  sub translate rad rad scale 0 0 1 270 90 arc tMatrix setmatrix
  closepath} bdef
/FlrRR {MlrRR stroke } bdef
/PlrRR {MlrRR fill } bdef
/MtbRR {/lry xdef /lrx xdef /uly xdef /ulx xdef /rad lrx ulx sub 2 div def
  newpath tMatrix currentmatrix pop ulx rad add uly rad add translate
  rad rad scale 0 0 1 180 360 arc tMatrix setmatrix lrx rad sub lry rad
  sub translate rad rad scale 0 0 1 0 180 arc tMatrix setmatrix
  closepath} bdef
/FtbRR {MtbRR stroke } bdef
/PtbRR {MtbRR fill } bdef
/stri 6 array def /dtri 6 array def
/smat 6 array def /dmat 6 array def
/tmat1 6 array def /tmat2 6 array def /dif 3 array def
/asub {/ind2 exch def /ind1 exch def dup dup
  ind1 get exch ind2 get sub exch } bdef
/tri_to_matrix {
  2 0 asub 3 1 asub 4 0 asub 5 1 asub
  dup 0 get exch 1 get 7 -1 roll astore } bdef
/compute_transform {
  dmat dtri tri_to_matrix tmat1 invertmatrix 
  smat stri tri_to_matrix tmat2 concatmatrix } bdef
/ds {stri astore pop} bdef
/dt {dtri astore pop} bdef
/db {2 copy /cols xdef /rows xdef mul dup 3 mul string
  currentfile 
  3 index 0 eq {/ASCIIHexDecode filter}
  {/ASCII85Decode filter 3 index 2 eq {/RunLengthDecode filter} if }
  ifelse exch readstring pop
  dup 0 3 index getinterval /rbmap xdef
  dup 2 index dup getinterval /gbmap xdef
  1 index dup 2 mul exch getinterval /bbmap xdef pop pop}bdef
/it {gs np dtri aload pop moveto lineto lineto cp c
  cols rows 8 compute_transform 
  rbmap gbmap bbmap true 3 colorimage gr}bdef
/il {newpath moveto lineto stroke}bdef
currentdict end def
%%EndProlog

%%BeginSetup
MathWorks begin

0 cap

end
%%EndSetup

%%Page: 1 1
%%BeginPageSetup
%%PageBoundingBox:  -126    75   721   766
MathWorks begin
bpage
%%EndPageSetup

%%BeginObject: obj1
bplot

/dpi2point 12 def
portraitMode -1512 9192 csm

    0     0 10169  8284 rc
85 dict begin %Colortable dictionary
/c0 { 0.000000 0.000000 0.000000 sr} bdef
/c1 { 1.000000 1.000000 1.000000 sr} bdef
/c2 { 0.900000 0.000000 0.000000 sr} bdef
/c3 { 0.000000 0.820000 0.000000 sr} bdef
/c4 { 0.000000 0.000000 0.800000 sr} bdef
/c5 { 0.910000 0.820000 0.320000 sr} bdef
/c6 { 1.000000 0.260000 0.820000 sr} bdef
/c7 { 0.000000 0.820000 0.820000 sr} bdef
c0
1 j
1 sg
   0    0 10170 8285 rf
6 w
0 6752 7881 0 0 -6752 1322 7373 4 MP
PP
-7881 0 0 6752 7881 0 0 -6752 1322 7373 5 MP stroke
4 w
DO
0 sg
1322 7373 mt 1322  621 L
1322  621 mt 1322  621 L
2110 7373 mt 2110  621 L
2110  621 mt 2110  621 L
2898 7373 mt 2898  621 L
2898  621 mt 2898  621 L
3686 7373 mt 3686  621 L
3686  621 mt 3686  621 L
4474 7373 mt 4474  621 L
4474  621 mt 4474  621 L
5262 7373 mt 5262  621 L
5262  621 mt 5262  621 L
6050 7373 mt 6050  621 L
6050  621 mt 6050  621 L
6838 7373 mt 6838  621 L
6838  621 mt 6838  621 L
7626 7373 mt 7626  621 L
7626  621 mt 7626  621 L
8414 7373 mt 8414  621 L
8414  621 mt 8414  621 L
9203 7373 mt 9203  621 L
9203  621 mt 9203  621 L
1322 7373 mt 9203 7373 L
9203 7373 mt 9203 7373 L
1322 6697 mt 9203 6697 L
9203 6697 mt 9203 6697 L
1322 6022 mt 9203 6022 L
9203 6022 mt 9203 6022 L
1322 5347 mt 9203 5347 L
9203 5347 mt 9203 5347 L
1322 4672 mt 9203 4672 L
9203 4672 mt 9203 4672 L
1322 3997 mt 9203 3997 L
9203 3997 mt 9203 3997 L
1322 3321 mt 9203 3321 L
9203 3321 mt 9203 3321 L
1322 2646 mt 9203 2646 L
9203 2646 mt 9203 2646 L
1322 1971 mt 9203 1971 L
9203 1971 mt 9203 1971 L
1322 1296 mt 9203 1296 L
9203 1296 mt 9203 1296 L
1322  621 mt 9203  621 L
9203  621 mt 9203  621 L
SO
6 w
1322  621 mt 9203  621 L
1322 7373 mt 9203 7373 L
9203 7373 mt 9203  621 L
1322 7373 mt 1322  621 L
1322 7373 mt 9203 7373 L
1322 7373 mt 1322  621 L
1322 7373 mt 1322 7294 L
1322  621 mt 1322  699 L
%%IncludeResource: font Helvetica
/Helvetica /WindowsLatin1Encoding 120 FMSR

1289 7518 mt 
(0) s
2110 7373 mt 2110 7294 L
2110  621 mt 2110  699 L
2010 7518 mt 
(100) s
2898 7373 mt 2898 7294 L
2898  621 mt 2898  699 L
2798 7518 mt 
(200) s
3686 7373 mt 3686 7294 L
3686  621 mt 3686  699 L
3586 7518 mt 
(300) s
4474 7373 mt 4474 7294 L
4474  621 mt 4474  699 L
4374 7518 mt 
(400) s
5262 7373 mt 5262 7294 L
5262  621 mt 5262  699 L
5162 7518 mt 
(500) s
6050 7373 mt 6050 7294 L
6050  621 mt 6050  699 L
5950 7518 mt 
(600) s
6838 7373 mt 6838 7294 L
6838  621 mt 6838  699 L
6738 7518 mt 
(700) s
7626 7373 mt 7626 7294 L
7626  621 mt 7626  699 L
7526 7518 mt 
(800) s
8414 7373 mt 8414 7294 L
8414  621 mt 8414  699 L
8314 7518 mt 
(900) s
9203 7373 mt 9203 7294 L
9203  621 mt 9203  699 L
9070 7518 mt 
(1000) s
1322 7373 mt 1400 7373 L
9203 7373 mt 9124 7373 L
1221 7417 mt 
(0) s
1322 6697 mt 1400 6697 L
9203 6697 mt 9124 6697 L
1121 6741 mt 
(0.2) s
1322 6022 mt 1400 6022 L
9203 6022 mt 9124 6022 L
1121 6066 mt 
(0.4) s
1322 5347 mt 1400 5347 L
9203 5347 mt 9124 5347 L
1121 5391 mt 
(0.6) s
1322 4672 mt 1400 4672 L
9203 4672 mt 9124 4672 L
1121 4716 mt 
(0.8) s
1322 3997 mt 1400 3997 L
9203 3997 mt 9124 3997 L
1221 4041 mt 
(1) s
1322 3321 mt 1400 3321 L
9203 3321 mt 9124 3321 L
1121 3365 mt 
(1.2) s
1322 2646 mt 1400 2646 L
9203 2646 mt 9124 2646 L
1121 2690 mt 
(1.4) s
1322 1971 mt 1400 1971 L
9203 1971 mt 9124 1971 L
1121 2015 mt 
(1.6) s
1322 1296 mt 1400 1296 L
9203 1296 mt 9124 1296 L
1121 1340 mt 
(1.8) s
1322  621 mt 1400  621 L
9203  621 mt 9124  621 L
1221  665 mt 
(2) s
1322  621 mt 9203  621 L
1322 7373 mt 9203 7373 L
9203 7373 mt 9203  621 L
1322 7373 mt 1322  621 L
gs 1322 621 7882 6753 rc
/c8 { 0.000000 0.000000 1.000000 sr} bdef
c8
8 0 8 0 8 0 8 0 8 0 8 0 8 0 8 0 
7 0 8 0 8 0 8 0 8 0 8 0 8 0 8 0 
7 0 8 0 8 0 8 0 8 0 8 0 8 0 8 0 
8 0 7 0 8 0 8 0 8 0 8 0 8 0 8 0 
8 0 7 0 8 0 8 0 8 0 8 0 8 0 8 0 
8 0 8 0 7 0 8 0 8 0 8 0 8 0 8 0 
8 0 8 0 7 0 8 0 8 0 8 0 8 0 8 0 
8 0 8 0 7 0 8 0 8 0 8 0 8 0 8 0 
8 0 8 0 8 0 7 0 8 0 8 0 8 0 8 0 
8 0 8 0 8 0 7 0 8 0 8 0 8 0 8 0 
8 0 8 0 8 0 8 0 7 0 8 0 8 0 8 0 
8 0 8 0 8 0 8 0 7 0 8 0 8 0 8 0 
8 0 8 0 8 0 8 0 7 0 8 0 8 0 8 0 
8 0 8 0 8 0 8 0 8 0 7 0 8 0 8 0 
8 0 8 0 8 0 8 0 8 0 7 0 8 0 8 0 
8 0 8 0 8 0 8 0 8 0 8 0 7 0 8 0 
8 0 8 0 8 0 8 0 8 0 8 0 7 0 8 0 
8 0 8 0 8 0 8 0 8 0 8 0 7 0 8 0 
8 0 8 0 8 0 8 0 8 0 8 0 8 0 7 0 
8 0 8 0 8 0 8 0 8 0 8 0 8 0 7 0 
8 0 8 0 8 0 8 0 8 0 8 0 8 0 8 0 
7 0 8 0 8 0 8 0 8 0 8 0 8 0 8 0 
7 0 8 0 8 0 8 0 8 0 8 0 8 0 8 0 
7 0 8 0 8 0 8 0 8 0 8 0 8 0 8 0 
8 0 7 0 8 0 8 0 8 0 8 0 8 0 8 0 
8 0 7 0 8 0 8 0 8 0 8 0 8 0 8 0 
8 0 8 0 7 0 8 0 8 0 8 0 8 0 8 0 
8 0 8 0 7 0 8 0 8 0 8 0 8 0 8 0 
8 0 8 0 7 0 8 0 8 0 8 0 8 0 8 0 
8 0 8 0 8 0 7 0 8 0 8 0 8 0 8 0 
8 0 8 0 8 0 7 0 8 0 8 0 8 0 8 0 
8 0 8 0 8 0 8 0 7 0 8 0 8 0 8 0 
8 0 8 0 8 0 8 0 7 0 8 0 8 0 8 0 
8 0 8 0 8 0 8 0 7 0 8 0 8 0 8 0 
8 0 8 0 8 0 8 0 8 0 7 0 8 0 8 0 
8 0 8 0 8 0 8 0 8 0 7 0 8 0 8 0 
8 0 8 0 8 0 8 0 8 0 8 0 7 0 8 0 
8 0 8 0 8 0 6846 3997 300 MP stroke
8 0 8 0 8 0 7 0 8 0 8 0 8 0 8 0 
8 0 8 0 8 0 7 0 8 0 8 0 8 0 8 0 
8 0 8 0 8 0 8 0 7 0 8 0 8 0 8 0 
8 0 8 0 8 0 8 0 7 0 8 0 8 0 8 0 
8 0 8 0 8 0 8 0 8 0 7 0 8 0 8 0 
8 0 8 0 8 0 8 0 8 0 7 0 8 0 8 0 
8 0 8 0 8 0 8 0 8 0 7 0 8 0 8 0 
8 0 8 0 8 0 8 0 8 0 8 0 7 0 8 0 
8 0 8 0 8 0 8 0 8 0 8 0 7 0 8 0 
8 0 8 0 8 0 8 0 8 0 8 0 8 0 7 0 
8 0 8 0 8 0 8 0 8 0 8 0 8 0 7 0 
8 0 8 0 8 0 8 0 8 0 8 0 8 0 7 0 
8 0 8 0 8 0 8 0 8 0 8 0 8 0 8 0 
7 0 8 0 8 0 8 0 8 0 8 0 8 0 8 0 
7 0 8 0 8 0 8 0 8 0 8 0 8 0 8 0 
8 0 7 0 8 0 8 0 8 0 8 0 8 0 8 0 
8 0 7 0 8 0 8 0 8 0 8 0 8 0 8 0 
8 0 7 0 8 0 8 0 8 0 8 0 8 0 8 0 
8 -514 8 2897 7 -2997 8 614 8 135 8 624 8 -2263 8 2462 
8 -1456 8 -151 7 933 8 -187 8 354 8 -1026 8 843 8 -535 
8 -74 8 460 8 -895 7 24 8 1536 8 -866 8 -57 8 -357 
8 493 8 -84 8 -236 7 617 8 -762 8 196 8 59 8 121 
8 -198 8 166 8 -8 7 -153 8 55 8 25 8 -128 8 181 
8 114 8 -257 8 150 8 40 7 -175 8 85 8 -25 8 -15 
8 28 8 50 8 -66 8 74 7 -138 8 84 8 64 8 -65 
8 -5 8 -24 8 50 8 -40 8 21 7 -24 8 23 8 6 
8 -19 8 45 8 -24 8 -24 8 3 7 21 8 -3 8 -1 
8 -11 8 17 8 -23 8 12 8 2 8 3 7 -6 8 8 
8 -6 8 -9 8 14 8 -2 8 -9 8 7 7 1 8 2 
8 -10 8 5 8 4 8 -4 8 0 8 3 7 -5 8 7 
8 -5 8 2 8 -2 8 5 8 -6 8 -1 8 7 7 -5 
8 0 8 0 8 0 8 2 8 -1 8 0 8 -1 7 3 
8 -3 8 1 8 1 8 -2 8 2 8 -3 8 3 8 -1 
7 0 8 0 8 0 8 0 8 0 8 0 8 0 8 0 
7 -1 8 2 8 -2 8 1 8 0 8 0 8 0 8 0 
7 0 8 0 8 0 8 0 8 0 8 0 8 0 8 0 
8 0 7 0 8 0 8 0 8 0 8 0 8 0 8 0 
8 0 7 0 8 0 4490 4200 300 MP stroke
8 0 8 0 8 0 8 0 8 0 8 0 8 0 7 0 
8 0 8 0 8 0 8 0 8 0 8 0 8 0 7 0 
8 0 8 0 8 0 8 0 8 0 8 0 8 0 7 0 
8 0 8 0 8 0 8 0 8 0 8 0 8 0 8 0 
7 0 8 0 8 0 8 0 8 0 8 0 8 0 8 0 
7 0 8 0 8 0 8 0 8 0 8 0 8 0 8 0 
8 0 7 0 8 0 8 0 8 0 8 0 8 0 8 0 
8 0 7 0 8 0 8 0 8 0 8 0 8 0 8 0 
8 0 7 0 8 0 8 0 8 0 8 0 8 0 8 0 
8 0 8 0 7 0 8 0 8 0 8 0 8 0 8 0 
8 0 8 0 7 0 8 0 8 0 8 0 8 0 8 0 
8 0 8 0 8 0 7 0 8 0 8 0 8 0 8 0 
8 0 8 0 8 0 7 0 8 0 8 0 8 0 8 0 
8 0 8 0 8 0 7 0 8 0 8 0 8 0 8 0 
8 0 8 0 8 0 8 0 7 0 8 0 8 0 8 0 
8 0 8 0 8 0 8 0 7 0 8 0 8 0 8 0 
8 0 8 0 8 0 8 0 8 0 7 0 8 0 8 0 
8 0 8 0 8 0 8 0 8 0 7 0 8 0 8 0 
8 0 8 0 8 0 8 0 8 0 7 0 8 0 8 0 
8 0 8 0 8 0 8 0 8 0 8 0 7 0 8 0 
8 0 8 0 8 0 8 0 8 0 8 0 7 0 8 0 
8 0 8 0 8 0 8 0 8 0 8 0 8 0 7 0 
8 0 8 0 8 0 8 0 8 0 8 0 8 0 7 0 
8 0 8 0 8 0 8 0 8 0 8 0 8 0 7 0 
8 0 8 0 8 0 8 0 8 0 8 0 8 0 8 0 
7 0 8 0 8 0 8 0 8 0 8 0 8 0 8 0 
7 0 8 0 8 0 8 0 8 0 8 0 8 0 8 0 
8 0 7 0 8 0 8 0 8 0 8 0 8 0 8 0 
8 0 7 0 8 0 8 0 8 0 8 0 8 0 8 0 
8 0 7 0 8 0 8 0 8 0 8 0 8 0 8 0 
8 0 8 0 7 0 8 0 8 0 8 0 8 0 8 0 
8 0 8 0 7 0 8 0 8 0 8 0 8 0 8 0 
8 0 8 0 8 0 7 0 8 0 8 0 8 0 8 0 
8 0 8 0 8 0 7 0 8 0 8 0 8 0 8 0 
8 0 8 0 8 0 7 0 8 0 8 0 8 0 8 0 
8 0 8 0 8 0 8 0 7 0 8 0 8 0 8 0 
8 0 8 0 8 0 8 0 7 0 8 0 8 0 8 0 
8 0 8 0 8 0 2133 4200 300 MP stroke
8 0 8 0 7 0 8 0 8 0 8 0 8 0 8 0 
8 0 8 0 7 0 8 0 8 0 8 0 8 0 8 0 
8 0 8 0 7 0 8 0 8 0 8 0 8 0 8 0 
8 0 8 0 8 0 7 0 8 0 8 0 8 0 8 0 
8 0 8 0 8 0 7 0 8 0 8 0 8 0 8 0 
8 0 8 0 8 0 8 0 7 0 8 0 8 0 8 0 
8 0 8 0 8 0 8 0 7 0 8 0 8 0 8 0 
8 0 8 0 8 0 8 0 7 0 8 0 8 0 8 0 
8 0 8 0 8 0 8 0 8 0 7 0 8 0 8 0 
8 0 8 0 8 0 8 0 8 0 7 0 8 0 8 0 
8 0 8 0 8 0 8 0 8 0 8 0 7 0 8 0 
8 0 8 0 8 0 8 0 8 0 8 0 7 0 8 0 
8 0 8 0 8 0 8 0 8 0 1337 4200 102 MP stroke
/c9 { 0.000000 0.500000 0.000000 sr} bdef
c9
8 96 8 -96 8 96 8 -96 8 96 8 -96 8 96 8 -96 
7 96 8 -96 8 96 8 -96 8 96 8 -96 8 96 8 -96 
7 96 8 -96 8 96 8 -96 8 96 8 -96 8 96 8 -96 
8 96 7 -96 8 96 8 -96 8 96 8 -96 8 96 8 -96 
8 96 7 -96 8 96 8 -96 8 96 8 -96 8 96 8 -96 
8 96 8 -96 7 96 8 -96 8 96 8 -96 8 96 8 -96 
8 96 8 -96 7 96 8 -96 8 96 8 -96 8 96 8 -96 
8 96 8 -96 7 96 8 -96 8 96 8 -96 8 96 8 -96 
8 96 8 -96 8 96 7 -96 8 96 8 -96 8 96 8 -96 
8 96 8 -96 8 96 7 -96 8 96 8 -96 8 96 8 -96 
8 96 8 -96 8 96 8 -96 7 96 8 -96 8 96 8 -96 
8 96 8 -96 8 96 8 -96 7 96 8 -96 8 96 8 -96 
8 96 8 -96 8 96 8 -96 7 96 8 -96 8 96 8 -96 
8 96 8 -96 8 96 8 -96 8 96 7 -96 8 96 8 -96 
8 96 8 -96 8 96 8 -96 8 96 7 -96 8 96 8 -96 
8 96 8 -96 8 96 8 -96 8 96 8 -96 7 96 8 -96 
8 96 8 -96 8 96 8 -96 8 96 8 -96 7 96 8 -96 
8 96 8 -96 8 96 8 -96 8 96 8 -96 7 96 8 -96 
8 96 8 -96 8 96 8 -96 8 96 8 -96 8 96 7 -96 
8 96 8 -96 8 96 8 -96 8 96 8 -96 8 96 7 -96 
8 96 8 -96 8 96 8 -96 8 96 8 -96 8 96 8 -96 
7 96 8 -96 8 96 8 -96 8 96 8 -96 8 96 8 -96 
7 96 8 -96 8 96 8 -96 8 96 8 -96 8 96 8 -96 
7 96 8 -96 8 96 8 -96 8 96 8 -96 8 96 8 -96 
8 96 7 -96 8 96 8 -96 8 96 8 -96 8 96 8 -96 
8 96 7 -96 8 96 8 -96 8 96 8 -96 8 96 8 -96 
8 96 8 -96 7 96 8 -96 8 96 8 -96 8 96 8 -96 
8 96 8 -96 7 96 8 -96 8 96 8 -96 8 96 8 -96 
8 96 8 -96 7 96 8 -96 8 96 8 -96 8 96 8 -96 
8 96 8 -96 8 96 7 -96 8 96 8 -96 8 96 8 -96 
8 96 8 -96 8 96 7 -96 8 96 8 -96 8 96 8 -96 
8 96 8 -96 8 96 8 -96 7 96 8 -96 8 96 8 -96 
8 96 8 -96 8 96 8 -96 7 96 8 -96 8 96 8 -96 
8 96 8 -96 8 96 8 -96 7 96 8 -96 8 96 8 -96 
8 96 8 -96 8 96 8 -96 8 96 7 -96 8 96 8 -96 
8 96 8 -96 8 96 8 -96 8 96 7 -96 8 96 8 -96 
8 96 8 -96 8 96 8 -96 8 96 8 -96 7 96 8 -96 
8 96 8 -96 8 96 6846 3948 300 MP stroke
8 -96 8 96 8 -96 7 96 8 -96 8 96 8 -96 8 96 
8 -96 8 96 8 -96 7 96 8 -96 8 96 8 -96 8 96 
8 -96 8 96 8 -96 8 96 7 -96 8 96 8 -96 8 96 
8 -96 8 96 8 -96 8 96 7 -96 8 96 8 -96 8 96 
8 -96 8 96 8 -96 8 96 8 -96 7 96 8 -96 8 96 
8 -96 8 96 8 -96 8 96 8 -96 7 96 8 -96 8 96 
8 -96 8 96 8 -96 8 96 8 -96 7 96 8 -96 8 96 
8 -96 8 96 8 -96 8 96 8 -96 8 96 7 -96 8 96 
8 -96 8 96 8 -96 8 96 8 -96 8 96 7 -96 8 96 
8 -96 8 96 8 -96 8 96 8 -96 8 96 8 -96 7 96 
8 -96 8 96 8 -96 8 96 8 -96 8 96 8 -96 7 96 
8 -96 8 96 8 -96 8 96 8 -96 8 96 8 -96 7 96 
8 -96 8 96 8 -96 8 96 8 -96 8 96 8 -96 8 96 
7 -96 8 96 8 -96 8 96 8 -96 8 96 8 -96 8 96 
7 -96 8 96 8 -96 8 96 8 -96 8 96 8 -96 8 96 
8 -96 7 96 8 -96 8 96 8 -96 8 96 8 -96 8 96 
8 -96 7 96 8 -96 8 96 8 -96 8 96 8 -96 8 96 
8 -96 7 96 8 -96 8 96 8 -96 8 96 8 -96 8 96 
8 -96 8 96 7 -96 8 96 8 -96 8 96 8 -96 8 96 
8 -96 8 96 7 -96 8 96 8 -96 8 96 8 -96 8 96 
8 -96 8 96 8 -96 7 96 8 -96 8 96 8 -96 8 96 
8 -96 8 96 8 -96 7 96 8 -96 8 96 8 -96 8 96 
8 -96 8 96 8 -96 7 96 8 -96 8 96 8 -96 8 96 
8 -96 8 96 8 -96 8 96 7 -96 8 96 8 -96 8 96 
8 -96 8 96 8 -96 8 96 7 -96 8 96 8 -96 8 96 
8 -96 8 96 8 -96 8 96 8 -96 7 96 8 -96 8 96 
8 -96 8 96 8 -96 8 96 8 -96 7 96 8 -96 8 96 
8 -96 8 96 8 -96 8 96 8 -96 8 96 7 -96 8 96 
8 -96 8 96 8 -96 8 96 8 -96 8 96 7 -96 8 96 
8 -96 8 96 8 -96 8 96 8 -96 8 96 7 -96 8 96 
8 -96 8 96 8 -96 8 96 8 -96 8 96 8 -96 7 96 
8 -96 8 96 8 -96 8 96 8 -96 8 96 8 -96 7 96 
8 -96 8 96 8 -96 8 96 8 -96 8 96 8 -96 8 96 
7 -96 8 96 8 -96 8 96 8 -96 8 96 8 -96 8 96 
7 -96 8 96 8 -96 8 96 8 -96 8 96 8 -96 8 96 
7 -96 8 96 8 -96 8 96 8 -96 8 96 8 -96 8 96 
8 -96 7 96 8 -96 8 96 8 -96 8 96 8 -96 8 96 
8 -96 7 96 8 -96 4490 4044 300 MP stroke
8 96 8 -96 8 96 8 -96 8 96 8 -96 8 96 7 -96 
8 96 8 -96 8 96 8 -96 8 96 8 -96 8 96 7 -96 
8 96 8 -96 8 96 8 -96 8 96 8 -96 8 96 7 -96 
8 96 8 -96 8 96 8 -96 8 96 8 -96 8 96 8 -96 
7 96 8 -96 8 96 8 -96 8 96 8 -96 8 96 8 -96 
7 96 8 -96 8 96 8 -96 8 96 8 -96 8 96 8 -96 
8 96 7 -96 8 96 8 -96 8 96 8 -96 8 96 8 -96 
8 96 7 -96 8 96 8 -96 8 96 8 -96 8 96 8 -96 
8 96 7 -96 8 96 8 -96 8 96 8 -96 8 96 8 -96 
8 96 8 -96 7 96 8 -96 8 96 8 -96 8 96 8 -96 
8 96 8 -96 7 96 8 -96 8 96 8 -96 8 96 8 -96 
8 96 8 -96 8 96 7 -96 8 96 8 -96 8 96 8 -96 
8 96 8 -96 8 96 7 -96 8 96 8 -96 8 96 8 -96 
8 96 8 -96 8 96 7 -96 8 96 8 -96 8 96 8 -96 
8 96 8 -96 8 96 8 -96 7 96 8 -96 8 96 8 -96 
8 96 8 -96 8 96 8 -96 7 96 8 -96 8 96 8 -96 
8 96 8 -96 8 96 8 -96 8 96 7 -96 8 96 8 -96 
8 96 8 -96 8 96 8 -96 8 96 7 -96 8 96 8 -96 
8 96 8 -96 8 96 8 -96 8 96 7 -96 8 96 8 -96 
8 96 8 -96 8 96 8 -96 8 96 8 -96 7 96 8 -96 
8 96 8 -96 8 96 8 -96 8 96 8 -96 7 96 8 -96 
8 96 8 -96 8 96 8 -96 8 96 8 -96 8 96 7 -96 
8 96 8 -96 8 96 8 -96 8 96 8 -96 8 96 7 -96 
8 96 8 -96 8 96 8 -96 8 96 8 -96 8 96 7 -96 
8 96 8 -96 8 96 8 -96 8 96 8 -96 8 96 8 -96 
7 96 8 -96 8 96 8 -96 8 96 8 -96 8 96 8 -96 
7 96 8 -96 8 96 8 -96 8 96 8 -96 8 96 8 -96 
8 96 7 -96 8 96 8 -96 8 96 8 -96 8 96 8 -96 
8 96 7 -96 8 96 8 -96 8 96 8 -96 8 96 8 -96 
8 96 7 -96 8 96 8 -96 8 96 8 -96 8 96 8 -96 
8 96 8 -96 7 96 8 -96 8 96 8 -96 8 96 8 -96 
8 96 8 -96 7 96 8 -96 8 96 8 -96 8 96 8 -96 
8 96 8 -96 8 96 7 -96 8 96 8 -96 8 491 8 110 
8 355 8 -1120 8 360 7 -1143 8 182 8 525 8 624 8 -1399 
8 900 8 -398 8 103 7 -103 8 -227 8 51 8 0 8 -64 
8 48 8 -29 8 -10 8 8 7 -11 8 12 8 -11 8 5 
8 2 8 -5 8 4 8 -1 7 -2 8 1 8 0 8 0 
8 0 8 0 8 0 2133 4786 300 MP stroke
8 0 8 0 7 0 8 0 8 0 8 0 8 0 8 0 
8 0 8 0 7 0 8 0 8 0 8 0 8 0 8 0 
8 0 8 0 7 0 8 0 8 0 8 0 8 0 8 0 
8 0 8 0 8 0 7 0 8 0 8 0 8 0 8 0 
8 0 8 0 8 0 7 0 8 0 8 0 8 0 8 0 
8 0 8 0 8 0 8 0 7 0 8 0 8 0 8 0 
8 0 8 0 8 0 8 0 7 0 8 0 8 0 8 0 
8 0 8 0 8 0 8 0 7 0 8 0 8 0 8 0 
8 0 8 0 8 0 8 0 8 0 7 0 8 0 8 0 
8 0 8 0 8 0 8 0 8 0 7 0 8 0 8 0 
8 0 8 0 8 0 8 0 8 0 8 0 7 0 8 0 
8 0 8 0 8 0 8 0 8 0 8 0 7 0 8 0 
8 0 8 0 8 0 8 0 8 0 1337 4786 102 MP stroke
/c10 { 1.000000 0.000000 0.000000 sr} bdef
c10
8 108 8 -108 8 108 8 -108 8 108 8 -108 8 108 8 -108 
7 108 8 -108 8 108 8 -108 8 108 8 -108 8 108 8 -108 
7 108 8 -108 8 108 8 -108 8 108 8 -108 8 108 8 -108 
8 108 7 -108 8 108 8 -108 8 108 8 -108 8 108 8 -108 
8 108 7 -108 8 108 8 -108 8 108 8 -108 8 108 8 -108 
8 108 8 -108 7 108 8 -108 8 108 8 -108 8 108 8 -108 
8 108 8 -108 7 108 8 -108 8 108 8 -108 8 108 8 -108 
8 108 8 -108 7 108 8 -108 8 108 8 -108 8 108 8 -108 
8 108 8 -108 8 108 7 -108 8 108 8 -108 8 108 8 -108 
8 108 8 -108 8 108 7 -108 8 108 8 -108 8 108 8 -108 
8 108 8 -108 8 108 8 -108 7 108 8 -108 8 108 8 -108 
8 108 8 -108 8 108 8 -108 7 108 8 -108 8 108 8 -108 
8 108 8 -108 8 108 8 -108 7 108 8 -108 8 108 8 -108 
8 108 8 -108 8 108 8 -108 8 108 7 -108 8 108 8 -108 
8 108 8 -108 8 108 8 -108 8 108 7 -108 8 108 8 -108 
8 108 8 -108 8 108 8 -108 8 108 8 -108 7 108 8 -108 
8 108 8 -108 8 108 8 -108 8 108 8 -108 7 108 8 -108 
8 108 8 -108 8 108 8 -108 8 108 8 -108 7 108 8 -108 
8 108 8 -108 8 108 8 -108 8 108 8 -108 8 108 7 -108 
8 108 8 -108 8 108 8 -108 8 108 8 -108 8 108 7 -108 
8 108 8 -108 8 108 8 -108 8 108 8 -108 8 108 8 -108 
7 108 8 -108 8 108 8 -108 8 108 8 -108 8 108 8 -108 
7 108 8 -108 8 108 8 -108 8 108 8 -108 8 108 8 -108 
7 108 8 -108 8 108 8 -108 8 108 8 -108 8 108 8 -108 
8 108 7 -108 8 108 8 -108 8 108 8 -108 8 108 8 -108 
8 108 7 -108 8 108 8 -108 8 108 8 -108 8 108 8 -108 
8 108 8 -108 7 108 8 -108 8 108 8 -108 8 108 8 -108 
8 108 8 -108 7 108 8 -108 8 108 8 -108 8 108 8 -108 
8 108 8 -108 7 108 8 -108 8 108 8 -108 8 108 8 -108 
8 108 8 -108 8 108 7 -108 8 108 8 -108 8 108 8 -108 
8 108 8 -108 8 108 7 -108 8 108 8 -108 8 108 8 -108 
8 108 8 -108 8 108 8 -108 7 108 8 -108 8 108 8 -108 
8 108 8 -108 8 108 8 -108 7 108 8 -108 8 108 8 -108 
8 108 8 -108 8 108 8 -108 7 108 8 -108 8 108 8 -108 
8 108 8 -108 8 108 8 -108 8 108 7 -108 8 108 8 -108 
8 108 8 -108 8 108 8 -108 8 108 7 -108 8 108 8 -108 
8 108 8 -108 8 108 8 -108 8 108 8 -108 7 108 8 -108 
8 108 8 -108 8 108 6846 3942 300 MP stroke
8 -108 8 108 8 -108 7 108 8 -108 8 108 8 -108 8 108 
8 -108 8 108 8 -108 7 108 8 -108 8 108 8 -108 8 108 
8 -108 8 108 8 -108 8 108 7 -108 8 108 8 -108 8 108 
8 -108 8 108 8 -108 8 108 7 -108 8 108 8 -108 8 108 
8 -108 8 108 8 -108 8 108 8 -108 7 108 8 -108 8 108 
8 -108 8 108 8 -108 8 108 8 -108 7 108 8 -108 8 108 
8 -108 8 108 8 -108 8 108 8 -108 7 108 8 -108 8 108 
8 -108 8 108 8 -108 8 108 8 -108 8 108 7 -108 8 108 
8 -108 8 108 8 -108 8 108 8 -108 8 108 7 -108 8 108 
8 -108 8 108 8 -108 8 108 8 -108 8 108 8 -108 7 108 
8 -108 8 108 8 -108 8 108 8 -108 8 108 8 -108 7 108 
8 -108 8 108 8 -108 8 108 8 -108 8 108 8 -108 7 108 
8 -108 8 108 8 -108 8 108 8 -108 8 108 8 -108 8 108 
7 -108 8 108 8 -108 8 108 8 -108 8 108 8 -108 8 108 
7 -108 8 108 8 -108 8 108 8 -108 8 108 8 -108 8 108 
8 -108 7 108 8 -108 8 108 8 -108 8 108 8 -108 8 108 
8 -108 7 108 8 -108 8 108 8 -108 8 108 8 -108 8 108 
8 -108 7 108 8 -108 8 108 8 -108 8 108 8 -108 8 108 
8 -108 8 108 7 -108 8 108 8 -108 8 108 8 -108 8 108 
8 -108 8 108 7 -108 8 108 8 -108 8 108 8 -108 8 108 
8 -108 8 108 8 -108 7 108 8 -108 8 108 8 -108 8 108 
8 -108 8 108 8 -108 7 108 8 -108 8 108 8 -108 8 108 
8 -108 8 108 8 -108 7 108 8 -108 8 108 8 -108 8 108 
8 -108 8 108 8 -108 8 108 7 -108 8 108 8 -108 8 108 
8 -108 8 108 8 -108 8 108 7 -108 8 108 8 -108 8 108 
8 -108 8 108 8 -108 8 108 8 -108 7 108 8 -108 8 108 
8 -108 8 108 8 -108 8 108 8 -108 7 108 8 -108 8 108 
8 -108 8 108 8 -108 8 108 8 -108 8 108 7 -108 8 108 
8 -108 8 108 8 -108 8 108 8 -108 8 108 7 -108 8 108 
8 -108 8 108 8 -108 8 108 8 -108 8 108 7 -108 8 108 
8 -108 8 108 8 -108 8 108 8 -108 8 108 8 -108 7 108 
8 -108 8 108 8 -108 8 108 8 -108 8 108 8 -108 7 108 
8 -108 8 108 8 -108 8 108 8 -108 8 108 8 -108 8 108 
7 -108 8 108 8 -108 8 108 8 -108 8 108 8 -108 8 108 
7 -108 8 108 8 -108 8 108 8 -108 8 108 8 -108 8 108 
7 -108 8 108 8 -108 8 108 8 -108 8 108 8 -108 8 108 
8 -108 7 108 8 -108 8 108 8 -108 8 108 8 -108 8 108 
8 -108 7 108 8 -108 4490 4050 300 MP stroke
8 108 8 -108 8 108 8 -108 8 108 8 -108 8 108 7 -108 
8 108 8 -108 8 108 8 -108 8 108 8 -108 8 108 7 -108 
8 108 8 -108 8 108 8 -108 8 108 8 -108 8 108 7 -108 
8 108 8 -108 8 108 8 -108 8 108 8 -108 8 108 8 -108 
7 108 8 -108 8 108 8 -108 8 108 8 -108 8 108 8 -108 
7 108 8 -108 8 108 8 -108 8 108 8 -108 8 108 8 -108 
8 108 7 -108 8 108 8 -108 8 108 8 -108 8 108 8 -108 
8 108 7 -108 8 108 8 -108 8 108 8 -108 8 108 8 -108 
8 108 7 -108 8 108 8 -108 8 108 8 -108 8 108 8 -108 
8 108 8 -108 7 108 8 -108 8 108 8 -108 8 108 8 -108 
8 108 8 -108 7 108 8 -108 8 108 8 -108 8 108 8 -108 
8 108 8 -108 8 108 7 -108 8 108 8 -108 8 108 8 -108 
8 108 8 -108 8 108 7 -108 8 108 8 -108 8 108 8 -108 
8 108 8 -108 8 108 7 -108 8 108 8 -108 8 108 8 -108 
8 108 8 -108 8 108 8 -108 7 108 8 -108 8 108 8 -108 
8 108 8 -108 8 108 8 -108 7 108 8 -108 8 108 8 -108 
8 108 8 -108 8 108 8 -108 8 108 7 -108 8 108 8 -108 
8 108 8 -108 8 108 8 -108 8 108 7 -108 8 108 8 -108 
8 108 8 -108 8 108 8 -108 8 108 7 -108 8 108 8 -108 
8 108 8 -108 8 108 8 -108 8 108 8 -108 7 108 8 -108 
8 108 8 -108 8 108 8 -108 8 108 8 -108 7 108 8 -108 
8 108 8 -108 8 108 8 -108 8 108 8 -108 8 108 7 -108 
8 108 8 -108 8 108 8 -108 8 108 8 -108 8 108 7 -108 
8 108 8 -108 8 108 8 -108 8 108 8 -108 8 108 7 -108 
8 108 8 -108 8 108 8 -108 8 108 8 -108 8 108 8 -108 
7 108 8 -108 8 108 8 -108 8 108 8 -108 8 108 8 -108 
7 108 8 -108 8 108 8 -108 8 108 8 -108 8 108 8 -108 
8 108 7 -108 8 108 8 -108 8 108 8 -108 8 108 8 -108 
8 108 7 -108 8 108 8 -108 8 108 8 -108 8 108 8 -108 
8 108 7 -108 8 108 8 -108 8 108 8 -108 8 108 8 -108 
8 108 8 -108 7 108 8 -108 8 108 8 -108 8 108 8 -108 
8 108 8 -108 7 108 8 -108 8 108 8 -108 8 108 8 -108 
8 108 8 -108 8 108 7 -108 8 108 8 -108 8 108 8 -108 
8 108 8 -108 8 108 7 -108 8 108 8 -108 8 108 8 -108 
8 108 8 -108 8 108 7 -108 8 108 8 -108 8 108 8 -108 
8 108 8 -108 8 108 8 -108 7 108 8 -108 8 108 8 -108 
8 108 8 -108 8 108 8 -108 7 108 8 -108 8 108 8 -108 
8 108 8 -108 8 108 2133 3942 300 MP stroke
8 -108 8 108 7 -108 8 108 8 -108 8 108 8 -108 8 108 
8 -108 8 108 7 -108 8 108 8 -108 8 108 8 -108 8 108 
8 -108 8 108 7 -108 8 108 8 -108 8 108 8 -108 8 108 
8 -108 8 108 8 -108 7 108 8 -108 8 108 8 -108 8 108 
8 -108 8 108 8 -108 7 108 8 -108 8 108 8 -108 8 108 
8 -108 8 108 8 -108 8 108 7 -108 8 108 8 -108 8 -179 
8 -1138 8 982 8 -1078 8 367 7 -445 8 -77 8 -66 8 0 
8 13 8 -12 8 -1 8 0 7 0 8 0 8 0 8 0 
8 -1 8 1 8 -1 8 1 8 0 7 -1 8 1 8 0 
8 0 8 0 8 0 8 0 8 0 7 0 8 -1 8 1 
8 0 8 0 8 0 8 -1 8 1 8 0 7 0 8 0 
8 0 8 0 8 0 8 0 8 0 8 -1 7 1 8 0 
8 -1 8 1 8 0 8 0 8 -1 1337 5685 102 MP stroke
/c11 { 0.000000 0.750000 0.750000 sr} bdef
c11
8 0 8 0 8 0 8 0 8 0 8 0 8 0 8 0 
7 0 8 0 8 0 8 0 8 0 8 0 8 0 8 0 
7 0 8 0 8 0 8 0 8 0 8 0 8 0 8 0 
8 0 7 0 8 0 8 0 8 0 8 0 8 0 8 0 
8 0 7 0 8 0 8 0 8 0 8 0 8 0 8 0 
8 0 8 0 7 0 8 0 8 0 8 0 8 0 8 0 
8 0 8 0 7 0 8 0 8 0 8 0 8 0 8 0 
8 0 8 0 7 0 8 0 8 0 8 0 8 0 8 0 
8 0 8 0 8 0 7 0 8 0 8 0 8 0 8 0 
8 0 8 0 8 0 7 0 8 0 8 0 8 0 8 0 
8 0 8 0 8 0 8 0 7 0 8 0 8 0 8 0 
8 0 8 0 8 0 8 0 7 0 8 0 8 0 8 0 
8 0 8 0 8 0 8 0 7 0 8 0 8 0 8 0 
8 0 8 0 8 0 8 0 8 0 7 0 8 0 8 0 
8 0 8 0 8 0 8 0 8 0 7 0 8 0 8 0 
8 0 8 0 8 0 8 0 8 0 8 0 7 0 8 0 
8 0 8 0 8 0 8 0 8 0 8 0 7 0 8 0 
8 0 8 0 8 0 8 0 8 0 8 0 7 0 8 0 
8 0 8 0 8 0 8 0 8 0 8 0 8 0 7 0 
8 0 8 0 8 0 8 0 8 0 8 0 8 0 7 0 
8 0 8 0 8 0 8 0 8 0 8 0 8 0 8 0 
7 0 8 0 8 0 8 0 8 0 8 0 8 0 8 0 
7 0 8 0 8 0 8 0 8 0 8 0 8 0 8 0 
7 0 8 0 8 0 8 0 8 0 8 0 8 0 8 0 
8 0 7 0 8 0 8 0 8 0 8 0 8 0 8 0 
8 0 7 0 8 0 8 0 8 0 8 0 8 0 8 0 
8 0 8 0 7 0 8 0 8 0 8 0 8 0 8 0 
8 0 8 0 7 0 8 0 8 0 8 0 8 0 8 0 
8 0 8 0 7 0 8 0 8 0 8 0 8 0 8 0 
8 0 8 0 8 0 7 0 8 0 8 0 8 0 8 0 
8 0 8 0 8 0 7 0 8 0 8 0 8 0 8 0 
8 0 8 0 8 0 8 0 7 0 8 0 8 0 8 0 
8 0 8 0 8 0 8 0 7 0 8 0 8 0 8 0 
8 0 8 0 8 0 8 0 7 0 8 0 8 0 8 0 
8 0 8 0 8 0 8 0 8 0 7 0 8 0 8 0 
8 0 8 0 8 0 8 0 8 0 7 0 8 0 8 0 
8 0 8 0 8 0 8 0 8 0 8 0 7 0 8 0 
8 0 8 0 8 0 6846 3997 300 MP stroke
8 0 8 0 8 0 7 0 8 0 8 0 8 0 8 0 
8 0 8 0 8 0 7 0 8 0 8 0 8 0 8 0 
8 0 8 0 8 0 8 0 7 0 8 0 8 0 8 0 
8 0 8 0 8 0 8 0 7 0 8 0 8 0 8 0 
8 0 8 0 8 0 8 0 8 0 7 0 8 0 8 0 
8 0 8 0 8 0 8 0 8 0 7 0 8 0 8 0 
8 0 8 0 8 0 8 0 8 0 7 0 8 0 8 0 
8 0 8 0 8 0 8 0 8 0 8 0 7 0 8 0 
8 0 8 0 8 0 8 0 8 0 8 0 7 0 8 0 
8 0 8 0 8 0 8 0 8 0 8 0 8 0 7 0 
8 0 8 0 8 0 8 0 8 0 8 0 8 0 7 0 
8 0 8 0 8 0 8 0 8 0 8 0 8 0 7 0 
8 0 8 0 8 0 8 0 8 0 8 0 8 0 8 0 
7 0 8 0 8 0 8 0 8 0 8 0 8 0 8 0 
7 0 8 0 8 0 8 0 8 0 8 0 8 0 8 0 
8 0 7 0 8 0 8 0 8 0 8 0 8 0 8 0 
8 0 7 0 8 0 8 0 8 0 8 0 8 0 8 0 
8 0 7 0 8 0 8 0 8 0 8 0 8 0 8 0 
8 0 8 0 7 0 8 0 8 0 8 0 8 0 8 0 
8 0 8 0 7 0 8 0 8 0 8 0 8 0 8 0 
8 0 8 0 8 0 7 0 8 0 8 0 8 0 8 0 
8 0 8 0 8 0 7 0 8 0 8 0 8 0 8 0 
8 0 8 0 8 0 7 0 8 0 8 0 8 0 8 0 
8 0 8 0 8 0 8 0 7 0 8 0 8 0 8 0 
8 0 8 0 8 0 8 0 7 0 8 0 8 0 8 0 
8 0 8 0 8 0 8 0 8 0 7 0 8 0 8 0 
8 0 8 0 8 0 8 0 8 0 7 0 8 0 8 0 
8 0 8 0 8 0 8 0 8 0 8 0 7 0 8 0 
8 0 8 0 8 0 8 0 8 0 8 0 7 0 8 0 
8 0 8 0 8 0 8 0 8 0 8 0 7 0 8 0 
8 0 8 0 8 0 8 0 8 0 8 0 8 0 7 0 
8 0 8 0 8 0 8 0 8 0 8 0 8 0 7 0 
8 0 8 0 8 0 8 0 8 0 8 0 8 0 8 0 
7 0 8 0 8 0 8 0 8 0 8 0 8 0 8 0 
7 0 8 0 8 0 8 0 8 0 8 0 8 0 8 0 
7 0 8 0 8 0 8 0 8 0 8 0 8 0 8 0 
8 0 7 0 8 0 8 0 8 0 8 0 8 0 8 0 
8 0 7 0 8 0 4490 3997 300 MP stroke
8 0 8 0 8 0 8 0 8 0 8 0 8 0 7 0 
8 0 8 0 8 0 8 0 8 0 8 0 8 0 7 0 
8 0 8 0 8 0 8 0 8 0 8 0 8 0 7 0 
8 0 8 0 8 0 8 0 8 0 8 0 8 0 8 0 
7 0 8 0 8 0 8 0 8 0 8 0 8 0 8 0 
7 0 8 0 8 0 8 0 8 0 8 0 8 0 8 0 
8 0 7 0 8 0 8 0 8 0 8 0 8 0 8 0 
8 0 7 0 8 0 8 0 8 0 8 0 8 0 8 0 
8 0 7 0 8 0 8 0 8 0 8 0 8 0 8 0 
8 0 8 0 7 0 8 0 8 0 8 0 8 0 8 0 
8 0 8 0 7 0 8 0 8 0 8 0 8 0 8 0 
8 0 8 0 8 0 7 0 8 0 8 0 8 0 8 0 
8 0 8 0 8 0 7 0 8 0 8 0 8 0 8 0 
8 0 8 0 8 0 7 0 8 0 8 0 8 0 8 0 
8 0 8 0 8 0 8 0 7 0 8 0 8 0 8 0 
8 0 8 0 8 0 8 0 7 0 8 0 8 0 8 0 
8 0 8 0 8 0 8 0 8 0 7 0 8 0 8 0 
8 0 8 0 8 0 8 0 8 0 7 0 8 0 8 0 
8 0 8 0 8 0 8 0 8 0 7 0 8 0 8 0 
8 0 8 0 8 0 8 0 8 0 8 0 7 0 8 0 
8 0 8 0 8 0 8 0 8 0 8 0 7 0 8 0 
8 0 8 0 8 0 8 0 8 0 8 0 8 0 7 0 
8 0 8 0 8 0 8 0 8 0 8 0 8 0 7 0 
8 0 8 0 8 0 8 0 8 0 8 0 8 0 7 0 
8 0 8 0 8 0 8 0 8 0 8 0 8 0 8 0 
7 0 8 0 8 0 8 0 8 0 8 0 8 0 8 0 
7 0 8 0 8 0 8 0 8 0 8 0 8 0 8 0 
8 0 7 0 8 0 8 0 8 0 8 0 8 0 8 0 
8 0 7 0 8 0 8 0 8 0 8 0 8 0 8 0 
8 0 7 0 8 0 8 0 8 0 8 0 8 0 8 0 
8 0 8 0 7 0 8 0 8 0 8 0 8 0 8 0 
8 0 8 0 7 0 8 0 8 0 8 0 8 0 8 0 
8 0 8 0 8 0 7 0 8 0 8 0 8 0 8 0 
8 0 8 0 8 0 7 0 8 0 8 0 8 0 8 0 
8 0 8 0 8 0 7 0 8 0 8 0 8 0 8 0 
8 0 8 0 8 0 8 0 7 0 8 0 8 0 8 0 
8 0 8 0 8 0 8 0 7 0 8 0 8 0 8 0 
8 0 8 0 8 0 2133 3997 300 MP stroke
8 0 8 0 7 0 8 0 8 0 8 0 8 0 8 0 
8 0 8 0 7 0 8 0 8 0 8 0 8 0 8 0 
8 0 8 0 7 0 8 0 8 0 8 0 8 0 8 0 
8 0 8 0 8 0 7 0 8 0 8 0 8 0 8 0 
8 0 8 0 8 0 7 0 8 0 8 0 8 0 8 0 
8 0 8 0 8 0 8 0 7 0 8 0 8 0 8 0 
8 0 8 0 8 0 8 0 7 0 8 0 8 0 8 0 
8 0 8 0 8 0 8 0 7 0 8 0 8 0 8 0 
8 0 8 0 8 485 8 -1376 8 587 7 -929 8 781 8 1059 
8 -1379 8 1774 8 -1470 8 3245 8 -3363 7 1534 8 -1912 8 433 
8 -95 8 -1445 8 -668 8 -38 8 -11 8 -1 7 0 8 0 
8 0 8 0 8 0 8 0 8 0 8 0 7 0 8 0 
8 0 8 0 8 0 8 0 8 0 1337 6786 102 MP stroke
DA
0 sg
8 0 8 0 8 0 8 0 8 0 8 0 8 0 8 0 
7 0 8 0 8 0 8 0 8 0 8 0 8 0 8 0 
7 0 8 0 8 0 8 0 8 0 8 0 8 0 8 0 
8 0 7 0 8 0 8 0 8 0 8 0 8 0 8 0 
8 0 7 0 8 0 8 0 8 0 8 0 8 0 8 0 
8 0 8 0 7 0 8 0 8 0 8 0 8 0 8 0 
8 0 8 0 7 0 8 0 8 0 8 0 8 0 8 0 
8 0 8 0 7 0 8 0 8 0 8 0 8 0 8 0 
8 0 8 0 8 0 7 0 8 0 8 0 8 0 8 0 
8 0 8 0 8 0 7 0 8 0 8 0 8 0 8 0 
8 0 8 0 8 0 8 0 7 0 8 0 8 0 8 0 
8 0 8 0 8 0 8 0 7 0 8 0 8 0 8 0 
8 0 8 0 8 0 8 0 7 0 8 0 8 0 8 0 
8 0 8 0 8 0 8 0 8 0 7 0 8 0 8 0 
8 0 8 0 8 0 8 0 8 0 7 0 8 0 8 0 
8 0 8 0 8 0 8 0 8 0 8 0 7 0 8 0 
8 0 8 0 8 0 8 0 8 0 8 0 7 0 8 0 
8 0 8 0 8 0 8 0 8 0 8 0 7 0 8 0 
8 0 8 0 8 0 8 0 8 0 8 0 8 0 7 0 
8 0 8 0 8 0 8 0 8 0 8 0 8 0 7 0 
8 0 8 0 8 0 8 0 8 0 8 0 8 0 8 0 
7 0 8 0 8 0 8 0 8 0 8 0 8 0 8 0 
7 0 8 0 8 0 8 0 8 0 8 0 8 0 8 0 
7 0 8 0 8 0 8 0 8 0 8 0 8 0 8 0 
8 0 7 0 8 0 8 0 8 0 8 0 8 0 8 0 
8 0 7 0 8 0 8 0 8 0 8 0 8 0 8 0 
8 0 8 0 7 0 8 0 8 0 8 0 8 0 8 0 
8 0 8 0 7 0 8 0 8 0 8 0 8 0 8 0 
8 0 8 0 7 0 8 0 8 0 8 0 8 0 8 0 
8 0 8 0 8 0 7 0 8 0 8 0 8 0 8 0 
8 0 8 0 8 0 7 0 8 0 8 0 8 0 8 0 
8 0 8 0 8 0 8 0 7 0 8 0 8 0 8 0 
8 0 8 0 8 0 8 0 7 0 8 0 8 0 8 0 
8 0 8 0 8 0 8 0 7 0 8 0 8 0 8 0 
8 0 8 0 8 0 8 0 8 0 7 0 8 0 8 0 
8 0 8 0 8 0 8 0 8 0 7 0 8 0 8 0 
8 0 8 0 8 0 8 0 8 0 8 0 7 0 8 0 
8 0 8 0 8 0 6846 3997 300 MP stroke
8 0 8 0 8 0 7 0 8 0 8 0 8 0 8 0 
8 0 8 0 8 0 7 0 8 0 8 0 8 0 8 0 
8 0 8 0 8 0 8 0 7 0 8 0 8 0 8 0 
8 0 8 0 8 0 8 0 7 0 8 0 8 0 8 0 
8 0 8 0 8 0 8 0 8 0 7 0 8 0 8 0 
8 0 8 0 8 0 8 0 8 0 7 0 8 0 8 0 
8 0 8 0 8 0 8 0 8 0 7 0 8 0 8 0 
8 0 8 0 8 0 8 0 8 0 8 0 7 0 8 0 
8 0 8 0 8 0 8 0 8 0 8 0 7 0 8 0 
8 0 8 0 8 0 8 0 8 0 8 0 8 0 7 0 
8 0 8 0 8 0 8 0 8 0 8 0 8 0 7 0 
8 0 8 0 8 0 8 0 8 0 8 0 8 0 7 0 
8 0 8 0 8 0 8 0 8 0 8 0 8 0 8 0 
7 0 8 0 8 0 8 0 8 0 8 0 8 0 8 0 
7 0 8 0 8 0 8 0 8 0 8 0 8 0 8 0 
8 0 7 0 8 0 8 0 8 0 8 0 8 0 8 0 
8 0 7 0 8 0 8 0 8 0 8 0 8 0 8 0 
8 42 7 321 8 953 8 -1527 8 732 8 -705 8 525 8 -1762 
8 1370 8 998 7 -1333 8 -51 8 2138 8 -2930 8 2434 8 -1285 
8 -1045 8 1970 7 -898 8 419 8 -1556 8 2106 8 -749 8 -980 
8 1016 8 -639 8 1009 7 -1179 8 514 8 -154 8 245 8 -216 
8 -189 8 688 8 -610 7 138 8 -249 8 319 8 76 8 24 
8 -276 8 12 8 30 7 128 8 -67 8 181 8 -415 8 340 
8 -27 8 -199 8 248 8 -275 7 191 8 -102 8 94 8 -9 
8 3 8 -103 8 98 8 -6 7 -22 8 5 8 -8 8 -49 
8 85 8 -54 8 20 8 -23 8 -9 7 71 8 -51 8 -25 
8 57 8 -24 8 -30 8 61 8 -46 7 28 8 -23 8 -6 
8 30 8 -21 8 -1 8 27 8 -34 8 22 7 -12 8 -1 
8 1 8 6 8 2 8 -15 8 15 8 -3 7 -8 8 10 
8 -2 8 -3 8 7 8 -6 8 -7 8 6 7 5 8 -6 
8 2 8 4 8 -6 8 1 8 1 8 -1 8 1 7 1 
8 -3 8 4 8 -2 8 -2 8 3 8 -2 8 1 7 1 
8 -1 8 -1 8 0 8 3 8 -2 8 -1 8 2 8 -2 
7 0 8 2 8 -2 8 2 8 -1 8 0 8 0 8 0 
7 -1 8 1 8 0 8 0 8 0 8 0 8 0 8 0 
7 0 8 0 8 0 8 0 8 0 8 0 8 0 8 0 
8 0 7 0 8 0 8 0 8 0 8 0 8 0 8 0 
8 0 7 0 8 0 4490 4200 300 MP stroke
8 0 8 0 8 0 8 0 8 0 8 0 8 0 7 0 
8 0 8 0 8 0 8 0 8 0 8 0 8 0 7 0 
8 0 8 0 8 0 8 0 8 0 8 0 8 0 7 0 
8 0 8 0 8 0 8 0 8 0 8 0 8 0 8 0 
7 0 8 0 8 0 8 0 8 0 8 0 8 0 8 0 
7 0 8 0 8 0 8 0 8 0 8 0 8 0 8 0 
8 0 7 0 8 0 8 0 8 0 8 0 8 0 8 0 
8 0 7 0 8 0 8 0 8 0 8 0 8 0 8 0 
8 0 7 0 8 0 8 0 8 0 8 0 8 0 8 0 
8 0 8 0 7 0 8 0 8 0 8 0 8 0 8 0 
8 0 8 0 7 0 8 0 8 0 8 0 8 0 8 0 
8 0 8 0 8 0 7 0 8 0 8 0 8 0 8 0 
8 0 8 0 8 0 7 0 8 0 8 0 8 0 8 0 
8 0 8 0 8 0 7 0 8 0 8 0 8 0 8 0 
8 0 8 0 8 0 8 0 7 0 8 0 8 0 8 0 
8 0 8 0 8 0 8 0 7 0 8 0 8 0 8 0 
8 0 8 0 8 0 8 0 8 0 7 0 8 0 8 0 
8 0 8 0 8 0 8 0 8 0 7 0 8 0 8 0 
8 0 8 0 8 0 8 0 8 0 7 0 8 0 8 0 
8 0 8 0 8 0 8 0 8 0 8 0 7 0 8 0 
8 0 8 0 8 0 8 0 8 0 8 0 7 0 8 0 
8 0 8 0 8 0 8 0 8 0 8 0 8 0 7 0 
8 0 8 0 8 0 8 0 8 0 8 0 8 0 7 0 
8 0 8 0 8 0 8 0 8 0 8 0 8 0 7 0 
8 0 8 0 8 0 8 0 8 0 8 0 8 0 8 0 
7 0 8 0 8 0 8 0 8 0 8 0 8 0 8 0 
7 0 8 0 8 0 8 0 8 0 8 0 8 0 8 0 
8 0 7 0 8 0 8 0 8 0 8 0 8 0 8 0 
8 0 7 0 8 0 8 0 8 0 8 0 8 0 8 0 
8 0 7 0 8 0 8 0 8 0 8 0 8 0 8 0 
8 0 8 0 7 0 8 0 8 0 8 0 8 0 8 0 
8 0 8 0 7 0 8 0 8 0 8 0 8 0 8 0 
8 0 8 0 8 0 7 0 8 0 8 0 8 0 8 0 
8 0 8 0 8 0 7 0 8 0 8 0 8 0 8 0 
8 0 8 0 8 0 7 0 8 0 8 0 8 0 8 0 
8 0 8 0 8 0 8 0 7 0 8 0 8 0 8 0 
8 0 8 0 8 0 8 0 7 0 8 0 8 0 8 0 
8 0 8 0 8 0 2133 4200 300 MP stroke
8 0 8 0 7 0 8 0 8 0 8 0 8 0 8 0 
8 0 8 0 7 0 8 0 8 0 8 0 8 0 8 0 
8 0 8 0 7 0 8 0 8 0 8 0 8 0 8 0 
8 0 8 0 8 0 7 0 8 0 8 0 8 0 8 0 
8 0 8 0 8 0 7 0 8 0 8 0 8 0 8 0 
8 0 8 0 8 0 8 0 7 0 8 0 8 0 8 0 
8 0 8 0 8 0 8 0 7 0 8 0 8 0 8 0 
8 0 8 0 8 0 8 0 7 0 8 0 8 0 8 0 
8 0 8 0 8 0 8 0 8 0 7 0 8 0 8 0 
8 0 8 0 8 0 8 0 8 0 7 0 8 0 8 0 
8 0 8 0 8 0 8 0 8 0 8 0 7 0 8 0 
8 0 8 0 8 0 8 0 8 0 8 0 7 0 8 0 
8 0 8 0 8 0 8 0 8 -1 1337 4201 102 MP stroke
gr

DA
5048 7661 mt 
(iteration) s
1039 4388 mt  -90 rotate
(conv factor ||r||) s
90 rotate
4231  526 mt 
(Convergence factor of weighted Jacobi) s
1305 7416 mt 
( ) s
9187  663 mt 
( ) s
SO
1 sg
0 844 1097 0 0 -844 8047 1525 4 MP
PP
-1097 0 0 844 1097 0 0 -844 8047 1525 5 MP stroke
4 w
DO
SO
6 w
0 sg
8047  681 mt 9144  681 L
8047 1525 mt 9144 1525 L
9144 1525 mt 9144  681 L
8047 1525 mt 8047  681 L
8047 1525 mt 9144 1525 L
8047 1525 mt 8047  681 L
8047  681 mt 9144  681 L
8047 1525 mt 9144 1525 L
9144 1525 mt 9144  681 L
8047 1525 mt 8047  681 L
8515  825 mt 
(f = sin\() s
%%IncludeResource: font Symbol
/Symbol /WindowsLatin1Encoding 120 FMSR

8878  825 mt 
(p) s
%%IncludeResource: font Helvetica
/Helvetica /WindowsLatin1Encoding 120 FMSR

8943  825 mt 
(x\)) s
gs 8047 681 1098 845 rc
c8
360 0 8118 781 2 MP stroke
gr

c8
0 sg
8515  988 mt 
(f = sin\(2) s
%%IncludeResource: font Symbol
/Symbol /WindowsLatin1Encoding 120 FMSR

8945  988 mt 
(p) s
%%IncludeResource: font Helvetica
/Helvetica /WindowsLatin1Encoding 120 FMSR

9010  988 mt 
(x\)) s
gs 8047 681 1098 845 rc
c9
360 0 8118 944 2 MP stroke
gr

c9
0 sg
8515 1151 mt 
(f = sin\(3) s
%%IncludeResource: font Symbol
/Symbol /WindowsLatin1Encoding 120 FMSR

8945 1151 mt 
(p) s
%%IncludeResource: font Helvetica
/Helvetica /WindowsLatin1Encoding 120 FMSR

9010 1151 mt 
(x\)) s
gs 8047 681 1098 845 rc
c10
360 0 8118 1107 2 MP stroke
gr

c10
0 sg
8515 1314 mt 
(f = sin\(4) s
%%IncludeResource: font Symbol
/Symbol /WindowsLatin1Encoding 120 FMSR

8945 1314 mt 
(p) s
%%IncludeResource: font Helvetica
/Helvetica /WindowsLatin1Encoding 120 FMSR

9010 1314 mt 
(x\)) s
gs 8047 681 1098 845 rc
c11
360 0 8118 1269 2 MP stroke
gr

c11
0 sg
8515 1471 mt 
(f = x\(1-x\)) s
gs 8047 681 1098 845 rc
DA
360 0 8118 1428 2 MP stroke
SO
gr


end %%Color Dict

eplot
%%EndObject

epage
end

showpage

%%Trailer
%%EOF
