%!PS-Adobe-3.0 EPSF-3.0
%%Creator: MATLAB, The Mathworks, Inc. Version 7.4.0.287 (R2007a). Operating System: Microsoft Windows XP.
%%Title: D:\Work\Courses\Iteratieve methoden voor het oplossen van stelsels en eigenwaardeproblemen\trunk\oefeningen\oef_2\vraag_3c_res.eps
%%CreationDate: 03/04/2008  14:42:01
%%DocumentNeededFonts: Helvetica
%%DocumentProcessColors: Cyan Magenta Yellow Black
%%LanguageLevel: 2
%%Pages: 1
%%BoundingBox:    87   262   507   578
%%EndComments

%%BeginProlog
% MathWorks dictionary
/MathWorks 160 dict begin
% definition operators
/bdef {bind def} bind def
/ldef {load def} bind def
/xdef {exch def} bdef
/xstore {exch store} bdef
% operator abbreviations
/c  /clip ldef
/cc /concat ldef
/cp /closepath ldef
/gr /grestore ldef
/gs /gsave ldef
/mt /moveto ldef
/np /newpath ldef
/cm /currentmatrix ldef
/sm /setmatrix ldef
/rm /rmoveto ldef
/rl /rlineto ldef
/s {show newpath} bdef
/sc {setcmykcolor} bdef
/sr /setrgbcolor ldef
/sg /setgray ldef
/w /setlinewidth ldef
/j /setlinejoin ldef
/cap /setlinecap ldef
/rc {rectclip} bdef
/rf {rectfill} bdef
% page state control
/pgsv () def
/bpage {/pgsv save def} bdef
/epage {pgsv restore} bdef
/bplot /gsave ldef
/eplot {stroke grestore} bdef
% orientation switch
/portraitMode 0 def /landscapeMode 1 def /rotateMode 2 def
% coordinate system mappings
/dpi2point 0 def
% font control
/FontSize 0 def
/FMS {/FontSize xstore findfont [FontSize 0 0 FontSize neg 0 0]
  makefont setfont} bdef
/ISOLatin1Encoding where {pop /WindowsLatin1Encoding 256 array bdef
ISOLatin1Encoding WindowsLatin1Encoding copy pop
/.notdef/.notdef/quotesinglbase/florin/quotedblbase/ellipsis/dagger
/daggerdbl/circumflex/perthousand/Scaron/guilsinglleft/OE/.notdef/.notdef
/.notdef/.notdef/quoteleft/quoteright/quotedblleft/quotedblright/bullet
/endash/emdash/tilde/trademark/scaron/guilsinglright/oe/.notdef/.notdef
/Ydieresis WindowsLatin1Encoding 128 32 getinterval astore pop}
{/WindowsLatin1Encoding StandardEncoding bdef} ifelse
/reencode {exch dup where {pop load} {pop StandardEncoding} ifelse
  exch dup 3 1 roll findfont dup length dict begin
  { 1 index /FID ne {def}{pop pop} ifelse } forall
  /Encoding exch def currentdict end definefont pop} bdef
/isroman {findfont /CharStrings get /Agrave known} bdef
/FMSR {3 1 roll 1 index dup isroman {reencode} {pop pop} ifelse
  exch FMS} bdef
/csm {1 dpi2point div -1 dpi2point div scale neg translate
 dup landscapeMode eq {pop -90 rotate}
  {rotateMode eq {90 rotate} if} ifelse} bdef
% line types: solid, dotted, dashed, dotdash
/SO { [] 0 setdash } bdef
/DO { [.5 dpi2point mul 4 dpi2point mul] 0 setdash } bdef
/DA { [6 dpi2point mul] 0 setdash } bdef
/DD { [.5 dpi2point mul 4 dpi2point mul 6 dpi2point mul 4
  dpi2point mul] 0 setdash } bdef
% macros for lines and objects
/L {lineto stroke} bdef
/MP {3 1 roll moveto 1 sub {rlineto} repeat} bdef
/AP {{rlineto} repeat} bdef
/PDlw -1 def
/W {/PDlw currentlinewidth def setlinewidth} def
/PP {closepath eofill} bdef
/DP {closepath stroke} bdef
/MR {4 -2 roll moveto dup  0 exch rlineto exch 0 rlineto
  neg 0 exch rlineto closepath} bdef
/FR {MR stroke} bdef
/PR {MR fill} bdef
/L1i {{currentfile picstr readhexstring pop} image} bdef
/tMatrix matrix def
/MakeOval {newpath tMatrix currentmatrix pop translate scale
0 0 1 0 360 arc tMatrix setmatrix} bdef
/FO {MakeOval stroke} bdef
/PO {MakeOval fill} bdef
/PD {currentlinewidth 2 div 0 360 arc fill
   PDlw -1 eq not {PDlw w /PDlw -1 def} if} def
/FA {newpath tMatrix currentmatrix pop translate scale
  0 0 1 5 -2 roll arc tMatrix setmatrix stroke} bdef
/PA {newpath tMatrix currentmatrix pop	translate 0 0 moveto scale
  0 0 1 5 -2 roll arc closepath tMatrix setmatrix fill} bdef
/FAn {newpath tMatrix currentmatrix pop translate scale
  0 0 1 5 -2 roll arcn tMatrix setmatrix stroke} bdef
/PAn {newpath tMatrix currentmatrix pop translate 0 0 moveto scale
  0 0 1 5 -2 roll arcn closepath tMatrix setmatrix fill} bdef
/vradius 0 def /hradius 0 def /lry 0 def
/lrx 0 def /uly 0 def /ulx 0 def /rad 0 def
/MRR {/vradius xdef /hradius xdef /lry xdef /lrx xdef /uly xdef
  /ulx xdef newpath tMatrix currentmatrix pop ulx hradius add uly
  vradius add translate hradius vradius scale 0 0 1 180 270 arc 
  tMatrix setmatrix lrx hradius sub uly vradius add translate
  hradius vradius scale 0 0 1 270 360 arc tMatrix setmatrix
  lrx hradius sub lry vradius sub translate hradius vradius scale
  0 0 1 0 90 arc tMatrix setmatrix ulx hradius add lry vradius sub
  translate hradius vradius scale 0 0 1 90 180 arc tMatrix setmatrix
  closepath} bdef
/FRR {MRR stroke } bdef
/PRR {MRR fill } bdef
/MlrRR {/lry xdef /lrx xdef /uly xdef /ulx xdef /rad lry uly sub 2 div def
  newpath tMatrix currentmatrix pop ulx rad add uly rad add translate
  rad rad scale 0 0 1 90 270 arc tMatrix setmatrix lrx rad sub lry rad
  sub translate rad rad scale 0 0 1 270 90 arc tMatrix setmatrix
  closepath} bdef
/FlrRR {MlrRR stroke } bdef
/PlrRR {MlrRR fill } bdef
/MtbRR {/lry xdef /lrx xdef /uly xdef /ulx xdef /rad lrx ulx sub 2 div def
  newpath tMatrix currentmatrix pop ulx rad add uly rad add translate
  rad rad scale 0 0 1 180 360 arc tMatrix setmatrix lrx rad sub lry rad
  sub translate rad rad scale 0 0 1 0 180 arc tMatrix setmatrix
  closepath} bdef
/FtbRR {MtbRR stroke } bdef
/PtbRR {MtbRR fill } bdef
/stri 6 array def /dtri 6 array def
/smat 6 array def /dmat 6 array def
/tmat1 6 array def /tmat2 6 array def /dif 3 array def
/asub {/ind2 exch def /ind1 exch def dup dup
  ind1 get exch ind2 get sub exch } bdef
/tri_to_matrix {
  2 0 asub 3 1 asub 4 0 asub 5 1 asub
  dup 0 get exch 1 get 7 -1 roll astore } bdef
/compute_transform {
  dmat dtri tri_to_matrix tmat1 invertmatrix 
  smat stri tri_to_matrix tmat2 concatmatrix } bdef
/ds {stri astore pop} bdef
/dt {dtri astore pop} bdef
/db {2 copy /cols xdef /rows xdef mul dup 3 mul string
  currentfile 
  3 index 0 eq {/ASCIIHexDecode filter}
  {/ASCII85Decode filter 3 index 2 eq {/RunLengthDecode filter} if }
  ifelse exch readstring pop
  dup 0 3 index getinterval /rbmap xdef
  dup 2 index dup getinterval /gbmap xdef
  1 index dup 2 mul exch getinterval /bbmap xdef pop pop}bdef
/it {gs np dtri aload pop moveto lineto lineto cp c
  cols rows 8 compute_transform 
  rbmap gbmap bbmap true 3 colorimage gr}bdef
/il {newpath moveto lineto stroke}bdef
currentdict end def
%%EndProlog

%%BeginSetup
MathWorks begin

0 cap

end
%%EndSetup

%%Page: 1 1
%%BeginPageSetup
%%PageBoundingBox:    87   262   507   578
MathWorks begin
bpage
%%EndPageSetup

%%BeginObject: obj1
bplot

/dpi2point 12 def
portraitMode 1044 6936 csm

    0     0  5045  3782 rc
85 dict begin %Colortable dictionary
/c0 { 0.000000 0.000000 0.000000 sr} bdef
/c1 { 1.000000 1.000000 1.000000 sr} bdef
/c2 { 0.900000 0.000000 0.000000 sr} bdef
/c3 { 0.000000 0.820000 0.000000 sr} bdef
/c4 { 0.000000 0.000000 0.800000 sr} bdef
/c5 { 0.910000 0.820000 0.320000 sr} bdef
/c6 { 1.000000 0.260000 0.820000 sr} bdef
/c7 { 0.000000 0.820000 0.820000 sr} bdef
c0
1 j
1 sg
   0    0 5046 3783 rf
6 w
0 3082 3910 0 0 -3082 656 3366 4 MP
PP
-3910 0 0 3082 3910 0 0 -3082 656 3366 5 MP stroke
4 w
DO
0 sg
 656 3366 mt  656  284 L
 656  284 mt  656  284 L
1438 3366 mt 1438  284 L
1438  284 mt 1438  284 L
2220 3366 mt 2220  284 L
2220  284 mt 2220  284 L
3002 3366 mt 3002  284 L
3002  284 mt 3002  284 L
3784 3366 mt 3784  284 L
3784  284 mt 3784  284 L
4566 3366 mt 4566  284 L
4566  284 mt 4566  284 L
 656 3366 mt 4566 3366 L
4566 3366 mt 4566 3366 L
 656 2980 mt 4566 2980 L
4566 2980 mt 4566 2980 L
 656 2595 mt 4566 2595 L
4566 2595 mt 4566 2595 L
 656 2210 mt 4566 2210 L
4566 2210 mt 4566 2210 L
 656 1825 mt 4566 1825 L
4566 1825 mt 4566 1825 L
 656 1439 mt 4566 1439 L
4566 1439 mt 4566 1439 L
 656 1054 mt 4566 1054 L
4566 1054 mt 4566 1054 L
 656  669 mt 4566  669 L
4566  669 mt 4566  669 L
 656  284 mt 4566  284 L
4566  284 mt 4566  284 L
SO
6 w
 656  284 mt 4566  284 L
 656 3366 mt 4566 3366 L
4566 3366 mt 4566  284 L
 656 3366 mt  656  284 L
 656 3366 mt 4566 3366 L
 656 3366 mt  656  284 L
 656 3366 mt  656 3326 L
 656  284 mt  656  323 L
%%IncludeResource: font Helvetica
/Helvetica /WindowsLatin1Encoding 120 FMSR

 623 3511 mt 
(0) s
1438 3366 mt 1438 3326 L
1438  284 mt 1438  323 L
1338 3511 mt 
(200) s
2220 3366 mt 2220 3326 L
2220  284 mt 2220  323 L
2120 3511 mt 
(400) s
3002 3366 mt 3002 3326 L
3002  284 mt 3002  323 L
2902 3511 mt 
(600) s
3784 3366 mt 3784 3326 L
3784  284 mt 3784  323 L
3684 3511 mt 
(800) s
4566 3366 mt 4566 3326 L
4566  284 mt 4566  323 L
4433 3511 mt 
(1000) s
 656 3366 mt  656 3366 L
 656 3366 mt  656 3366 L
DO
 656 3366 mt  656 3366 L
 656 3366 mt  656 3366 L
SO
 656 3366 mt  656 3366 L
 656 3366 mt  656 3366 L
DO
 656 3366 mt  656 3366 L
 656 3366 mt  656 3366 L
SO
 656 3366 mt  656 3366 L
 656 3366 mt  656 3366 L
DO
 656 3366 mt  656 3366 L
 656 3366 mt  656 3366 L
SO
 656 3366 mt  656 3366 L
 656 3366 mt  656 3366 L
DO
 656 3366 mt  656 3366 L
 656 3366 mt  656 3366 L
SO
 656 3366 mt  656 3366 L
 656 3366 mt  656 3366 L
DO
 656 3366 mt  656 3366 L
 656 3366 mt  656 3366 L
SO
 656 3366 mt  656 3366 L
 656 3366 mt  656 3366 L
DO
 656 3366 mt  656 3366 L
 656 3366 mt  656 3366 L
SO
 656 3366 mt  656 3366 L
 656 3366 mt  656 3366 L
DO
 656 3366 mt  656 3366 L
 656 3366 mt  656 3366 L
SO
 656 3366 mt  656 3366 L
 656 3366 mt  656 3366 L
DO
 656 3366 mt  656 3366 L
 656 3366 mt  656 3366 L
SO
 656 3366 mt  656 3366 L
 656 3366 mt  656 3366 L
DO
 656 3366 mt  656 3366 L
 656 3366 mt  656 3366 L
SO
 656 3366 mt  695 3366 L
4566 3366 mt 4526 3366 L
 353 3410 mt 
(10) s
%%IncludeResource: font Helvetica
/Helvetica /WindowsLatin1Encoding 80 FMSR

 486 3336 mt 
(-16) s
 656 3366 mt  656 3366 L
 656 3366 mt  656 3366 L
DO
 656 3366 mt  656 3366 L
 656 3366 mt  656 3366 L
SO
 656 3366 mt  656 3366 L
 656 3366 mt  656 3366 L
DO
 656 3366 mt  656 3366 L
 656 3366 mt  656 3366 L
SO
 656 3366 mt  656 3366 L
 656 3366 mt  656 3366 L
DO
 656 3366 mt  656 3366 L
 656 3366 mt  656 3366 L
SO
 656 3366 mt  656 3366 L
 656 3366 mt  656 3366 L
DO
 656 3366 mt  656 3366 L
 656 3366 mt  656 3366 L
SO
 656 3366 mt  656 3366 L
 656 3366 mt  656 3366 L
DO
 656 3366 mt  656 3366 L
 656 3366 mt  656 3366 L
SO
 656 3366 mt  656 3366 L
 656 3366 mt  656 3366 L
DO
 656 3366 mt  656 3366 L
 656 3366 mt  656 3366 L
SO
 656 3366 mt  656 3366 L
 656 3366 mt  656 3366 L
DO
 656 3366 mt  656 3366 L
 656 3366 mt  656 3366 L
SO
 656 3366 mt  656 3366 L
 656 3366 mt  656 3366 L
DO
 656 3366 mt  656 3366 L
 656 3366 mt  656 3366 L
SO
 656 3366 mt  656 3366 L
 656 3366 mt  656 3366 L
DO
 656 3366 mt  656 3366 L
 656 3366 mt  656 3366 L
SO
 656 2980 mt  695 2980 L
4566 2980 mt 4526 2980 L
%%IncludeResource: font Helvetica
/Helvetica /WindowsLatin1Encoding 120 FMSR

 353 3024 mt 
(10) s
%%IncludeResource: font Helvetica
/Helvetica /WindowsLatin1Encoding 80 FMSR

 486 2950 mt 
(-14) s
 656 3366 mt  656 3366 L
 656 3366 mt  656 3366 L
DO
 656 3366 mt  656 3366 L
 656 3366 mt  656 3366 L
SO
 656 3366 mt  656 3366 L
 656 3366 mt  656 3366 L
DO
 656 3366 mt  656 3366 L
 656 3366 mt  656 3366 L
SO
 656 3366 mt  656 3366 L
 656 3366 mt  656 3366 L
DO
 656 3366 mt  656 3366 L
 656 3366 mt  656 3366 L
SO
 656 3366 mt  656 3366 L
 656 3366 mt  656 3366 L
DO
 656 3366 mt  656 3366 L
 656 3366 mt  656 3366 L
SO
 656 3366 mt  656 3366 L
 656 3366 mt  656 3366 L
DO
 656 3366 mt  656 3366 L
 656 3366 mt  656 3366 L
SO
 656 3366 mt  656 3366 L
 656 3366 mt  656 3366 L
DO
 656 3366 mt  656 3366 L
 656 3366 mt  656 3366 L
SO
 656 3366 mt  656 3366 L
 656 3366 mt  656 3366 L
DO
 656 3366 mt  656 3366 L
 656 3366 mt  656 3366 L
SO
 656 3366 mt  656 3366 L
 656 3366 mt  656 3366 L
DO
 656 3366 mt  656 3366 L
 656 3366 mt  656 3366 L
SO
 656 3366 mt  656 3366 L
 656 3366 mt  656 3366 L
DO
 656 3366 mt  656 3366 L
 656 3366 mt  656 3366 L
SO
 656 2595 mt  695 2595 L
4566 2595 mt 4526 2595 L
%%IncludeResource: font Helvetica
/Helvetica /WindowsLatin1Encoding 120 FMSR

 353 2639 mt 
(10) s
%%IncludeResource: font Helvetica
/Helvetica /WindowsLatin1Encoding 80 FMSR

 486 2565 mt 
(-12) s
 656 3366 mt  656 3366 L
 656 3366 mt  656 3366 L
DO
 656 3366 mt  656 3366 L
 656 3366 mt  656 3366 L
SO
 656 3366 mt  656 3366 L
 656 3366 mt  656 3366 L
DO
 656 3366 mt  656 3366 L
 656 3366 mt  656 3366 L
SO
 656 3366 mt  656 3366 L
 656 3366 mt  656 3366 L
DO
 656 3366 mt  656 3366 L
 656 3366 mt  656 3366 L
SO
 656 3366 mt  656 3366 L
 656 3366 mt  656 3366 L
DO
 656 3366 mt  656 3366 L
 656 3366 mt  656 3366 L
SO
 656 3366 mt  656 3366 L
 656 3366 mt  656 3366 L
DO
 656 3366 mt  656 3366 L
 656 3366 mt  656 3366 L
SO
 656 3366 mt  656 3366 L
 656 3366 mt  656 3366 L
DO
 656 3366 mt  656 3366 L
 656 3366 mt  656 3366 L
SO
 656 3366 mt  656 3366 L
 656 3366 mt  656 3366 L
DO
 656 3366 mt  656 3366 L
 656 3366 mt  656 3366 L
SO
 656 3366 mt  656 3366 L
 656 3366 mt  656 3366 L
DO
 656 3366 mt  656 3366 L
 656 3366 mt  656 3366 L
SO
 656 3366 mt  656 3366 L
 656 3366 mt  656 3366 L
DO
 656 3366 mt  656 3366 L
 656 3366 mt  656 3366 L
SO
 656 2210 mt  695 2210 L
4566 2210 mt 4526 2210 L
%%IncludeResource: font Helvetica
/Helvetica /WindowsLatin1Encoding 120 FMSR

 353 2254 mt 
(10) s
%%IncludeResource: font Helvetica
/Helvetica /WindowsLatin1Encoding 80 FMSR

 486 2180 mt 
(-10) s
 656 3366 mt  656 3366 L
 656 3366 mt  656 3366 L
DO
 656 3366 mt  656 3366 L
 656 3366 mt  656 3366 L
SO
 656 3366 mt  656 3366 L
 656 3366 mt  656 3366 L
DO
 656 3366 mt  656 3366 L
 656 3366 mt  656 3366 L
SO
 656 3366 mt  656 3366 L
 656 3366 mt  656 3366 L
DO
 656 3366 mt  656 3366 L
 656 3366 mt  656 3366 L
SO
 656 3366 mt  656 3366 L
 656 3366 mt  656 3366 L
DO
 656 3366 mt  656 3366 L
 656 3366 mt  656 3366 L
SO
 656 3366 mt  656 3366 L
 656 3366 mt  656 3366 L
DO
 656 3366 mt  656 3366 L
 656 3366 mt  656 3366 L
SO
 656 3366 mt  656 3366 L
 656 3366 mt  656 3366 L
DO
 656 3366 mt  656 3366 L
 656 3366 mt  656 3366 L
SO
 656 3366 mt  656 3366 L
 656 3366 mt  656 3366 L
DO
 656 3366 mt  656 3366 L
 656 3366 mt  656 3366 L
SO
 656 3366 mt  656 3366 L
 656 3366 mt  656 3366 L
DO
 656 3366 mt  656 3366 L
 656 3366 mt  656 3366 L
SO
 656 3366 mt  656 3366 L
 656 3366 mt  656 3366 L
DO
 656 3366 mt  656 3366 L
 656 3366 mt  656 3366 L
SO
 656 1825 mt  695 1825 L
4566 1825 mt 4526 1825 L
%%IncludeResource: font Helvetica
/Helvetica /WindowsLatin1Encoding 120 FMSR

 353 1869 mt 
(10) s
%%IncludeResource: font Helvetica
/Helvetica /WindowsLatin1Encoding 80 FMSR

 486 1795 mt 
(-8) s
 656 3366 mt  656 3366 L
 656 3366 mt  656 3366 L
DO
 656 3366 mt  656 3366 L
 656 3366 mt  656 3366 L
SO
 656 3366 mt  656 3366 L
 656 3366 mt  656 3366 L
DO
 656 3366 mt  656 3366 L
 656 3366 mt  656 3366 L
SO
 656 3366 mt  656 3366 L
 656 3366 mt  656 3366 L
DO
 656 3366 mt  656 3366 L
 656 3366 mt  656 3366 L
SO
 656 3366 mt  656 3366 L
 656 3366 mt  656 3366 L
DO
 656 3366 mt  656 3366 L
 656 3366 mt  656 3366 L
SO
 656 3366 mt  656 3366 L
 656 3366 mt  656 3366 L
DO
 656 3366 mt  656 3366 L
 656 3366 mt  656 3366 L
SO
 656 3366 mt  656 3366 L
 656 3366 mt  656 3366 L
DO
 656 3366 mt  656 3366 L
 656 3366 mt  656 3366 L
SO
 656 3366 mt  656 3366 L
 656 3366 mt  656 3366 L
DO
 656 3366 mt  656 3366 L
 656 3366 mt  656 3366 L
SO
 656 3366 mt  656 3366 L
 656 3366 mt  656 3366 L
DO
 656 3366 mt  656 3366 L
 656 3366 mt  656 3366 L
SO
 656 3366 mt  656 3366 L
 656 3366 mt  656 3366 L
DO
 656 3366 mt  656 3366 L
 656 3366 mt  656 3366 L
SO
 656 1439 mt  695 1439 L
4566 1439 mt 4526 1439 L
%%IncludeResource: font Helvetica
/Helvetica /WindowsLatin1Encoding 120 FMSR

 353 1483 mt 
(10) s
%%IncludeResource: font Helvetica
/Helvetica /WindowsLatin1Encoding 80 FMSR

 486 1409 mt 
(-6) s
 656 3366 mt  656 3366 L
 656 3366 mt  656 3366 L
DO
 656 3366 mt  656 3366 L
 656 3366 mt  656 3366 L
SO
 656 3366 mt  656 3366 L
 656 3366 mt  656 3366 L
DO
 656 3366 mt  656 3366 L
 656 3366 mt  656 3366 L
SO
 656 3366 mt  656 3366 L
 656 3366 mt  656 3366 L
DO
 656 3366 mt  656 3366 L
 656 3366 mt  656 3366 L
SO
 656 3366 mt  656 3366 L
 656 3366 mt  656 3366 L
DO
 656 3366 mt  656 3366 L
 656 3366 mt  656 3366 L
SO
 656 3366 mt  656 3366 L
 656 3366 mt  656 3366 L
DO
 656 3366 mt  656 3366 L
 656 3366 mt  656 3366 L
SO
 656 3366 mt  656 3366 L
 656 3366 mt  656 3366 L
DO
 656 3366 mt  656 3366 L
 656 3366 mt  656 3366 L
SO
 656 3366 mt  656 3366 L
 656 3366 mt  656 3366 L
DO
 656 3366 mt  656 3366 L
 656 3366 mt  656 3366 L
SO
 656 3366 mt  656 3366 L
 656 3366 mt  656 3366 L
DO
 656 3366 mt  656 3366 L
 656 3366 mt  656 3366 L
SO
 656 3366 mt  656 3366 L
 656 3366 mt  656 3366 L
DO
 656 3366 mt  656 3366 L
 656 3366 mt  656 3366 L
SO
 656 1054 mt  695 1054 L
4566 1054 mt 4526 1054 L
%%IncludeResource: font Helvetica
/Helvetica /WindowsLatin1Encoding 120 FMSR

 353 1098 mt 
(10) s
%%IncludeResource: font Helvetica
/Helvetica /WindowsLatin1Encoding 80 FMSR

 486 1024 mt 
(-4) s
 656 3366 mt  656 3366 L
 656 3366 mt  656 3366 L
DO
 656 3366 mt  656 3366 L
 656 3366 mt  656 3366 L
SO
 656 3366 mt  656 3366 L
 656 3366 mt  656 3366 L
DO
 656 3366 mt  656 3366 L
 656 3366 mt  656 3366 L
SO
 656 3366 mt  656 3366 L
 656 3366 mt  656 3366 L
DO
 656 3366 mt  656 3366 L
 656 3366 mt  656 3366 L
SO
 656 3366 mt  656 3366 L
 656 3366 mt  656 3366 L
DO
 656 3366 mt  656 3366 L
 656 3366 mt  656 3366 L
SO
 656 3366 mt  656 3366 L
 656 3366 mt  656 3366 L
DO
 656 3366 mt  656 3366 L
 656 3366 mt  656 3366 L
SO
 656 3366 mt  656 3366 L
 656 3366 mt  656 3366 L
DO
 656 3366 mt  656 3366 L
 656 3366 mt  656 3366 L
SO
 656 3366 mt  656 3366 L
 656 3366 mt  656 3366 L
DO
 656 3366 mt  656 3366 L
 656 3366 mt  656 3366 L
SO
 656 3366 mt  656 3366 L
 656 3366 mt  656 3366 L
DO
 656 3366 mt  656 3366 L
 656 3366 mt  656 3366 L
SO
 656 3366 mt  656 3366 L
 656 3366 mt  656 3366 L
DO
 656 3366 mt  656 3366 L
 656 3366 mt  656 3366 L
SO
 656  669 mt  695  669 L
4566  669 mt 4526  669 L
%%IncludeResource: font Helvetica
/Helvetica /WindowsLatin1Encoding 120 FMSR

 353  713 mt 
(10) s
%%IncludeResource: font Helvetica
/Helvetica /WindowsLatin1Encoding 80 FMSR

 486  639 mt 
(-2) s
 656 3366 mt  656 3366 L
 656 3366 mt  656 3366 L
DO
 656 3366 mt  656 3366 L
 656 3366 mt  656 3366 L
SO
 656 3366 mt  656 3366 L
 656 3366 mt  656 3366 L
DO
 656 3366 mt  656 3366 L
 656 3366 mt  656 3366 L
SO
 656 3366 mt  656 3366 L
 656 3366 mt  656 3366 L
DO
 656 3366 mt  656 3366 L
 656 3366 mt  656 3366 L
SO
 656 3366 mt  656 3366 L
 656 3366 mt  656 3366 L
DO
 656 3366 mt  656 3366 L
 656 3366 mt  656 3366 L
SO
 656 3366 mt  656 3366 L
 656 3366 mt  656 3366 L
DO
 656 3366 mt  656 3366 L
 656 3366 mt  656 3366 L
SO
 656 3366 mt  656 3366 L
 656 3366 mt  656 3366 L
DO
 656 3366 mt  656 3366 L
 656 3366 mt  656 3366 L
SO
 656 3366 mt  656 3366 L
 656 3366 mt  656 3366 L
DO
 656 3366 mt  656 3366 L
 656 3366 mt  656 3366 L
SO
 656 3366 mt  656 3366 L
 656 3366 mt  656 3366 L
DO
 656 3366 mt  656 3366 L
 656 3366 mt  656 3366 L
SO
 656 3366 mt  656 3366 L
 656 3366 mt  656 3366 L
DO
 656 3366 mt  656 3366 L
 656 3366 mt  656 3366 L
SO
 656  284 mt  695  284 L
4566  284 mt 4526  284 L
%%IncludeResource: font Helvetica
/Helvetica /WindowsLatin1Encoding 120 FMSR

 353  328 mt 
(10) s
%%IncludeResource: font Helvetica
/Helvetica /WindowsLatin1Encoding 80 FMSR

 486  254 mt 
(0) s
 656 3366 mt  656 3366 L
 656 3366 mt  656 3366 L
DO
 656 3366 mt  656 3366 L
 656 3366 mt  656 3366 L
SO
 656 3366 mt  656 3366 L
 656 3366 mt  656 3366 L
DO
 656 3366 mt  656 3366 L
 656 3366 mt  656 3366 L
SO
 656 3366 mt  656 3366 L
 656 3366 mt  656 3366 L
DO
 656 3366 mt  656 3366 L
 656 3366 mt  656 3366 L
SO
 656 3366 mt  656 3366 L
 656 3366 mt  656 3366 L
DO
 656 3366 mt  656 3366 L
 656 3366 mt  656 3366 L
SO
 656 3366 mt  656 3366 L
 656 3366 mt  656 3366 L
DO
 656 3366 mt  656 3366 L
 656 3366 mt  656 3366 L
SO
 656 3366 mt  656 3366 L
 656 3366 mt  656 3366 L
DO
 656 3366 mt  656 3366 L
 656 3366 mt  656 3366 L
SO
 656 3366 mt  656 3366 L
 656 3366 mt  656 3366 L
DO
 656 3366 mt  656 3366 L
 656 3366 mt  656 3366 L
SO
 656 3366 mt  656 3366 L
 656 3366 mt  656 3366 L
DO
 656 3366 mt  656 3366 L
 656 3366 mt  656 3366 L
SO
 656 3366 mt  656 3366 L
 656 3366 mt  656 3366 L
DO
 656 3366 mt  656 3366 L
 656 3366 mt  656 3366 L
SO
 656  284 mt 4566  284 L
 656 3366 mt 4566 3366 L
4566 3366 mt 4566  284 L
 656 3366 mt  656  284 L
gs 656 283 3911 3083 rc
/c8 { 0.000000 0.000000 1.000000 sr} bdef
c8
4 0 4 0 4 0 4 0 4 0 4 0 4 0 4 0 
4 0 4 0 4 0 3 0 4 0 4 0 4 0 4 0 
4 0 4 0 4 0 4 0 4 0 4 0 3 0 4 0 
4 0 4 0 4 0 4 0 4 0 4 0 4 0 4 0 
4 0 3 0 4 0 4 0 4 0 4 0 4 0 4 0 
4 0 4 0 4 0 4 0 3 0 4 0 4 0 4 0 
4 0 4 0 4 0 4 0 4 0 4 0 4 0 3 0 
4 0 4 0 4 0 4 0 4 0 4 0 4 0 4 0 
4 0 4 0 3 0 4 0 4 0 4 0 4 0 4 0 
4 0 4 0 4 0 4 0 4 0 3 0 4 0 4 0 
4 0 4 0 4 0 4 0 4 0 4 0 4 0 4 0 
3 0 4 0 4 0 4 0 4 0 4 0 4 0 4 0 
4 0 4 0 4 0 3 0 4 0 4 0 4 0 4 0 
4 0 4 0 4 0 4 0 4 0 4 0 4 0 3 0 
4 0 4 0 4 0 4 0 4 0 4 0 4 0 4 0 
4 0 4 0 3 0 4 0 4 0 4 0 4 0 4 0 
4 0 4 0 4 0 4 0 4 0 3 0 4 0 4 0 
4 0 4 0 4 0 4 0 4 0 4 0 4 0 4 0 
3 0 4 0 4 0 4 0 4 0 4 0 4 0 4 0 
4 0 4 0 4 0 3 0 4 0 4 0 4 0 4 0 
4 0 4 0 4 0 4 0 4 0 4 0 3 0 4 0 
4 0 4 0 4 0 4 0 4 0 4 0 4 0 4 0 
4 0 3 0 4 0 4 0 4 0 4 0 4 0 4 0 
4 0 4 0 4 0 4 0 3 0 4 0 4 0 4 0 
4 0 4 0 4 0 4 0 4 0 4 0 4 0 3 0 
4 0 4 0 4 0 4 0 4 0 4 0 4 0 4 0 
4 0 4 0 4 0 3 0 4 0 4 0 4 0 4 0 
4 0 4 0 4 0 4 0 4 0 4 0 3 0 4 0 
4 0 4 0 4 0 4 0 4 0 4 0 4 0 4 0 
4 0 3 0 4 0 4 0 4 0 4 0 4 0 4 0 
4 0 4 0 4 0 4 0 3 0 4 0 4 0 4 0 
4 0 4 0 4 0 4 0 4 0 4 0 4 0 3 0 
4 0 4 0 4 0 4 0 4 0 4 0 4 0 4 0 
4 0 4 0 3 0 4 0 4 0 4 0 4 0 4 0 
4 0 4 0 4 0 4 0 4 0 3 0 4 0 4 0 
4 0 4 0 4 0 4 0 4 0 4 0 4 0 4 0 
3 0 4 0 4 0 4 0 4 0 4 0 4 0 4 0 
4 0 4 0 4 0 3396 3143 300 MP stroke
3 0 4 0 4 0 4 0 4 0 4 0 4 0 4 0 
4 0 4 0 4 0 4 0 3 0 4 0 4 0 4 0 
4 0 4 0 4 0 4 0 4 0 4 0 4 0 3 0 
4 0 4 0 4 0 4 0 4 0 4 0 4 0 4 0 
4 0 4 0 3 0 4 0 4 0 4 0 4 0 4 0 
4 0 4 0 4 0 4 0 4 0 3 0 4 0 4 0 
4 0 4 0 4 0 4 0 4 0 4 0 4 0 4 0 
3 0 4 0 4 0 4 0 4 0 4 0 4 0 4 0 
4 0 4 0 4 0 3 0 4 0 4 0 4 0 4 0 
4 0 4 0 4 0 4 0 4 0 4 0 3 0 4 0 
4 0 4 0 4 0 4 0 4 0 4 0 4 0 4 0 
4 0 3 0 4 0 4 0 4 0 4 0 4 0 4 0 
4 0 4 0 4 0 4 0 3 0 4 0 4 0 4 0 
4 0 4 0 4 0 4 0 4 0 4 0 4 0 4 0 
3 0 4 0 4 0 4 0 4 0 4 0 4 0 4 0 
4 0 4 0 4 0 3 0 4 0 4 0 4 0 4 0 
4 0 4 0 4 0 4 0 4 0 4 0 3 0 4 0 
4 0 4 -1 4 -8 4 -28 4 6 4 -12 4 4 4 -8 
4 46 3 1 4 -20 4 10 4 11 4 -34 4 38 4 -25 
4 2 4 34 4 -19 4 1 3 -8 4 36 4 -20 4 -4 
4 23 4 -5 4 12 4 -13 4 16 4 2 4 7 3 0 
4 5 4 11 4 -7 4 9 4 5 4 12 4 3 4 1 
4 0 4 8 3 7 4 7 4 3 4 5 4 0 4 12 
4 2 4 3 4 8 4 1 4 9 3 4 4 7 4 4 
4 4 4 4 4 7 4 4 4 5 4 5 4 5 4 5 
3 6 4 4 4 6 4 5 4 5 4 6 4 4 4 6 
4 6 4 4 4 5 4 6 3 5 4 5 4 5 4 5 
4 6 4 5 4 5 4 5 4 5 4 6 4 5 3 5 
4 5 4 6 4 5 4 5 4 5 4 5 4 5 4 6 
4 5 4 5 3 5 4 5 4 6 4 5 4 5 4 5 
4 5 4 6 4 5 4 5 4 5 3 5 4 6 4 5 
4 5 4 5 4 5 4 6 4 5 4 5 4 5 4 6 
3 5 4 5 4 5 4 5 4 5 4 6 4 5 4 5 
4 5 4 6 4 5 3 5 4 5 4 5 4 6 4 5 
4 5 4 5 4 5 4 6 4 5 4 5 3 5 4 5 
4 6 4 5 4 5 4 5 4 5 4 6 4 5 4 5 
4 5 3 5 4 6 4 5 4 5 4 5 4 5 4 6 
4 5 4 5 4 5 2227 2426 300 MP stroke
4 5 3 6 4 5 4 5 4 5 4 5 4 6 4 5 
4 5 4 5 4 5 4 6 4 5 3 5 4 5 4 5 
4 6 4 5 4 5 4 5 4 6 4 5 4 5 4 5 
3 5 4 6 4 5 4 5 4 5 4 5 4 6 4 5 
4 5 4 5 4 5 3 6 4 5 4 5 4 5 4 5 
4 6 4 5 4 5 4 5 4 5 4 6 3 5 4 5 
4 5 4 5 4 6 4 5 4 5 4 5 4 5 4 6 
4 5 3 5 4 5 4 5 4 6 4 5 4 5 4 5 
4 5 4 6 4 5 4 5 3 5 4 5 4 6 4 5 
4 5 4 5 4 5 4 6 4 5 4 5 4 5 3 6 
4 5 4 5 4 5 4 5 4 6 4 5 4 5 4 5 
4 5 4 6 3 5 4 5 4 5 4 5 4 6 4 5 
4 5 4 5 4 5 4 6 4 5 3 5 4 5 4 5 
4 6 4 5 4 5 4 5 4 5 4 6 4 5 4 5 
4 5 3 5 4 6 4 5 4 5 4 5 4 5 4 6 
4 5 4 5 4 5 4 5 3 6 4 5 4 5 4 5 
4 5 4 6 4 5 4 5 4 5 4 6 4 5 3 5 
4 5 4 5 4 6 4 5 4 5 4 5 4 5 4 6 
4 5 4 5 3 5 4 5 4 6 4 5 4 5 4 5 
4 5 4 6 4 5 4 5 4 5 3 5 4 6 4 5 
4 5 4 5 4 5 4 6 4 5 4 5 4 5 4 5 
3 6 4 5 4 5 4 5 4 5 4 6 4 5 4 5 
4 5 4 5 4 6 3 5 4 5 4 5 4 5 4 6 
4 5 4 5 4 5 4 6 4 5 4 5 3 5 4 5 
4 6 4 5 4 5 4 5 4 5 4 6 4 5 4 5 
4 5 3 5 4 6 4 5 4 5 4 5 4 5 4 6 
4 5 4 5 4 5 4 5 4 6 3 5 4 5 4 5 
4 5 4 6 4 5 4 5 4 5 4 5 4 6 4 5 
3 5 4 5 4 5 4 6 4 5 4 5 4 5 4 5 
4 6 4 5 4 5 3 5 4 5 4 6 4 5 4 5 
4 5 4 5 4 6 4 5 4 5 4 5 3 6 4 5 
4 5 4 5 4 5 4 6 4 5 4 5 4 5 4 5 
4 6 3 5 4 5 4 5 4 5 4 6 4 5 4 5 
4 5 4 5 4 6 4 5 3 5 4 5 4 5 4 6 
4 5 4 5 4 5 4 5 4 6 4 5 4 5 3 5 
4 5 4 6 4 5 4 5 4 5 4 5 4 6 4 5 
4 5 4 5 3 5 4 6 4 5 4 5 4 5 4 5 
4 6 4 5 4 5 1058 870 300 MP stroke
4 5 4 6 3 5 4 5 4 5 4 5 4 6 4 5 
4 5 4 5 4 5 4 6 4 5 4 5 3 5 4 5 
4 6 4 5 4 5 4 5 4 5 4 6 4 5 4 5 
4 5 3 5 4 6 4 5 4 5 4 5 4 5 4 6 
4 5 4 5 4 5 4 5 3 6 4 5 4 5 4 5 
4 5 4 6 4 5 4 5 4 5 4 5 4 6 3 5 
4 5 4 5 4 5 4 6 4 5 4 5 4 5 4 6 
4 5 4 5 3 5 4 5 4 6 4 5 4 5 4 5 
4 5 4 6 4 5 4 5 4 5 3 5 4 6 4 5 
4 5 4 5 4 5 4 6 4 5 4 5 4 5 4 5 
3 6 4 5 4 5 4 5 4 5 4 6 4 5 4 5 
4 5 4 5 4 6 3 5 4 5 4 5 4 5 4 6 
4 5 4 5 4 5 4 5 4 6 4 5 659 339 103 MP stroke
gr

c8
0 sg
%%IncludeResource: font Helvetica
/Helvetica /WindowsLatin1Encoding 120 FMSR

2397 3654 mt 
(iteration) s
 271 1908 mt  -90 rotate
(||r||) s
90 rotate
1507  188 mt 
(Residual convergence of weighted Jacobi) s

end %%Color Dict

eplot
%%EndObject

epage
end

showpage

%%Trailer
%%EOF
