%!PS-Adobe-3.0 EPSF-3.0
%%Creator: MATLAB, The Mathworks, Inc. Version 7.4.0.287 (R2007a). Operating System: Microsoft Windows XP.
%%Title: D:\Work\Courses\Iteratieve methoden voor het oplossen van stelsels en eigenwaardeproblemen\trunk\oefeningen\oef_2\vraag_3b.eps
%%CreationDate: 03/04/2008  14:32:54
%%DocumentNeededFonts: Helvetica
%%DocumentProcessColors: Cyan Magenta Yellow Black
%%LanguageLevel: 2
%%Pages: 1
%%BoundingBox:  -126    75   721   766
%%EndComments

%%BeginProlog
% MathWorks dictionary
/MathWorks 160 dict begin
% definition operators
/bdef {bind def} bind def
/ldef {load def} bind def
/xdef {exch def} bdef
/xstore {exch store} bdef
% operator abbreviations
/c  /clip ldef
/cc /concat ldef
/cp /closepath ldef
/gr /grestore ldef
/gs /gsave ldef
/mt /moveto ldef
/np /newpath ldef
/cm /currentmatrix ldef
/sm /setmatrix ldef
/rm /rmoveto ldef
/rl /rlineto ldef
/s {show newpath} bdef
/sc {setcmykcolor} bdef
/sr /setrgbcolor ldef
/sg /setgray ldef
/w /setlinewidth ldef
/j /setlinejoin ldef
/cap /setlinecap ldef
/rc {rectclip} bdef
/rf {rectfill} bdef
% page state control
/pgsv () def
/bpage {/pgsv save def} bdef
/epage {pgsv restore} bdef
/bplot /gsave ldef
/eplot {stroke grestore} bdef
% orientation switch
/portraitMode 0 def /landscapeMode 1 def /rotateMode 2 def
% coordinate system mappings
/dpi2point 0 def
% font control
/FontSize 0 def
/FMS {/FontSize xstore findfont [FontSize 0 0 FontSize neg 0 0]
  makefont setfont} bdef
/ISOLatin1Encoding where {pop /WindowsLatin1Encoding 256 array bdef
ISOLatin1Encoding WindowsLatin1Encoding copy pop
/.notdef/.notdef/quotesinglbase/florin/quotedblbase/ellipsis/dagger
/daggerdbl/circumflex/perthousand/Scaron/guilsinglleft/OE/.notdef/.notdef
/.notdef/.notdef/quoteleft/quoteright/quotedblleft/quotedblright/bullet
/endash/emdash/tilde/trademark/scaron/guilsinglright/oe/.notdef/.notdef
/Ydieresis WindowsLatin1Encoding 128 32 getinterval astore pop}
{/WindowsLatin1Encoding StandardEncoding bdef} ifelse
/reencode {exch dup where {pop load} {pop StandardEncoding} ifelse
  exch dup 3 1 roll findfont dup length dict begin
  { 1 index /FID ne {def}{pop pop} ifelse } forall
  /Encoding exch def currentdict end definefont pop} bdef
/isroman {findfont /CharStrings get /Agrave known} bdef
/FMSR {3 1 roll 1 index dup isroman {reencode} {pop pop} ifelse
  exch FMS} bdef
/csm {1 dpi2point div -1 dpi2point div scale neg translate
 dup landscapeMode eq {pop -90 rotate}
  {rotateMode eq {90 rotate} if} ifelse} bdef
% line types: solid, dotted, dashed, dotdash
/SO { [] 0 setdash } bdef
/DO { [.5 dpi2point mul 4 dpi2point mul] 0 setdash } bdef
/DA { [6 dpi2point mul] 0 setdash } bdef
/DD { [.5 dpi2point mul 4 dpi2point mul 6 dpi2point mul 4
  dpi2point mul] 0 setdash } bdef
% macros for lines and objects
/L {lineto stroke} bdef
/MP {3 1 roll moveto 1 sub {rlineto} repeat} bdef
/AP {{rlineto} repeat} bdef
/PDlw -1 def
/W {/PDlw currentlinewidth def setlinewidth} def
/PP {closepath eofill} bdef
/DP {closepath stroke} bdef
/MR {4 -2 roll moveto dup  0 exch rlineto exch 0 rlineto
  neg 0 exch rlineto closepath} bdef
/FR {MR stroke} bdef
/PR {MR fill} bdef
/L1i {{currentfile picstr readhexstring pop} image} bdef
/tMatrix matrix def
/MakeOval {newpath tMatrix currentmatrix pop translate scale
0 0 1 0 360 arc tMatrix setmatrix} bdef
/FO {MakeOval stroke} bdef
/PO {MakeOval fill} bdef
/PD {currentlinewidth 2 div 0 360 arc fill
   PDlw -1 eq not {PDlw w /PDlw -1 def} if} def
/FA {newpath tMatrix currentmatrix pop translate scale
  0 0 1 5 -2 roll arc tMatrix setmatrix stroke} bdef
/PA {newpath tMatrix currentmatrix pop	translate 0 0 moveto scale
  0 0 1 5 -2 roll arc closepath tMatrix setmatrix fill} bdef
/FAn {newpath tMatrix currentmatrix pop translate scale
  0 0 1 5 -2 roll arcn tMatrix setmatrix stroke} bdef
/PAn {newpath tMatrix currentmatrix pop translate 0 0 moveto scale
  0 0 1 5 -2 roll arcn closepath tMatrix setmatrix fill} bdef
/vradius 0 def /hradius 0 def /lry 0 def
/lrx 0 def /uly 0 def /ulx 0 def /rad 0 def
/MRR {/vradius xdef /hradius xdef /lry xdef /lrx xdef /uly xdef
  /ulx xdef newpath tMatrix currentmatrix pop ulx hradius add uly
  vradius add translate hradius vradius scale 0 0 1 180 270 arc 
  tMatrix setmatrix lrx hradius sub uly vradius add translate
  hradius vradius scale 0 0 1 270 360 arc tMatrix setmatrix
  lrx hradius sub lry vradius sub translate hradius vradius scale
  0 0 1 0 90 arc tMatrix setmatrix ulx hradius add lry vradius sub
  translate hradius vradius scale 0 0 1 90 180 arc tMatrix setmatrix
  closepath} bdef
/FRR {MRR stroke } bdef
/PRR {MRR fill } bdef
/MlrRR {/lry xdef /lrx xdef /uly xdef /ulx xdef /rad lry uly sub 2 div def
  newpath tMatrix currentmatrix pop ulx rad add uly rad add translate
  rad rad scale 0 0 1 90 270 arc tMatrix setmatrix lrx rad sub lry rad
  sub translate rad rad scale 0 0 1 270 90 arc tMatrix setmatrix
  closepath} bdef
/FlrRR {MlrRR stroke } bdef
/PlrRR {MlrRR fill } bdef
/MtbRR {/lry xdef /lrx xdef /uly xdef /ulx xdef /rad lrx ulx sub 2 div def
  newpath tMatrix currentmatrix pop ulx rad add uly rad add translate
  rad rad scale 0 0 1 180 360 arc tMatrix setmatrix lrx rad sub lry rad
  sub translate rad rad scale 0 0 1 0 180 arc tMatrix setmatrix
  closepath} bdef
/FtbRR {MtbRR stroke } bdef
/PtbRR {MtbRR fill } bdef
/stri 6 array def /dtri 6 array def
/smat 6 array def /dmat 6 array def
/tmat1 6 array def /tmat2 6 array def /dif 3 array def
/asub {/ind2 exch def /ind1 exch def dup dup
  ind1 get exch ind2 get sub exch } bdef
/tri_to_matrix {
  2 0 asub 3 1 asub 4 0 asub 5 1 asub
  dup 0 get exch 1 get 7 -1 roll astore } bdef
/compute_transform {
  dmat dtri tri_to_matrix tmat1 invertmatrix 
  smat stri tri_to_matrix tmat2 concatmatrix } bdef
/ds {stri astore pop} bdef
/dt {dtri astore pop} bdef
/db {2 copy /cols xdef /rows xdef mul dup 3 mul string
  currentfile 
  3 index 0 eq {/ASCIIHexDecode filter}
  {/ASCII85Decode filter 3 index 2 eq {/RunLengthDecode filter} if }
  ifelse exch readstring pop
  dup 0 3 index getinterval /rbmap xdef
  dup 2 index dup getinterval /gbmap xdef
  1 index dup 2 mul exch getinterval /bbmap xdef pop pop}bdef
/it {gs np dtri aload pop moveto lineto lineto cp c
  cols rows 8 compute_transform 
  rbmap gbmap bbmap true 3 colorimage gr}bdef
/il {newpath moveto lineto stroke}bdef
currentdict end def
%%EndProlog

%%BeginSetup
MathWorks begin

0 cap

end
%%EndSetup

%%Page: 1 1
%%BeginPageSetup
%%PageBoundingBox:  -126    75   721   766
MathWorks begin
bpage
%%EndPageSetup

%%BeginObject: obj1
bplot

/dpi2point 12 def
portraitMode -1512 9192 csm

    0     0 10169  8284 rc
85 dict begin %Colortable dictionary
/c0 { 0.000000 0.000000 0.000000 sr} bdef
/c1 { 1.000000 1.000000 1.000000 sr} bdef
/c2 { 0.900000 0.000000 0.000000 sr} bdef
/c3 { 0.000000 0.820000 0.000000 sr} bdef
/c4 { 0.000000 0.000000 0.800000 sr} bdef
/c5 { 0.910000 0.820000 0.320000 sr} bdef
/c6 { 1.000000 0.260000 0.820000 sr} bdef
/c7 { 0.000000 0.820000 0.820000 sr} bdef
c0
1 j
1 sg
   0    0 10170 8285 rf
6 w
0 1307 3403 0 0 -1307 1322 1928 4 MP
PP
-3403 0 0 1307 3403 0 0 -1307 1322 1928 5 MP stroke
4 w
DO
0 sg
1322 1928 mt 1322  621 L
1322  621 mt 1322  621 L
1747 1928 mt 1747  621 L
1747  621 mt 1747  621 L
2172 1928 mt 2172  621 L
2172  621 mt 2172  621 L
2598 1928 mt 2598  621 L
2598  621 mt 2598  621 L
3023 1928 mt 3023  621 L
3023  621 mt 3023  621 L
3448 1928 mt 3448  621 L
3448  621 mt 3448  621 L
3874 1928 mt 3874  621 L
3874  621 mt 3874  621 L
4299 1928 mt 4299  621 L
4299  621 mt 4299  621 L
4725 1928 mt 4725  621 L
4725  621 mt 4725  621 L
1322 1928 mt 4725 1928 L
4725 1928 mt 4725 1928 L
1322 1601 mt 4725 1601 L
4725 1601 mt 4725 1601 L
1322 1274 mt 4725 1274 L
4725 1274 mt 4725 1274 L
1322  947 mt 4725  947 L
4725  947 mt 4725  947 L
1322  621 mt 4725  621 L
4725  621 mt 4725  621 L
SO
6 w
1322  621 mt 4725  621 L
1322 1928 mt 4725 1928 L
4725 1928 mt 4725  621 L
1322 1928 mt 1322  621 L
1322 1928 mt 4725 1928 L
1322 1928 mt 1322  621 L
1322 1928 mt 1322 1893 L
1322  621 mt 1322  655 L
%%IncludeResource: font Helvetica
/Helvetica /WindowsLatin1Encoding 120 FMSR

1239 2073 mt 
(0.1) s
1747 1928 mt 1747 1893 L
1747  621 mt 1747  655 L
1664 2073 mt 
(0.2) s
2172 1928 mt 2172 1893 L
2172  621 mt 2172  655 L
2089 2073 mt 
(0.3) s
2598 1928 mt 2598 1893 L
2598  621 mt 2598  655 L
2515 2073 mt 
(0.4) s
3023 1928 mt 3023 1893 L
3023  621 mt 3023  655 L
2940 2073 mt 
(0.5) s
3448 1928 mt 3448 1893 L
3448  621 mt 3448  655 L
3365 2073 mt 
(0.6) s
3874 1928 mt 3874 1893 L
3874  621 mt 3874  655 L
3791 2073 mt 
(0.7) s
4299 1928 mt 4299 1893 L
4299  621 mt 4299  655 L
4216 2073 mt 
(0.8) s
4725 1928 mt 4725 1893 L
4725  621 mt 4725  655 L
4642 2073 mt 
(0.9) s
1322 1928 mt 1356 1928 L
4725 1928 mt 4690 1928 L
1121 1972 mt 
(0.1) s
1322 1601 mt 1356 1601 L
4725 1601 mt 4690 1601 L
1121 1645 mt 
(0.2) s
1322 1274 mt 1356 1274 L
4725 1274 mt 4690 1274 L
1121 1318 mt 
(0.3) s
1322  947 mt 1356  947 L
4725  947 mt 4690  947 L
1121  991 mt 
(0.4) s
1322  621 mt 1356  621 L
4725  621 mt 4690  621 L
1121  665 mt 
(0.5) s
1322  621 mt 4725  621 L
1322 1928 mt 4725 1928 L
4725 1928 mt 4725  621 L
1322 1928 mt 1322  621 L
gs 1322 620 3404 1309 rc
472 463 473 344 473 183 472 0 473 -183 473 -344 472 -463 1369 1727 8 MP stroke
gr

gs 1296 664 3455 1137 rc
1344 1702 mt 1394 1752 L
1394 1702 mt 1344 1752 L
1816 1239 mt 1866 1289 L
1866 1239 mt 1816 1289 L
2289  895 mt 2339  945 L
2339  895 mt 2289  945 L
2762  712 mt 2812  762 L
2812  712 mt 2762  762 L
3234  712 mt 3284  762 L
3284  712 mt 3234  762 L
3707  895 mt 3757  945 L
3757  895 mt 3707  945 L
4180 1239 mt 4230 1289 L
4230 1239 mt 4180 1289 L
4652 1702 mt 4702 1752 L
4702 1702 mt 4652 1752 L
gr

gs 1322 620 3404 1309 rc
/c8 { 0.000000 0.000000 1.000000 sr} bdef
c8
472 463 473 344 473 183 472 0 473 -183 473 -344 472 -463 1369 1727 8 MP stroke
gr

c8
gs 1296 664 3455 1137 rc
  36   36 1369 1727 FO
  36   36 1841 1264 FO
  36   36 2314  920 FO
  36   36 2787  737 FO
  36   36 3259  737 FO
  36   36 3732  920 FO
  36   36 4205 1264 FO
  36   36 4677 1727 FO
gr

gs 1322 620 3404 1309 rc
gr

0 sg
2992 2216 mt 
(x) s
1305 1971 mt 
( ) s
4709  662 mt 
( ) s
1 sg
0 334 1006 0 0 -334 3660 1014 4 MP
PP
-1006 0 0 334 1006 0 0 -334 3660 1014 5 MP stroke
4 w
DO
SO
6 w
0 sg
3660  680 mt 4666  680 L
3660 1014 mt 4666 1014 L
4666 1014 mt 4666  680 L
3660 1014 mt 3660  680 L
3660 1014 mt 4666 1014 L
3660 1014 mt 3660  680 L
3660  680 mt 4666  680 L
3660 1014 mt 4666 1014 L
4666 1014 mt 4666  680 L
3660 1014 mt 3660  680 L
4123  815 mt 
(analytical) s
gs 3660 680 1007 335 rc
356 0 3731 772 2 MP stroke
gs 3836 699 147 147 rc
3884  747 mt 3934  797 L
3934  747 mt 3884  797 L
gr

gr

4123  964 mt 
(numeric) s
gs 3660 680 1007 335 rc
c8
356 0 3731 921 2 MP stroke
gs 3836 848 147 147 rc
  36   36 3909  921 FO
gr

gr

c8
1 sg
0 1307 3403 0 0 -1307 5800 1928 4 MP
PP
-3403 0 0 1307 3403 0 0 -1307 5800 1928 5 MP stroke
4 w
DO
0 sg
5800 1928 mt 5800  621 L
5800  621 mt 5800  621 L
6225 1928 mt 6225  621 L
6225  621 mt 6225  621 L
6650 1928 mt 6650  621 L
6650  621 mt 6650  621 L
7076 1928 mt 7076  621 L
7076  621 mt 7076  621 L
7501 1928 mt 7501  621 L
7501  621 mt 7501  621 L
7926 1928 mt 7926  621 L
7926  621 mt 7926  621 L
8352 1928 mt 8352  621 L
8352  621 mt 8352  621 L
8777 1928 mt 8777  621 L
8777  621 mt 8777  621 L
9203 1928 mt 9203  621 L
9203  621 mt 9203  621 L
5800 1928 mt 9203 1928 L
9203 1928 mt 9203 1928 L
5800 1274 mt 9203 1274 L
9203 1274 mt 9203 1274 L
5800  621 mt 9203  621 L
9203  621 mt 9203  621 L
SO
6 w
5800  621 mt 9203  621 L
5800 1928 mt 9203 1928 L
9203 1928 mt 9203  621 L
5800 1928 mt 5800  621 L
5800 1928 mt 9203 1928 L
5800 1928 mt 5800  621 L
5800 1928 mt 5800 1893 L
5800  621 mt 5800  655 L
5717 2073 mt 
(0.1) s
6225 1928 mt 6225 1893 L
6225  621 mt 6225  655 L
6142 2073 mt 
(0.2) s
6650 1928 mt 6650 1893 L
6650  621 mt 6650  655 L
6567 2073 mt 
(0.3) s
7076 1928 mt 7076 1893 L
7076  621 mt 7076  655 L
6993 2073 mt 
(0.4) s
7501 1928 mt 7501 1893 L
7501  621 mt 7501  655 L
7418 2073 mt 
(0.5) s
7926 1928 mt 7926 1893 L
7926  621 mt 7926  655 L
7843 2073 mt 
(0.6) s
8352 1928 mt 8352 1893 L
8352  621 mt 8352  655 L
8269 2073 mt 
(0.7) s
8777 1928 mt 8777 1893 L
8777  621 mt 8777  655 L
8694 2073 mt 
(0.8) s
9203 1928 mt 9203 1893 L
9203  621 mt 9203  655 L
9120 2073 mt 
(0.9) s
5800 1928 mt 5834 1928 L
9203 1928 mt 9168 1928 L
5529 1972 mt 
(-0.5) s
5800 1274 mt 5834 1274 L
9203 1274 mt 9168 1274 L
5699 1318 mt 
(0) s
5800  621 mt 5834  621 L
9203  621 mt 9168  621 L
5599  665 mt 
(0.5) s
5800  621 mt 9203  621 L
5800 1928 mt 9203 1928 L
9203 1928 mt 9203  621 L
5800 1928 mt 5800  621 L
gs 5800 621 3404 1308 rc
472 -211 473 73 473 323 472 422 473 323 473 73 472 -211 5847 878 8 MP stroke
gr

gs 5774 594 3455 1361 rc
5822  853 mt 5872  903 L
5872  853 mt 5822  903 L
6294  642 mt 6344  692 L
6344  642 mt 6294  692 L
6767  715 mt 6817  765 L
6817  715 mt 6767  765 L
7240 1038 mt 7290 1088 L
7290 1038 mt 7240 1088 L
7712 1460 mt 7762 1510 L
7762 1460 mt 7712 1510 L
8185 1783 mt 8235 1833 L
8235 1783 mt 8185 1833 L
8658 1856 mt 8708 1906 L
8708 1856 mt 8658 1906 L
9130 1645 mt 9180 1695 L
9180 1645 mt 9130 1695 L
gs 5800 621 3404 1308 rc
c8
472 211 473 -73 473 -323 472 -422 473 -323 473 -73 472 211 5847 1670 8 MP stroke
gr

c8
  36   36 5847 1670 FO
  36   36 6319 1881 FO
  36   36 6792 1808 FO
  36   36 7265 1485 FO
  36   36 7737 1063 FO
  36   36 8210  740 FO
  36   36 8683  667 FO
  36   36 9155  878 FO
gs 5800 621 3404 1308 rc
gr
gr

c8
0 sg
7470 2216 mt 
(x) s
5783 1971 mt 
( ) s
9187  663 mt 
( ) s
1 sg
0 334 1007 0 0 -334 8137 1015 4 MP
PP
-1007 0 0 334 1007 0 0 -334 8137 1015 5 MP stroke
4 w
DO
SO
6 w
0 sg
8137  681 mt 9144  681 L
8137 1015 mt 9144 1015 L
9144 1015 mt 9144  681 L
8137 1015 mt 8137  681 L
8137 1015 mt 9144 1015 L
8137 1015 mt 8137  681 L
8137  681 mt 9144  681 L
8137 1015 mt 9144 1015 L
9144 1015 mt 9144  681 L
8137 1015 mt 8137  681 L
8601  816 mt 
(analytical) s
gs 8137 681 1008 335 rc
356 0 8208 773 2 MP stroke
gs 8313 700 147 147 rc
8361  748 mt 8411  798 L
8411  748 mt 8361  798 L
gr

gr

8601  965 mt 
(numeric) s
gs 8137 681 1008 335 rc
c8
356 0 8208 922 2 MP stroke
gs 8313 849 147 147 rc
  36   36 8386  922 FO
gr

gr

c8
1 sg
0 1307 3403 0 0 -1307 1322 3743 4 MP
PP
-3403 0 0 1307 3403 0 0 -1307 1322 3743 5 MP stroke
4 w
DO
0 sg
1322 3743 mt 1322 2436 L
1322 2436 mt 1322 2436 L
1747 3743 mt 1747 2436 L
1747 2436 mt 1747 2436 L
2172 3743 mt 2172 2436 L
2172 2436 mt 2172 2436 L
2598 3743 mt 2598 2436 L
2598 2436 mt 2598 2436 L
3023 3743 mt 3023 2436 L
3023 2436 mt 3023 2436 L
3448 3743 mt 3448 2436 L
3448 2436 mt 3448 2436 L
3874 3743 mt 3874 2436 L
3874 2436 mt 3874 2436 L
4299 3743 mt 4299 2436 L
4299 2436 mt 4299 2436 L
4725 3743 mt 4725 2436 L
4725 2436 mt 4725 2436 L
1322 3743 mt 4725 3743 L
4725 3743 mt 4725 3743 L
1322 3089 mt 4725 3089 L
4725 3089 mt 4725 3089 L
1322 2436 mt 4725 2436 L
4725 2436 mt 4725 2436 L
SO
6 w
1322 2436 mt 4725 2436 L
1322 3743 mt 4725 3743 L
4725 3743 mt 4725 2436 L
1322 3743 mt 1322 2436 L
1322 3743 mt 4725 3743 L
1322 3743 mt 1322 2436 L
1322 3743 mt 1322 3708 L
1322 2436 mt 1322 2470 L
1239 3888 mt 
(0.1) s
1747 3743 mt 1747 3708 L
1747 2436 mt 1747 2470 L
1664 3888 mt 
(0.2) s
2172 3743 mt 2172 3708 L
2172 2436 mt 2172 2470 L
2089 3888 mt 
(0.3) s
2598 3743 mt 2598 3708 L
2598 2436 mt 2598 2470 L
2515 3888 mt 
(0.4) s
3023 3743 mt 3023 3708 L
3023 2436 mt 3023 2470 L
2940 3888 mt 
(0.5) s
3448 3743 mt 3448 3708 L
3448 2436 mt 3448 2470 L
3365 3888 mt 
(0.6) s
3874 3743 mt 3874 3708 L
3874 2436 mt 3874 2470 L
3791 3888 mt 
(0.7) s
4299 3743 mt 4299 3708 L
4299 2436 mt 4299 2470 L
4216 3888 mt 
(0.8) s
4725 3743 mt 4725 3708 L
4725 2436 mt 4725 2470 L
4642 3888 mt 
(0.9) s
1322 3743 mt 1356 3743 L
4725 3743 mt 4690 3743 L
1051 3787 mt 
(-0.5) s
1322 3089 mt 1356 3089 L
4725 3089 mt 4690 3089 L
1221 3133 mt 
(0) s
1322 2436 mt 1356 2436 L
4725 2436 mt 4690 2436 L
1121 2480 mt 
(0.5) s
1322 2436 mt 4725 2436 L
1322 3743 mt 4725 3743 L
4725 3743 mt 4725 2436 L
1322 3743 mt 1322 2436 L
gs 1322 2436 3404 1308 rc
472 0 473 -534 473 -534 472 0 473 534 473 534 472 0 1369 2555 8 MP stroke
gr

gs 1296 2482 3455 1215 rc
1344 2530 mt 1394 2580 L
1394 2530 mt 1344 2580 L
1816 2530 mt 1866 2580 L
1866 2530 mt 1816 2580 L
2289 3064 mt 2339 3114 L
2339 3064 mt 2289 3114 L
2762 3598 mt 2812 3648 L
2812 3598 mt 2762 3648 L
3234 3598 mt 3284 3648 L
3284 3598 mt 3234 3648 L
3707 3064 mt 3757 3114 L
3757 3064 mt 3707 3114 L
4180 2530 mt 4230 2580 L
4230 2530 mt 4180 2580 L
4652 2530 mt 4702 2580 L
4702 2530 mt 4652 2580 L
gr

gs 1322 2436 3404 1308 rc
c8
472 0 473 -534 473 -534 472 0 473 534 473 534 472 0 1369 2555 8 MP stroke
gr

c8
gs 1296 2482 3455 1215 rc
  36   36 1369 2555 FO
  36   36 1841 2555 FO
  36   36 2314 3089 FO
  36   36 2787 3623 FO
  36   36 3259 3623 FO
  36   36 3732 3089 FO
  36   36 4205 2555 FO
  36   36 4677 2555 FO
gr

gs 1322 2436 3404 1308 rc
gr

0 sg
2992 4031 mt 
(x) s
1305 3786 mt 
( ) s
4709 2478 mt 
( ) s
1 sg
0 334 1006 0 0 -334 3660 2830 4 MP
PP
-1006 0 0 334 1006 0 0 -334 3660 2830 5 MP stroke
4 w
DO
SO
6 w
0 sg
3660 2496 mt 4666 2496 L
3660 2830 mt 4666 2830 L
4666 2830 mt 4666 2496 L
3660 2830 mt 3660 2496 L
3660 2830 mt 4666 2830 L
3660 2830 mt 3660 2496 L
3660 2496 mt 4666 2496 L
3660 2830 mt 4666 2830 L
4666 2830 mt 4666 2496 L
3660 2830 mt 3660 2496 L
4123 2631 mt 
(analytical) s
gs 3660 2496 1007 335 rc
356 0 3731 2588 2 MP stroke
gs 3836 2515 147 147 rc
3884 2563 mt 3934 2613 L
3934 2563 mt 3884 2613 L
gr

gr

4123 2780 mt 
(numeric) s
gs 3660 2496 1007 335 rc
c8
356 0 3731 2737 2 MP stroke
gs 3836 2664 147 147 rc
  36   36 3909 2737 FO
gr

gr

c8
1 sg
0 1307 3403 0 0 -1307 5800 3743 4 MP
PP
-3403 0 0 1307 3403 0 0 -1307 5800 3743 5 MP stroke
4 w
DO
0 sg
5800 3743 mt 5800 2436 L
5800 2436 mt 5800 2436 L
6225 3743 mt 6225 2436 L
6225 2436 mt 6225 2436 L
6650 3743 mt 6650 2436 L
6650 2436 mt 6650 2436 L
7076 3743 mt 7076 2436 L
7076 2436 mt 7076 2436 L
7501 3743 mt 7501 2436 L
7501 2436 mt 7501 2436 L
7926 3743 mt 7926 2436 L
7926 2436 mt 7926 2436 L
8352 3743 mt 8352 2436 L
8352 2436 mt 8352 2436 L
8777 3743 mt 8777 2436 L
8777 2436 mt 8777 2436 L
9203 3743 mt 9203 2436 L
9203 2436 mt 9203 2436 L
5800 3743 mt 9203 3743 L
9203 3743 mt 9203 3743 L
5800 3089 mt 9203 3089 L
9203 3089 mt 9203 3089 L
5800 2436 mt 9203 2436 L
9203 2436 mt 9203 2436 L
SO
6 w
5800 2436 mt 9203 2436 L
5800 3743 mt 9203 3743 L
9203 3743 mt 9203 2436 L
5800 3743 mt 5800 2436 L
5800 3743 mt 9203 3743 L
5800 3743 mt 5800 2436 L
5800 3743 mt 5800 3708 L
5800 2436 mt 5800 2470 L
5717 3888 mt 
(0.1) s
6225 3743 mt 6225 3708 L
6225 2436 mt 6225 2470 L
6142 3888 mt 
(0.2) s
6650 3743 mt 6650 3708 L
6650 2436 mt 6650 2470 L
6567 3888 mt 
(0.3) s
7076 3743 mt 7076 3708 L
7076 2436 mt 7076 2470 L
6993 3888 mt 
(0.4) s
7501 3743 mt 7501 3708 L
7501 2436 mt 7501 2470 L
7418 3888 mt 
(0.5) s
7926 3743 mt 7926 3708 L
7926 2436 mt 7926 2470 L
7843 3888 mt 
(0.6) s
8352 3743 mt 8352 3708 L
8352 2436 mt 8352 2470 L
8269 3888 mt 
(0.7) s
8777 3743 mt 8777 3708 L
8777 2436 mt 8777 2470 L
8694 3888 mt 
(0.8) s
9203 3743 mt 9203 3708 L
9203 2436 mt 9203 2470 L
9120 3888 mt 
(0.9) s
5800 3743 mt 5834 3743 L
9203 3743 mt 9168 3743 L
5529 3787 mt 
(-0.5) s
5800 3089 mt 5834 3089 L
9203 3089 mt 9168 3089 L
5699 3133 mt 
(0) s
5800 2436 mt 5834 2436 L
9203 2436 mt 9168 2436 L
5599 2480 mt 
(0.5) s
5800 2436 mt 9203 2436 L
5800 3743 mt 9203 3743 L
9203 3743 mt 9203 2436 L
5800 3743 mt 5800 2436 L
gs 5800 2436 3404 1308 rc
472 396 473 745 473 -138 472 -792 473 -138 473 745 472 396 5847 2482 8 MP stroke
gr

gs 5774 2409 3455 1361 rc
5822 2457 mt 5872 2507 L
5872 2457 mt 5822 2507 L
6294 2853 mt 6344 2903 L
6344 2853 mt 6294 2903 L
6767 3598 mt 6817 3648 L
6817 3598 mt 6767 3648 L
7240 3460 mt 7290 3510 L
7290 3460 mt 7240 3510 L
7712 2668 mt 7762 2718 L
7762 2668 mt 7712 2718 L
8185 2530 mt 8235 2580 L
8235 2530 mt 8185 2580 L
8658 3275 mt 8708 3325 L
8708 3275 mt 8658 3325 L
9130 3671 mt 9180 3721 L
9180 3671 mt 9130 3721 L
gs 5800 2436 3404 1308 rc
c8
472 396 473 745 473 -138 472 -792 473 -138 473 745 472 396 5847 2482 8 MP stroke
gr

c8
  36   36 5847 2482 FO
  36   36 6319 2878 FO
  36   36 6792 3623 FO
  36   36 7265 3485 FO
  36   36 7737 2693 FO
  36   36 8210 2555 FO
  36   36 8683 3300 FO
  36   36 9155 3696 FO
gs 5800 2436 3404 1308 rc
gr
gr

c8
0 sg
7470 4031 mt 
(x) s
5783 3786 mt 
( ) s
9187 2478 mt 
( ) s
1 sg
0 334 1007 0 0 -334 8137 2830 4 MP
PP
-1007 0 0 334 1007 0 0 -334 8137 2830 5 MP stroke
4 w
DO
SO
6 w
0 sg
8137 2496 mt 9144 2496 L
8137 2830 mt 9144 2830 L
9144 2830 mt 9144 2496 L
8137 2830 mt 8137 2496 L
8137 2830 mt 9144 2830 L
8137 2830 mt 8137 2496 L
8137 2496 mt 9144 2496 L
8137 2830 mt 9144 2830 L
9144 2830 mt 9144 2496 L
8137 2830 mt 8137 2496 L
8601 2631 mt 
(analytical) s
gs 8137 2496 1008 335 rc
356 0 8208 2588 2 MP stroke
gs 8313 2515 147 147 rc
8361 2563 mt 8411 2613 L
8411 2563 mt 8361 2613 L
gr

gr

8601 2780 mt 
(numeric) s
gs 8137 2496 1008 335 rc
c8
356 0 8208 2737 2 MP stroke
gs 8313 2664 147 147 rc
  36   36 8386 2737 FO
gr

gr

c8
1 sg
0 1307 3403 0 0 -1307 1322 5558 4 MP
PP
-3403 0 0 1307 3403 0 0 -1307 1322 5558 5 MP stroke
4 w
DO
0 sg
1322 5558 mt 1322 4251 L
1322 4251 mt 1322 4251 L
1747 5558 mt 1747 4251 L
1747 4251 mt 1747 4251 L
2172 5558 mt 2172 4251 L
2172 4251 mt 2172 4251 L
2598 5558 mt 2598 4251 L
2598 4251 mt 2598 4251 L
3023 5558 mt 3023 4251 L
3023 4251 mt 3023 4251 L
3448 5558 mt 3448 4251 L
3448 4251 mt 3448 4251 L
3874 5558 mt 3874 4251 L
3874 4251 mt 3874 4251 L
4299 5558 mt 4299 4251 L
4299 4251 mt 4299 4251 L
4725 5558 mt 4725 4251 L
4725 4251 mt 4725 4251 L
1322 5558 mt 4725 5558 L
4725 5558 mt 4725 5558 L
1322 4904 mt 4725 4904 L
4725 4904 mt 4725 4904 L
1322 4251 mt 4725 4251 L
4725 4251 mt 4725 4251 L
SO
6 w
1322 4251 mt 4725 4251 L
1322 5558 mt 4725 5558 L
4725 5558 mt 4725 4251 L
1322 5558 mt 1322 4251 L
1322 5558 mt 4725 5558 L
1322 5558 mt 1322 4251 L
1322 5558 mt 1322 5523 L
1322 4251 mt 1322 4285 L
1239 5703 mt 
(0.1) s
1747 5558 mt 1747 5523 L
1747 4251 mt 1747 4285 L
1664 5703 mt 
(0.2) s
2172 5558 mt 2172 5523 L
2172 4251 mt 2172 4285 L
2089 5703 mt 
(0.3) s
2598 5558 mt 2598 5523 L
2598 4251 mt 2598 4285 L
2515 5703 mt 
(0.4) s
3023 5558 mt 3023 5523 L
3023 4251 mt 3023 4285 L
2940 5703 mt 
(0.5) s
3448 5558 mt 3448 5523 L
3448 4251 mt 3448 4285 L
3365 5703 mt 
(0.6) s
3874 5558 mt 3874 5523 L
3874 4251 mt 3874 4285 L
3791 5703 mt 
(0.7) s
4299 5558 mt 4299 5523 L
4299 4251 mt 4299 4285 L
4216 5703 mt 
(0.8) s
4725 5558 mt 4725 5523 L
4725 4251 mt 4725 4285 L
4642 5703 mt 
(0.9) s
1322 5558 mt 1356 5558 L
4725 5558 mt 4690 5558 L
1051 5602 mt 
(-0.5) s
1322 4904 mt 1356 4904 L
4725 4904 mt 4690 4904 L
1221 4948 mt 
(0) s
1322 4251 mt 1356 4251 L
4725 4251 mt 4690 4251 L
1121 4295 mt 
(0.5) s
1322 4251 mt 4725 4251 L
1322 5558 mt 4725 5558 L
4725 5558 mt 4725 4251 L
1322 5558 mt 1322 4251 L
gs 1322 4251 3404 1308 rc
472 -818 473 -323 473 930 472 0 473 -930 473 323 472 818 1369 4297 8 MP stroke
gr

gs 1296 4224 3455 1288 rc
1344 4272 mt 1394 4322 L
1394 4272 mt 1344 4322 L
1816 5090 mt 1866 5140 L
1866 5090 mt 1816 5140 L
2289 5413 mt 2339 5463 L
2339 5413 mt 2289 5463 L
2762 4483 mt 2812 4533 L
2812 4483 mt 2762 4533 L
3234 4483 mt 3284 4533 L
3284 4483 mt 3234 4533 L
3707 5413 mt 3757 5463 L
3757 5413 mt 3707 5463 L
4180 5090 mt 4230 5140 L
4230 5090 mt 4180 5140 L
4652 4272 mt 4702 4322 L
4702 4272 mt 4652 4322 L
gr

gs 1322 4251 3404 1308 rc
c8
472 -818 473 -323 473 930 472 0 473 -930 473 323 472 818 1369 4297 8 MP stroke
gr

c8
gs 1296 4224 3455 1288 rc
  36   36 1369 4297 FO
  36   36 1841 5115 FO
  36   36 2314 5438 FO
  36   36 2787 4508 FO
  36   36 3259 4508 FO
  36   36 3732 5438 FO
  36   36 4205 5115 FO
  36   36 4677 4297 FO
gr

gs 1322 4251 3404 1308 rc
gr

0 sg
2992 5846 mt 
(x) s
1305 5601 mt 
( ) s
4709 4293 mt 
( ) s
1 sg
0 334 1006 0 0 -334 3660 4645 4 MP
PP
-1006 0 0 334 1006 0 0 -334 3660 4645 5 MP stroke
4 w
DO
SO
6 w
0 sg
3660 4311 mt 4666 4311 L
3660 4645 mt 4666 4645 L
4666 4645 mt 4666 4311 L
3660 4645 mt 3660 4311 L
3660 4645 mt 4666 4645 L
3660 4645 mt 3660 4311 L
3660 4311 mt 4666 4311 L
3660 4645 mt 4666 4645 L
4666 4645 mt 4666 4311 L
3660 4645 mt 3660 4311 L
4123 4446 mt 
(analytical) s
gs 3660 4311 1007 335 rc
356 0 3731 4403 2 MP stroke
gs 3836 4330 147 147 rc
3884 4378 mt 3934 4428 L
3934 4378 mt 3884 4428 L
gr

gr

4123 4595 mt 
(numeric) s
gs 3660 4311 1007 335 rc
c8
356 0 3731 4552 2 MP stroke
gs 3836 4479 147 147 rc
  36   36 3909 4552 FO
gr

gr

c8
1 sg
0 1307 3403 0 0 -1307 5800 5558 4 MP
PP
-3403 0 0 1307 3403 0 0 -1307 5800 5558 5 MP stroke
4 w
DO
0 sg
5800 5558 mt 5800 4251 L
5800 4251 mt 5800 4251 L
6225 5558 mt 6225 4251 L
6225 4251 mt 6225 4251 L
6650 5558 mt 6650 4251 L
6650 4251 mt 6650 4251 L
7076 5558 mt 7076 4251 L
7076 4251 mt 7076 4251 L
7501 5558 mt 7501 4251 L
7501 4251 mt 7501 4251 L
7926 5558 mt 7926 4251 L
7926 4251 mt 7926 4251 L
8352 5558 mt 8352 4251 L
8352 4251 mt 8352 4251 L
8777 5558 mt 8777 4251 L
8777 4251 mt 8777 4251 L
9203 5558 mt 9203 4251 L
9203 4251 mt 9203 4251 L
5800 5558 mt 9203 5558 L
9203 5558 mt 9203 5558 L
5800 4904 mt 9203 4904 L
9203 4904 mt 9203 4904 L
5800 4251 mt 9203 4251 L
9203 4251 mt 9203 4251 L
SO
6 w
5800 4251 mt 9203 4251 L
5800 5558 mt 9203 5558 L
9203 5558 mt 9203 4251 L
5800 5558 mt 5800 4251 L
5800 5558 mt 9203 5558 L
5800 5558 mt 5800 4251 L
5800 5558 mt 5800 5523 L
5800 4251 mt 5800 4285 L
5717 5703 mt 
(0.1) s
6225 5558 mt 6225 5523 L
6225 4251 mt 6225 4285 L
6142 5703 mt 
(0.2) s
6650 5558 mt 6650 5523 L
6650 4251 mt 6650 4285 L
6567 5703 mt 
(0.3) s
7076 5558 mt 7076 5523 L
7076 4251 mt 7076 4285 L
6993 5703 mt 
(0.4) s
7501 5558 mt 7501 5523 L
7501 4251 mt 7501 4285 L
7418 5703 mt 
(0.5) s
7926 5558 mt 7926 5523 L
7926 4251 mt 7926 4285 L
7843 5703 mt 
(0.6) s
8352 5558 mt 8352 5523 L
8352 4251 mt 8352 4285 L
8269 5703 mt 
(0.7) s
8777 5558 mt 8777 5523 L
8777 4251 mt 8777 4285 L
8694 5703 mt 
(0.8) s
9203 5558 mt 9203 5523 L
9203 4251 mt 9203 4285 L
9120 5703 mt 
(0.9) s
5800 5558 mt 5834 5558 L
9203 5558 mt 9168 5558 L
5529 5602 mt 
(-0.5) s
5800 4904 mt 5834 4904 L
9203 4904 mt 9168 4904 L
5699 4948 mt 
(0) s
5800 4251 mt 5834 4251 L
9203 4251 mt 9168 4251 L
5599 4295 mt 
(0.5) s
5800 4251 mt 9203 4251 L
5800 5558 mt 9203 5558 L
9203 5558 mt 9203 4251 L
5800 5558 mt 5800 4251 L
gs 5800 4251 3404 1308 rc
472 1068 473 -534 473 -534 472 1068 473 -534 473 -534 472 1068 5847 4370 8 MP stroke
gr

gs 5774 4297 3455 1215 rc
5822 4345 mt 5872 4395 L
5872 4345 mt 5822 4395 L
6294 5413 mt 6344 5463 L
6344 5413 mt 6294 5463 L
6767 4879 mt 6817 4929 L
6817 4879 mt 6767 4929 L
7240 4345 mt 7290 4395 L
7290 4345 mt 7240 4395 L
7712 5413 mt 7762 5463 L
7762 5413 mt 7712 5463 L
8185 4879 mt 8235 4929 L
8235 4879 mt 8185 4929 L
8658 4345 mt 8708 4395 L
8708 4345 mt 8658 4395 L
9130 5413 mt 9180 5463 L
9180 5413 mt 9130 5463 L
gr

gs 5800 4251 3404 1308 rc
c8
472 1068 473 -534 473 -534 472 1068 473 -534 473 -534 472 1068 5847 4370 8 MP stroke
gr

c8
gs 5774 4297 3455 1215 rc
  36   36 5847 4370 FO
  36   36 6319 5438 FO
  36   36 6792 4904 FO
  36   36 7265 4370 FO
  36   36 7737 5438 FO
  36   36 8210 4904 FO
  36   36 8683 4370 FO
  36   36 9155 5438 FO
gr

gs 5800 4251 3404 1308 rc
gr

0 sg
7470 5846 mt 
(x) s
5783 5601 mt 
( ) s
9187 4293 mt 
( ) s
1 sg
0 334 1007 0 0 -334 8137 4645 4 MP
PP
-1007 0 0 334 1007 0 0 -334 8137 4645 5 MP stroke
4 w
DO
SO
6 w
0 sg
8137 4311 mt 9144 4311 L
8137 4645 mt 9144 4645 L
9144 4645 mt 9144 4311 L
8137 4645 mt 8137 4311 L
8137 4645 mt 9144 4645 L
8137 4645 mt 8137 4311 L
8137 4311 mt 9144 4311 L
8137 4645 mt 9144 4645 L
9144 4645 mt 9144 4311 L
8137 4645 mt 8137 4311 L
8601 4446 mt 
(analytical) s
gs 8137 4311 1008 335 rc
356 0 8208 4403 2 MP stroke
gs 8313 4330 147 147 rc
8361 4378 mt 8411 4428 L
8411 4378 mt 8361 4428 L
gr

gr

8601 4595 mt 
(numeric) s
gs 8137 4311 1008 335 rc
c8
356 0 8208 4552 2 MP stroke
gs 8313 4479 147 147 rc
  36   36 8386 4552 FO
gr

gr

c8
1 sg
0 1307 3403 0 0 -1307 1322 7373 4 MP
PP
-3403 0 0 1307 3403 0 0 -1307 1322 7373 5 MP stroke
4 w
DO
0 sg
1322 7373 mt 1322 6066 L
1322 6066 mt 1322 6066 L
1747 7373 mt 1747 6066 L
1747 6066 mt 1747 6066 L
2172 7373 mt 2172 6066 L
2172 6066 mt 2172 6066 L
2598 7373 mt 2598 6066 L
2598 6066 mt 2598 6066 L
3023 7373 mt 3023 6066 L
3023 6066 mt 3023 6066 L
3448 7373 mt 3448 6066 L
3448 6066 mt 3448 6066 L
3874 7373 mt 3874 6066 L
3874 6066 mt 3874 6066 L
4299 7373 mt 4299 6066 L
4299 6066 mt 4299 6066 L
4725 7373 mt 4725 6066 L
4725 6066 mt 4725 6066 L
1322 7373 mt 4725 7373 L
4725 7373 mt 4725 7373 L
1322 6719 mt 4725 6719 L
4725 6719 mt 4725 6719 L
1322 6066 mt 4725 6066 L
4725 6066 mt 4725 6066 L
SO
6 w
1322 6066 mt 4725 6066 L
1322 7373 mt 4725 7373 L
4725 7373 mt 4725 6066 L
1322 7373 mt 1322 6066 L
1322 7373 mt 4725 7373 L
1322 7373 mt 1322 6066 L
1322 7373 mt 1322 7338 L
1322 6066 mt 1322 6100 L
1239 7518 mt 
(0.1) s
1747 7373 mt 1747 7338 L
1747 6066 mt 1747 6100 L
1664 7518 mt 
(0.2) s
2172 7373 mt 2172 7338 L
2172 6066 mt 2172 6100 L
2089 7518 mt 
(0.3) s
2598 7373 mt 2598 7338 L
2598 6066 mt 2598 6100 L
2515 7518 mt 
(0.4) s
3023 7373 mt 3023 7338 L
3023 6066 mt 3023 6100 L
2940 7518 mt 
(0.5) s
3448 7373 mt 3448 7338 L
3448 6066 mt 3448 6100 L
3365 7518 mt 
(0.6) s
3874 7373 mt 3874 7338 L
3874 6066 mt 3874 6100 L
3791 7518 mt 
(0.7) s
4299 7373 mt 4299 7338 L
4299 6066 mt 4299 6100 L
4216 7518 mt 
(0.8) s
4725 7373 mt 4725 7338 L
4725 6066 mt 4725 6100 L
4642 7518 mt 
(0.9) s
1322 7373 mt 1356 7373 L
4725 7373 mt 4690 7373 L
1051 7417 mt 
(-0.5) s
1322 6719 mt 1356 6719 L
4725 6719 mt 4690 6719 L
1221 6763 mt 
(0) s
1322 6066 mt 1356 6066 L
4725 6066 mt 4690 6066 L
1121 6110 mt 
(0.5) s
1322 6066 mt 4725 6066 L
1322 7373 mt 4725 7373 L
4725 7373 mt 4725 6066 L
1322 7373 mt 1322 6066 L
gs 1322 6066 3404 1308 rc
472 -1003 473 1141 473 -745 472 0 473 745 473 -1141 472 1003 1369 6323 8 MP stroke
gr

gs 1296 6112 3455 1288 rc
1344 6298 mt 1394 6348 L
1394 6298 mt 1344 6348 L
1816 7301 mt 1866 7351 L
1866 7301 mt 1816 7351 L
2289 6160 mt 2339 6210 L
2339 6160 mt 2289 6210 L
2762 6905 mt 2812 6955 L
2812 6905 mt 2762 6955 L
3234 6905 mt 3284 6955 L
3284 6905 mt 3234 6955 L
3707 6160 mt 3757 6210 L
3757 6160 mt 3707 6210 L
4180 7301 mt 4230 7351 L
4230 7301 mt 4180 7351 L
4652 6298 mt 4702 6348 L
4702 6298 mt 4652 6348 L
gr

gs 1322 6066 3404 1308 rc
c8
472 -1003 473 1141 473 -745 472 0 473 745 473 -1141 472 1003 1369 6323 8 MP stroke
gr

c8
gs 1296 6112 3455 1288 rc
  36   36 1369 6323 FO
  36   36 1841 7326 FO
  36   36 2314 6185 FO
  36   36 2787 6930 FO
  36   36 3259 6930 FO
  36   36 3732 6185 FO
  36   36 4205 7326 FO
  36   36 4677 6323 FO
gr

gs 1322 6066 3404 1308 rc
gr

0 sg
2992 7661 mt 
(x) s
1305 7416 mt 
( ) s
4709 6108 mt 
( ) s
1 sg
0 334 1006 0 0 -334 3660 6460 4 MP
PP
-1006 0 0 334 1006 0 0 -334 3660 6460 5 MP stroke
4 w
DO
SO
6 w
0 sg
3660 6126 mt 4666 6126 L
3660 6460 mt 4666 6460 L
4666 6460 mt 4666 6126 L
3660 6460 mt 3660 6126 L
3660 6460 mt 4666 6460 L
3660 6460 mt 3660 6126 L
3660 6126 mt 4666 6126 L
3660 6460 mt 4666 6460 L
4666 6460 mt 4666 6126 L
3660 6460 mt 3660 6126 L
4123 6261 mt 
(analytical) s
gs 3660 6126 1007 335 rc
356 0 3731 6218 2 MP stroke
gs 3836 6145 147 147 rc
3884 6193 mt 3934 6243 L
3934 6193 mt 3884 6243 L
gr

gr

4123 6410 mt 
(numeric) s
gs 3660 6126 1007 335 rc
c8
356 0 3731 6367 2 MP stroke
gs 3836 6294 147 147 rc
  36   36 3909 6367 FO
gr

gr

c8
1 sg
0 1307 3403 0 0 -1307 5800 7373 4 MP
PP
-3403 0 0 1307 3403 0 0 -1307 5800 7373 5 MP stroke
4 w
DO
0 sg
5800 7373 mt 5800 6066 L
5800 6066 mt 5800 6066 L
6225 7373 mt 6225 6066 L
6225 6066 mt 6225 6066 L
6650 7373 mt 6650 6066 L
6650 6066 mt 6650 6066 L
7076 7373 mt 7076 6066 L
7076 6066 mt 7076 6066 L
7501 7373 mt 7501 6066 L
7501 6066 mt 7501 6066 L
7926 7373 mt 7926 6066 L
7926 6066 mt 7926 6066 L
8352 7373 mt 8352 6066 L
8352 6066 mt 8352 6066 L
8777 7373 mt 8777 6066 L
8777 6066 mt 8777 6066 L
9203 7373 mt 9203 6066 L
9203 6066 mt 9203 6066 L
5800 7373 mt 9203 7373 L
9203 7373 mt 9203 7373 L
5800 6719 mt 9203 6719 L
9203 6719 mt 9203 6719 L
5800 6066 mt 9203 6066 L
9203 6066 mt 9203 6066 L
SO
6 w
5800 6066 mt 9203 6066 L
5800 7373 mt 9203 7373 L
9203 7373 mt 9203 6066 L
5800 7373 mt 5800 6066 L
5800 7373 mt 9203 7373 L
5800 7373 mt 5800 6066 L
5800 7373 mt 5800 7338 L
5800 6066 mt 5800 6100 L
5717 7518 mt 
(0.1) s
6225 7373 mt 6225 7338 L
6225 6066 mt 6225 6100 L
6142 7518 mt 
(0.2) s
6650 7373 mt 6650 7338 L
6650 6066 mt 6650 6100 L
6567 7518 mt 
(0.3) s
7076 7373 mt 7076 7338 L
7076 6066 mt 7076 6100 L
6993 7518 mt 
(0.4) s
7501 7373 mt 7501 7338 L
7501 6066 mt 7501 6100 L
7418 7518 mt 
(0.5) s
7926 7373 mt 7926 7338 L
7926 6066 mt 7926 6100 L
7843 7518 mt 
(0.6) s
8352 7373 mt 8352 7338 L
8352 6066 mt 8352 6100 L
8269 7518 mt 
(0.7) s
8777 7373 mt 8777 7338 L
8777 6066 mt 8777 6100 L
8694 7518 mt 
(0.8) s
9203 7373 mt 9203 7338 L
9203 6066 mt 9203 6100 L
9120 7518 mt 
(0.9) s
5800 7373 mt 5834 7373 L
9203 7373 mt 9168 7373 L
5529 7417 mt 
(-0.5) s
5800 6719 mt 5834 6719 L
9203 6719 mt 9168 6719 L
5699 6763 mt 
(0) s
5800 6066 mt 5834 6066 L
9203 6066 mt 9168 6066 L
5599 6110 mt 
(0.5) s
5800 6066 mt 9203 6066 L
5800 7373 mt 9203 7373 L
9203 7373 mt 9203 6066 L
5800 7373 mt 5800 6066 L
gs 5800 6066 3404 1308 rc
472 607 473 -930 473 1141 472 -1214 473 1141 473 -930 472 607 5847 6508 8 MP stroke
gr

gs 5774 6039 3455 1361 rc
5822 6483 mt 5872 6533 L
5872 6483 mt 5822 6533 L
6294 7090 mt 6344 7140 L
6344 7090 mt 6294 7140 L
6767 6160 mt 6817 6210 L
6817 6160 mt 6767 6210 L
7240 7301 mt 7290 7351 L
7290 7301 mt 7240 7351 L
7712 6087 mt 7762 6137 L
7762 6087 mt 7712 6137 L
8185 7228 mt 8235 7278 L
8235 7228 mt 8185 7278 L
8658 6298 mt 8708 6348 L
8708 6298 mt 8658 6348 L
9130 6905 mt 9180 6955 L
9180 6905 mt 9130 6955 L
gs 5800 6066 3404 1308 rc
c8
472 -607 473 930 473 -1141 472 1214 473 -1141 473 930 472 -607 5847 6930 8 MP stroke
gr

c8
  36   36 5847 6930 FO
  36   36 6319 6323 FO
  36   36 6792 7253 FO
  36   36 7265 6112 FO
  36   36 7737 7326 FO
  36   36 8210 6185 FO
  36   36 8683 7115 FO
  36   36 9155 6508 FO
gs 5800 6066 3404 1308 rc
gr
gr

c8
0 sg
7470 7661 mt 
(x) s
5783 7416 mt 
( ) s
9187 6108 mt 
( ) s
1 sg
0 334 1007 0 0 -334 8137 6460 4 MP
PP
-1007 0 0 334 1007 0 0 -334 8137 6460 5 MP stroke
4 w
DO
SO
6 w
0 sg
8137 6126 mt 9144 6126 L
8137 6460 mt 9144 6460 L
9144 6460 mt 9144 6126 L
8137 6460 mt 8137 6126 L
8137 6460 mt 9144 6460 L
8137 6460 mt 8137 6126 L
8137 6126 mt 9144 6126 L
8137 6460 mt 9144 6460 L
9144 6460 mt 9144 6126 L
8137 6460 mt 8137 6126 L
8601 6261 mt 
(analytical) s
gs 8137 6126 1008 335 rc
356 0 8208 6218 2 MP stroke
gs 8313 6145 147 147 rc
8361 6193 mt 8411 6243 L
8411 6193 mt 8361 6243 L
gr

gr

8601 6410 mt 
(numeric) s
gs 8137 6126 1008 335 rc
c8
356 0 8208 6367 2 MP stroke
gs 8313 6294 147 147 rc
  36   36 8386 6367 FO
gr

gr

c8

end %%Color Dict

eplot
%%EndObject

epage
end

showpage

%%Trailer
%%EOF
