%!PS-Adobe-3.0 EPSF-3.0
%%Creator: MATLAB, The Mathworks, Inc. Version 7.4.0.287 (R2007a). Operating System: Microsoft Windows XP.
%%Title: D:\Work\Courses\Iteratieve methoden voor het oplossen van stelsels en eigenwaardeproblemen\trunk\oefeningen\oef_2\vraag_4c_opl.eps
%%CreationDate: 03/05/2008  10:49:40
%%DocumentNeededFonts: Helvetica
%%DocumentProcessColors: Cyan Magenta Yellow Black
%%LanguageLevel: 2
%%Pages: 1
%%BoundingBox:    87   262   507   578
%%EndComments

%%BeginProlog
% MathWorks dictionary
/MathWorks 160 dict begin
% definition operators
/bdef {bind def} bind def
/ldef {load def} bind def
/xdef {exch def} bdef
/xstore {exch store} bdef
% operator abbreviations
/c  /clip ldef
/cc /concat ldef
/cp /closepath ldef
/gr /grestore ldef
/gs /gsave ldef
/mt /moveto ldef
/np /newpath ldef
/cm /currentmatrix ldef
/sm /setmatrix ldef
/rm /rmoveto ldef
/rl /rlineto ldef
/s {show newpath} bdef
/sc {setcmykcolor} bdef
/sr /setrgbcolor ldef
/sg /setgray ldef
/w /setlinewidth ldef
/j /setlinejoin ldef
/cap /setlinecap ldef
/rc {rectclip} bdef
/rf {rectfill} bdef
% page state control
/pgsv () def
/bpage {/pgsv save def} bdef
/epage {pgsv restore} bdef
/bplot /gsave ldef
/eplot {stroke grestore} bdef
% orientation switch
/portraitMode 0 def /landscapeMode 1 def /rotateMode 2 def
% coordinate system mappings
/dpi2point 0 def
% font control
/FontSize 0 def
/FMS {/FontSize xstore findfont [FontSize 0 0 FontSize neg 0 0]
  makefont setfont} bdef
/ISOLatin1Encoding where {pop /WindowsLatin1Encoding 256 array bdef
ISOLatin1Encoding WindowsLatin1Encoding copy pop
/.notdef/.notdef/quotesinglbase/florin/quotedblbase/ellipsis/dagger
/daggerdbl/circumflex/perthousand/Scaron/guilsinglleft/OE/.notdef/.notdef
/.notdef/.notdef/quoteleft/quoteright/quotedblleft/quotedblright/bullet
/endash/emdash/tilde/trademark/scaron/guilsinglright/oe/.notdef/.notdef
/Ydieresis WindowsLatin1Encoding 128 32 getinterval astore pop}
{/WindowsLatin1Encoding StandardEncoding bdef} ifelse
/reencode {exch dup where {pop load} {pop StandardEncoding} ifelse
  exch dup 3 1 roll findfont dup length dict begin
  { 1 index /FID ne {def}{pop pop} ifelse } forall
  /Encoding exch def currentdict end definefont pop} bdef
/isroman {findfont /CharStrings get /Agrave known} bdef
/FMSR {3 1 roll 1 index dup isroman {reencode} {pop pop} ifelse
  exch FMS} bdef
/csm {1 dpi2point div -1 dpi2point div scale neg translate
 dup landscapeMode eq {pop -90 rotate}
  {rotateMode eq {90 rotate} if} ifelse} bdef
% line types: solid, dotted, dashed, dotdash
/SO { [] 0 setdash } bdef
/DO { [.5 dpi2point mul 4 dpi2point mul] 0 setdash } bdef
/DA { [6 dpi2point mul] 0 setdash } bdef
/DD { [.5 dpi2point mul 4 dpi2point mul 6 dpi2point mul 4
  dpi2point mul] 0 setdash } bdef
% macros for lines and objects
/L {lineto stroke} bdef
/MP {3 1 roll moveto 1 sub {rlineto} repeat} bdef
/AP {{rlineto} repeat} bdef
/PDlw -1 def
/W {/PDlw currentlinewidth def setlinewidth} def
/PP {closepath eofill} bdef
/DP {closepath stroke} bdef
/MR {4 -2 roll moveto dup  0 exch rlineto exch 0 rlineto
  neg 0 exch rlineto closepath} bdef
/FR {MR stroke} bdef
/PR {MR fill} bdef
/L1i {{currentfile picstr readhexstring pop} image} bdef
/tMatrix matrix def
/MakeOval {newpath tMatrix currentmatrix pop translate scale
0 0 1 0 360 arc tMatrix setmatrix} bdef
/FO {MakeOval stroke} bdef
/PO {MakeOval fill} bdef
/PD {currentlinewidth 2 div 0 360 arc fill
   PDlw -1 eq not {PDlw w /PDlw -1 def} if} def
/FA {newpath tMatrix currentmatrix pop translate scale
  0 0 1 5 -2 roll arc tMatrix setmatrix stroke} bdef
/PA {newpath tMatrix currentmatrix pop	translate 0 0 moveto scale
  0 0 1 5 -2 roll arc closepath tMatrix setmatrix fill} bdef
/FAn {newpath tMatrix currentmatrix pop translate scale
  0 0 1 5 -2 roll arcn tMatrix setmatrix stroke} bdef
/PAn {newpath tMatrix currentmatrix pop translate 0 0 moveto scale
  0 0 1 5 -2 roll arcn closepath tMatrix setmatrix fill} bdef
/vradius 0 def /hradius 0 def /lry 0 def
/lrx 0 def /uly 0 def /ulx 0 def /rad 0 def
/MRR {/vradius xdef /hradius xdef /lry xdef /lrx xdef /uly xdef
  /ulx xdef newpath tMatrix currentmatrix pop ulx hradius add uly
  vradius add translate hradius vradius scale 0 0 1 180 270 arc 
  tMatrix setmatrix lrx hradius sub uly vradius add translate
  hradius vradius scale 0 0 1 270 360 arc tMatrix setmatrix
  lrx hradius sub lry vradius sub translate hradius vradius scale
  0 0 1 0 90 arc tMatrix setmatrix ulx hradius add lry vradius sub
  translate hradius vradius scale 0 0 1 90 180 arc tMatrix setmatrix
  closepath} bdef
/FRR {MRR stroke } bdef
/PRR {MRR fill } bdef
/MlrRR {/lry xdef /lrx xdef /uly xdef /ulx xdef /rad lry uly sub 2 div def
  newpath tMatrix currentmatrix pop ulx rad add uly rad add translate
  rad rad scale 0 0 1 90 270 arc tMatrix setmatrix lrx rad sub lry rad
  sub translate rad rad scale 0 0 1 270 90 arc tMatrix setmatrix
  closepath} bdef
/FlrRR {MlrRR stroke } bdef
/PlrRR {MlrRR fill } bdef
/MtbRR {/lry xdef /lrx xdef /uly xdef /ulx xdef /rad lrx ulx sub 2 div def
  newpath tMatrix currentmatrix pop ulx rad add uly rad add translate
  rad rad scale 0 0 1 180 360 arc tMatrix setmatrix lrx rad sub lry rad
  sub translate rad rad scale 0 0 1 0 180 arc tMatrix setmatrix
  closepath} bdef
/FtbRR {MtbRR stroke } bdef
/PtbRR {MtbRR fill } bdef
/stri 6 array def /dtri 6 array def
/smat 6 array def /dmat 6 array def
/tmat1 6 array def /tmat2 6 array def /dif 3 array def
/asub {/ind2 exch def /ind1 exch def dup dup
  ind1 get exch ind2 get sub exch } bdef
/tri_to_matrix {
  2 0 asub 3 1 asub 4 0 asub 5 1 asub
  dup 0 get exch 1 get 7 -1 roll astore } bdef
/compute_transform {
  dmat dtri tri_to_matrix tmat1 invertmatrix 
  smat stri tri_to_matrix tmat2 concatmatrix } bdef
/ds {stri astore pop} bdef
/dt {dtri astore pop} bdef
/db {2 copy /cols xdef /rows xdef mul dup 3 mul string
  currentfile 
  3 index 0 eq {/ASCIIHexDecode filter}
  {/ASCII85Decode filter 3 index 2 eq {/RunLengthDecode filter} if }
  ifelse exch readstring pop
  dup 0 3 index getinterval /rbmap xdef
  dup 2 index dup getinterval /gbmap xdef
  1 index dup 2 mul exch getinterval /bbmap xdef pop pop}bdef
/it {gs np dtri aload pop moveto lineto lineto cp c
  cols rows 8 compute_transform 
  rbmap gbmap bbmap true 3 colorimage gr}bdef
/il {newpath moveto lineto stroke}bdef
currentdict end def
%%EndProlog

%%BeginSetup
MathWorks begin

0 cap

end
%%EndSetup

%%Page: 1 1
%%BeginPageSetup
%%PageBoundingBox:    87   262   507   578
MathWorks begin
bpage
%%EndPageSetup

%%BeginObject: obj1
bplot

/dpi2point 12 def
portraitMode 1044 6936 csm

    0     0  5045  3782 rc
85 dict begin %Colortable dictionary
/c0 { 0.000000 0.000000 0.000000 sr} bdef
/c1 { 1.000000 1.000000 1.000000 sr} bdef
/c2 { 0.900000 0.000000 0.000000 sr} bdef
/c3 { 0.000000 0.820000 0.000000 sr} bdef
/c4 { 0.000000 0.000000 0.800000 sr} bdef
/c5 { 0.910000 0.820000 0.320000 sr} bdef
/c6 { 1.000000 0.260000 0.820000 sr} bdef
/c7 { 0.000000 0.820000 0.820000 sr} bdef
c0
1 j
1 sg
   0    0 5046 3783 rf
6 w
0 3082 3910 0 0 -3082 656 3366 4 MP
PP
-3910 0 0 3082 3910 0 0 -3082 656 3366 5 MP stroke
4 w
DO
SO
6 w
0 sg
 656  284 mt 4566  284 L
 656 3366 mt 4566 3366 L
4566 3366 mt 4566  284 L
 656 3366 mt  656  284 L
 656 3366 mt 4566 3366 L
 656 3366 mt  656  284 L
 656 3366 mt  656 3326 L
 656  284 mt  656  323 L
%%IncludeResource: font Helvetica
/Helvetica /WindowsLatin1Encoding 120 FMSR

 623 3511 mt 
(0) s
1438 3366 mt 1438 3326 L
1438  284 mt 1438  323 L
1355 3511 mt 
(0.2) s
2220 3366 mt 2220 3326 L
2220  284 mt 2220  323 L
2137 3511 mt 
(0.4) s
3002 3366 mt 3002 3326 L
3002  284 mt 3002  323 L
2919 3511 mt 
(0.6) s
3784 3366 mt 3784 3326 L
3784  284 mt 3784  323 L
3701 3511 mt 
(0.8) s
4566 3366 mt 4566 3326 L
4566  284 mt 4566  323 L
4533 3511 mt 
(1) s
 656 3366 mt  695 3366 L
4566 3366 mt 4526 3366 L
 555 3410 mt 
(0) s
 656 2852 mt  695 2852 L
4566 2852 mt 4526 2852 L
 321 2896 mt 
(0.005) s
 656 2338 mt  695 2338 L
4566 2338 mt 4526 2338 L
 388 2382 mt 
(0.01) s
 656 1825 mt  695 1825 L
4566 1825 mt 4526 1825 L
 321 1869 mt 
(0.015) s
 656 1311 mt  695 1311 L
4566 1311 mt 4526 1311 L
 388 1355 mt 
(0.02) s
 656  797 mt  695  797 L
4566  797 mt 4526  797 L
 321  841 mt 
(0.025) s
 656  284 mt  695  284 L
4566  284 mt 4526  284 L
 388  328 mt 
(0.03) s
 656  284 mt 4566  284 L
 656 3366 mt 4566 3366 L
4566 3366 mt 4566  284 L
 656 3366 mt  656  284 L
gs 656 284 3911 3083 rc
19 43 20 42 19 43 20 42 19 43 20 42 19 42 20 42 
19 42 19 42 20 42 19 42 20 41 19 42 20 41 19 41 
20 40 19 41 20 40 19 40 19 40 20 40 19 39 20 39 
19 39 20 39 19 38 20 38 19 38 20 37 19 37 19 37 
20 36 19 36 20 35 19 35 20 35 19 35 20 34 19 33 
20 33 19 33 19 33 20 32 19 31 20 31 19 31 20 30 
19 29 20 30 19 28 19 28 20 28 19 27 20 27 19 26 
20 26 19 25 20 25 19 24 20 23 19 23 19 23 20 22 
19 21 20 21 19 20 20 20 19 19 20 18 19 18 20 17 
19 17 19 16 20 16 19 15 20 14 19 14 20 13 19 13 
20 12 19 11 20 11 19 10 19 9 20 9 19 8 20 8 
19 7 20 6 19 6 20 5 19 4 20 4 19 3 19 3 
20 2 19 1 20 1 19 0 20 -1 19 -1 20 -2 19 -3 
19 -3 20 -4 19 -4 20 -5 19 -6 20 -6 19 -7 20 -8 
19 -8 20 -9 19 -9 19 -10 20 -11 19 -11 20 -12 19 -13 
20 -13 19 -14 20 -14 19 -15 20 -16 19 -16 19 -17 20 -17 
19 -18 20 -18 19 -19 20 -20 19 -20 20 -21 19 -21 20 -22 
19 -23 19 -23 20 -23 19 -24 20 -25 19 -25 20 -26 19 -26 
20 -27 19 -27 20 -28 19 -28 19 -28 20 -30 19 -29 20 -30 
19 -31 20 -31 19 -31 20 -32 19 -33 19 -33 20 -33 19 -33 
20 -34 19 -35 20 -35 19 -35 20 -35 19 -36 20 -36 19 -37 
19 -37 20 -37 19 -38 20 -38 19 -38 20 -39 19 -39 20 -39 
19 -39 20 -40 19 -40 19 -40 20 -40 19 -41 20 -40 19 -41 
20 -41 19 -42 20 -41 19 -42 20 -42 19 -42 19 -42 20 -42 
19 -42 20 -42 19 -43 20 -42 19 -43 20 -42 19 -43 675 3323 200 MP stroke
gr

 650 3298 mt  700 3348 L
 700 3298 mt  650 3348 L
 669 3255 mt  719 3305 L
 719 3255 mt  669 3305 L
 689 3213 mt  739 3263 L
 739 3213 mt  689 3263 L
 708 3170 mt  758 3220 L
 758 3170 mt  708 3220 L
 728 3128 mt  778 3178 L
 778 3128 mt  728 3178 L
 747 3085 mt  797 3135 L
 797 3085 mt  747 3135 L
 767 3043 mt  817 3093 L
 817 3043 mt  767 3093 L
 786 3001 mt  836 3051 L
 836 3001 mt  786 3051 L
 806 2959 mt  856 3009 L
 856 2959 mt  806 3009 L
 825 2917 mt  875 2967 L
 875 2917 mt  825 2967 L
 844 2875 mt  894 2925 L
 894 2875 mt  844 2925 L
 864 2833 mt  914 2883 L
 914 2833 mt  864 2883 L
 883 2791 mt  933 2841 L
 933 2791 mt  883 2841 L
 903 2750 mt  953 2800 L
 953 2750 mt  903 2800 L
 922 2708 mt  972 2758 L
 972 2708 mt  922 2758 L
 942 2667 mt  992 2717 L
 992 2667 mt  942 2717 L
 961 2626 mt 1011 2676 L
1011 2626 mt  961 2676 L
 981 2586 mt 1031 2636 L
1031 2586 mt  981 2636 L
1000 2545 mt 1050 2595 L
1050 2545 mt 1000 2595 L
1020 2505 mt 1070 2555 L
1070 2505 mt 1020 2555 L
1039 2465 mt 1089 2515 L
1089 2465 mt 1039 2515 L
1058 2425 mt 1108 2475 L
1108 2425 mt 1058 2475 L
1078 2385 mt 1128 2435 L
1128 2385 mt 1078 2435 L
1097 2346 mt 1147 2396 L
1147 2346 mt 1097 2396 L
1117 2307 mt 1167 2357 L
1167 2307 mt 1117 2357 L
1136 2268 mt 1186 2318 L
1186 2268 mt 1136 2318 L
1156 2229 mt 1206 2279 L
1206 2229 mt 1156 2279 L
1175 2191 mt 1225 2241 L
1225 2191 mt 1175 2241 L
1195 2153 mt 1245 2203 L
1245 2153 mt 1195 2203 L
1214 2115 mt 1264 2165 L
1264 2115 mt 1214 2165 L
1234 2078 mt 1284 2128 L
1284 2078 mt 1234 2128 L
1253 2041 mt 1303 2091 L
1303 2041 mt 1253 2091 L
1272 2004 mt 1322 2054 L
1322 2004 mt 1272 2054 L
1292 1968 mt 1342 2018 L
1342 1968 mt 1292 2018 L
1311 1932 mt 1361 1982 L
1361 1932 mt 1311 1982 L
1331 1897 mt 1381 1947 L
1381 1897 mt 1331 1947 L
1350 1862 mt 1400 1912 L
1400 1862 mt 1350 1912 L
1370 1827 mt 1420 1877 L
1420 1827 mt 1370 1877 L
1389 1792 mt 1439 1842 L
1439 1792 mt 1389 1842 L
1409 1758 mt 1459 1808 L
1459 1758 mt 1409 1808 L
1428 1725 mt 1478 1775 L
1478 1725 mt 1428 1775 L
1448 1692 mt 1498 1742 L
1498 1692 mt 1448 1742 L
1467 1659 mt 1517 1709 L
1517 1659 mt 1467 1709 L
1486 1626 mt 1536 1676 L
1536 1626 mt 1486 1676 L
1506 1594 mt 1556 1644 L
1556 1594 mt 1506 1644 L
1525 1563 mt 1575 1613 L
1575 1563 mt 1525 1613 L
1545 1532 mt 1595 1582 L
1595 1532 mt 1545 1582 L
1564 1501 mt 1614 1551 L
1614 1501 mt 1564 1551 L
1584 1471 mt 1634 1521 L
1634 1471 mt 1584 1521 L
1603 1442 mt 1653 1492 L
1653 1442 mt 1603 1492 L
1623 1412 mt 1673 1462 L
1673 1412 mt 1623 1462 L
1642 1384 mt 1692 1434 L
1692 1384 mt 1642 1434 L
1661 1356 mt 1711 1406 L
1711 1356 mt 1661 1406 L
1681 1328 mt 1731 1378 L
1731 1328 mt 1681 1378 L
1700 1301 mt 1750 1351 L
1750 1301 mt 1700 1351 L
1720 1274 mt 1770 1324 L
1770 1274 mt 1720 1324 L
1739 1248 mt 1789 1298 L
1789 1248 mt 1739 1298 L
1759 1222 mt 1809 1272 L
1809 1222 mt 1759 1272 L
1778 1197 mt 1828 1247 L
1828 1197 mt 1778 1247 L
1798 1172 mt 1848 1222 L
1848 1172 mt 1798 1222 L
1817 1148 mt 1867 1198 L
1867 1148 mt 1817 1198 L
1837 1125 mt 1887 1175 L
1887 1125 mt 1837 1175 L
1856 1102 mt 1906 1152 L
1906 1102 mt 1856 1152 L
1875 1079 mt 1925 1129 L
1925 1079 mt 1875 1129 L
1895 1057 mt 1945 1107 L
1945 1057 mt 1895 1107 L
1914 1036 mt 1964 1086 L
1964 1036 mt 1914 1086 L
1934 1015 mt 1984 1065 L
1984 1015 mt 1934 1065 L
1953  995 mt 2003 1045 L
2003  995 mt 1953 1045 L
1973  975 mt 2023 1025 L
2023  975 mt 1973 1025 L
1992  956 mt 2042 1006 L
2042  956 mt 1992 1006 L
2012  938 mt 2062  988 L
2062  938 mt 2012  988 L
2031  920 mt 2081  970 L
2081  920 mt 2031  970 L
2051  903 mt 2101  953 L
2101  903 mt 2051  953 L
2070  886 mt 2120  936 L
2120  886 mt 2070  936 L
2089  870 mt 2139  920 L
2139  870 mt 2089  920 L
2109  854 mt 2159  904 L
2159  854 mt 2109  904 L
2128  839 mt 2178  889 L
2178  839 mt 2128  889 L
2148  825 mt 2198  875 L
2198  825 mt 2148  875 L
2167  811 mt 2217  861 L
2217  811 mt 2167  861 L
2187  798 mt 2237  848 L
2237  798 mt 2187  848 L
2206  785 mt 2256  835 L
2256  785 mt 2206  835 L
2226  773 mt 2276  823 L
2276  773 mt 2226  823 L
2245  762 mt 2295  812 L
2295  762 mt 2245  812 L
2265  751 mt 2315  801 L
2315  751 mt 2265  801 L
2284  741 mt 2334  791 L
2334  741 mt 2284  791 L
2303  732 mt 2353  782 L
2353  732 mt 2303  782 L
2323  723 mt 2373  773 L
2373  723 mt 2323  773 L
2342  715 mt 2392  765 L
2392  715 mt 2342  765 L
2362  707 mt 2412  757 L
2412  707 mt 2362  757 L
2381  700 mt 2431  750 L
2431  700 mt 2381  750 L
2401  694 mt 2451  744 L
2451  694 mt 2401  744 L
2420  688 mt 2470  738 L
2470  688 mt 2420  738 L
2440  683 mt 2490  733 L
2490  683 mt 2440  733 L
2459  679 mt 2509  729 L
2509  679 mt 2459  729 L
2479  675 mt 2529  725 L
2529  675 mt 2479  725 L
2498  672 mt 2548  722 L
2548  672 mt 2498  722 L
2517  669 mt 2567  719 L
2567  669 mt 2517  719 L
2537  667 mt 2587  717 L
2587  667 mt 2537  717 L
2556  666 mt 2606  716 L
2606  666 mt 2556  716 L
2576  665 mt 2626  715 L
2626  665 mt 2576  715 L
2595  665 mt 2645  715 L
2645  665 mt 2595  715 L
2615  666 mt 2665  716 L
2665  666 mt 2615  716 L
2634  667 mt 2684  717 L
2684  667 mt 2634  717 L
2654  669 mt 2704  719 L
2704  669 mt 2654  719 L
2673  672 mt 2723  722 L
2723  672 mt 2673  722 L
2692  675 mt 2742  725 L
2742  675 mt 2692  725 L
2712  679 mt 2762  729 L
2762  679 mt 2712  729 L
2731  683 mt 2781  733 L
2781  683 mt 2731  733 L
2751  688 mt 2801  738 L
2801  688 mt 2751  738 L
2770  694 mt 2820  744 L
2820  694 mt 2770  744 L
2790  700 mt 2840  750 L
2840  700 mt 2790  750 L
2809  707 mt 2859  757 L
2859  707 mt 2809  757 L
2829  715 mt 2879  765 L
2879  715 mt 2829  765 L
2848  723 mt 2898  773 L
2898  723 mt 2848  773 L
2868  732 mt 2918  782 L
2918  732 mt 2868  782 L
2887  741 mt 2937  791 L
2937  741 mt 2887  791 L
2906  751 mt 2956  801 L
2956  751 mt 2906  801 L
2926  762 mt 2976  812 L
2976  762 mt 2926  812 L
2945  773 mt 2995  823 L
2995  773 mt 2945  823 L
2965  785 mt 3015  835 L
3015  785 mt 2965  835 L
2984  798 mt 3034  848 L
3034  798 mt 2984  848 L
3004  811 mt 3054  861 L
3054  811 mt 3004  861 L
3023  825 mt 3073  875 L
3073  825 mt 3023  875 L
3043  839 mt 3093  889 L
3093  839 mt 3043  889 L
3062  854 mt 3112  904 L
3112  854 mt 3062  904 L
3082  870 mt 3132  920 L
3132  870 mt 3082  920 L
3101  886 mt 3151  936 L
3151  886 mt 3101  936 L
3120  903 mt 3170  953 L
3170  903 mt 3120  953 L
3140  920 mt 3190  970 L
3190  920 mt 3140  970 L
3159  938 mt 3209  988 L
3209  938 mt 3159  988 L
3179  956 mt 3229 1006 L
3229  956 mt 3179 1006 L
3198  975 mt 3248 1025 L
3248  975 mt 3198 1025 L
3218  995 mt 3268 1045 L
3268  995 mt 3218 1045 L
3237 1015 mt 3287 1065 L
3287 1015 mt 3237 1065 L
3257 1036 mt 3307 1086 L
3307 1036 mt 3257 1086 L
3276 1057 mt 3326 1107 L
3326 1057 mt 3276 1107 L
3296 1079 mt 3346 1129 L
3346 1079 mt 3296 1129 L
3315 1102 mt 3365 1152 L
3365 1102 mt 3315 1152 L
3334 1125 mt 3384 1175 L
3384 1125 mt 3334 1175 L
3354 1148 mt 3404 1198 L
3404 1148 mt 3354 1198 L
3373 1172 mt 3423 1222 L
3423 1172 mt 3373 1222 L
3393 1197 mt 3443 1247 L
3443 1197 mt 3393 1247 L
3412 1222 mt 3462 1272 L
3462 1222 mt 3412 1272 L
3432 1248 mt 3482 1298 L
3482 1248 mt 3432 1298 L
3451 1274 mt 3501 1324 L
3501 1274 mt 3451 1324 L
3471 1301 mt 3521 1351 L
3521 1301 mt 3471 1351 L
3490 1328 mt 3540 1378 L
3540 1328 mt 3490 1378 L
3510 1356 mt 3560 1406 L
3560 1356 mt 3510 1406 L
3529 1384 mt 3579 1434 L
3579 1384 mt 3529 1434 L
3548 1412 mt 3598 1462 L
3598 1412 mt 3548 1462 L
3568 1442 mt 3618 1492 L
3618 1442 mt 3568 1492 L
3587 1471 mt 3637 1521 L
3637 1471 mt 3587 1521 L
3607 1501 mt 3657 1551 L
3657 1501 mt 3607 1551 L
3626 1532 mt 3676 1582 L
3676 1532 mt 3626 1582 L
3646 1563 mt 3696 1613 L
3696 1563 mt 3646 1613 L
3665 1594 mt 3715 1644 L
3715 1594 mt 3665 1644 L
3685 1626 mt 3735 1676 L
3735 1626 mt 3685 1676 L
3704 1659 mt 3754 1709 L
3754 1659 mt 3704 1709 L
3723 1692 mt 3773 1742 L
3773 1692 mt 3723 1742 L
3743 1725 mt 3793 1775 L
3793 1725 mt 3743 1775 L
3762 1758 mt 3812 1808 L
3812 1758 mt 3762 1808 L
3782 1792 mt 3832 1842 L
3832 1792 mt 3782 1842 L
3801 1827 mt 3851 1877 L
3851 1827 mt 3801 1877 L
3821 1862 mt 3871 1912 L
3871 1862 mt 3821 1912 L
3840 1897 mt 3890 1947 L
3890 1897 mt 3840 1947 L
3860 1932 mt 3910 1982 L
3910 1932 mt 3860 1982 L
3879 1968 mt 3929 2018 L
3929 1968 mt 3879 2018 L
3899 2004 mt 3949 2054 L
3949 2004 mt 3899 2054 L
3918 2041 mt 3968 2091 L
3968 2041 mt 3918 2091 L
3937 2078 mt 3987 2128 L
3987 2078 mt 3937 2128 L
3957 2115 mt 4007 2165 L
4007 2115 mt 3957 2165 L
3976 2153 mt 4026 2203 L
4026 2153 mt 3976 2203 L
3996 2191 mt 4046 2241 L
4046 2191 mt 3996 2241 L
4015 2229 mt 4065 2279 L
4065 2229 mt 4015 2279 L
4035 2268 mt 4085 2318 L
4085 2268 mt 4035 2318 L
4054 2307 mt 4104 2357 L
4104 2307 mt 4054 2357 L
4074 2346 mt 4124 2396 L
4124 2346 mt 4074 2396 L
4093 2385 mt 4143 2435 L
4143 2385 mt 4093 2435 L
4113 2425 mt 4163 2475 L
4163 2425 mt 4113 2475 L
4132 2465 mt 4182 2515 L
4182 2465 mt 4132 2515 L
4151 2505 mt 4201 2555 L
4201 2505 mt 4151 2555 L
4171 2545 mt 4221 2595 L
4221 2545 mt 4171 2595 L
4190 2586 mt 4240 2636 L
4240 2586 mt 4190 2636 L
4210 2626 mt 4260 2676 L
4260 2626 mt 4210 2676 L
4229 2667 mt 4279 2717 L
4279 2667 mt 4229 2717 L
4249 2708 mt 4299 2758 L
4299 2708 mt 4249 2758 L
4268 2750 mt 4318 2800 L
4318 2750 mt 4268 2800 L
4288 2791 mt 4338 2841 L
4338 2791 mt 4288 2841 L
4307 2833 mt 4357 2883 L
4357 2833 mt 4307 2883 L
4327 2875 mt 4377 2925 L
4377 2875 mt 4327 2925 L
4346 2917 mt 4396 2967 L
4396 2917 mt 4346 2967 L
4365 2959 mt 4415 3009 L
4415 2959 mt 4365 3009 L
4385 3001 mt 4435 3051 L
4435 3001 mt 4385 3051 L
4404 3043 mt 4454 3093 L
4454 3043 mt 4404 3093 L
4424 3085 mt 4474 3135 L
4474 3085 mt 4424 3135 L
4443 3128 mt 4493 3178 L
4493 3128 mt 4443 3178 L
4463 3170 mt 4513 3220 L
4513 3170 mt 4463 3220 L
4482 3213 mt 4532 3263 L
4532 3213 mt 4482 3263 L
4502 3255 mt 4552 3305 L
4552 3255 mt 4502 3305 L
4521 3298 mt 4571 3348 L
4571 3298 mt 4521 3348 L
gs 656 284 3911 3083 rc
/c8 { 0.000000 0.000000 1.000000 sr} bdef
c8
19 20 20 20 19 20 20 19 19 20 20 20 19 19 20 20 
19 19 19 20 20 19 19 19 20 20 19 19 20 19 19 19 
20 19 19 18 20 19 19 18 19 19 20 18 19 18 20 18 
19 18 20 18 19 17 20 17 19 18 20 17 19 17 19 16 
20 17 19 16 20 16 19 16 20 16 19 16 20 15 19 16 
20 15 19 14 19 15 20 14 19 15 20 14 19 13 20 14 
19 13 20 13 19 13 19 13 20 12 19 13 20 12 19 11 
20 12 19 11 20 11 19 11 20 10 19 10 19 10 20 10 
19 10 20 9 19 9 20 9 19 8 20 8 19 8 20 8 
19 7 19 8 20 6 19 7 20 6 19 6 20 6 19 6 
20 5 19 5 20 5 19 4 19 4 20 4 19 4 20 3 
19 3 20 3 19 3 20 2 19 2 20 2 19 1 19 1 
20 1 19 0 20 1 19 0 20 -1 19 0 20 -1 19 -1 
19 -1 20 -2 19 -2 20 -2 19 -3 20 -3 19 -3 20 -3 
19 -4 20 -4 19 -4 19 -4 20 -5 19 -5 20 -5 19 -6 
20 -6 19 -6 20 -6 19 -7 20 -6 19 -8 19 -7 20 -8 
19 -8 20 -8 19 -8 20 -9 19 -9 20 -9 19 -10 20 -10 
19 -10 19 -10 20 -10 19 -11 20 -11 19 -11 20 -12 19 -11 
20 -12 19 -13 20 -12 19 -13 19 -13 20 -13 19 -13 20 -14 
19 -13 20 -14 19 -15 20 -14 19 -15 19 -14 20 -15 19 -16 
20 -15 19 -16 20 -16 19 -16 20 -16 19 -16 20 -17 19 -16 
19 -17 20 -17 19 -18 20 -17 19 -17 20 -18 19 -18 20 -18 
19 -18 20 -18 19 -19 19 -18 20 -19 19 -18 20 -19 19 -19 
20 -19 19 -19 20 -20 19 -19 20 -19 19 -20 19 -19 20 -20 
19 -19 20 -20 19 -20 20 -19 19 -20 20 -20 19 -20 675 3346 200 MP stroke
gr

c8
  36   36  675 3346 FO
  36   36  694 3326 FO
  36   36  714 3306 FO
  36   36  733 3286 FO
  36   36  753 3267 FO
  36   36  772 3247 FO
  36   36  792 3227 FO
  36   36  811 3208 FO
  36   36  831 3188 FO
  36   36  850 3169 FO
  36   36  869 3149 FO
  36   36  889 3130 FO
  36   36  908 3111 FO
  36   36  928 3091 FO
  36   36  947 3072 FO
  36   36  967 3053 FO
  36   36  986 3034 FO
  36   36 1006 3015 FO
  36   36 1025 2997 FO
  36   36 1045 2978 FO
  36   36 1064 2960 FO
  36   36 1083 2941 FO
  36   36 1103 2923 FO
  36   36 1122 2905 FO
  36   36 1142 2887 FO
  36   36 1161 2869 FO
  36   36 1181 2851 FO
  36   36 1200 2834 FO
  36   36 1220 2817 FO
  36   36 1239 2799 FO
  36   36 1259 2782 FO
  36   36 1278 2765 FO
  36   36 1297 2749 FO
  36   36 1317 2732 FO
  36   36 1336 2716 FO
  36   36 1356 2700 FO
  36   36 1375 2684 FO
  36   36 1395 2668 FO
  36   36 1414 2652 FO
  36   36 1434 2637 FO
  36   36 1453 2621 FO
  36   36 1473 2606 FO
  36   36 1492 2592 FO
  36   36 1511 2577 FO
  36   36 1531 2563 FO
  36   36 1550 2548 FO
  36   36 1570 2534 FO
  36   36 1589 2521 FO
  36   36 1609 2507 FO
  36   36 1628 2494 FO
  36   36 1648 2481 FO
  36   36 1667 2468 FO
  36   36 1686 2455 FO
  36   36 1706 2443 FO
  36   36 1725 2430 FO
  36   36 1745 2418 FO
  36   36 1764 2407 FO
  36   36 1784 2395 FO
  36   36 1803 2384 FO
  36   36 1823 2373 FO
  36   36 1842 2362 FO
  36   36 1862 2352 FO
  36   36 1881 2342 FO
  36   36 1900 2332 FO
  36   36 1920 2322 FO
  36   36 1939 2312 FO
  36   36 1959 2303 FO
  36   36 1978 2294 FO
  36   36 1998 2285 FO
  36   36 2017 2277 FO
  36   36 2037 2269 FO
  36   36 2056 2261 FO
  36   36 2076 2253 FO
  36   36 2095 2246 FO
  36   36 2114 2238 FO
  36   36 2134 2232 FO
  36   36 2153 2225 FO
  36   36 2173 2219 FO
  36   36 2192 2213 FO
  36   36 2212 2207 FO
  36   36 2231 2201 FO
  36   36 2251 2196 FO
  36   36 2270 2191 FO
  36   36 2290 2186 FO
  36   36 2309 2182 FO
  36   36 2328 2178 FO
  36   36 2348 2174 FO
  36   36 2367 2170 FO
  36   36 2387 2167 FO
  36   36 2406 2164 FO
  36   36 2426 2161 FO
  36   36 2445 2158 FO
  36   36 2465 2156 FO
  36   36 2484 2154 FO
  36   36 2504 2152 FO
  36   36 2523 2151 FO
  36   36 2542 2150 FO
  36   36 2562 2149 FO
  36   36 2581 2149 FO
  36   36 2601 2148 FO
  36   36 2620 2148 FO
  36   36 2640 2149 FO
  36   36 2659 2149 FO
  36   36 2679 2150 FO
  36   36 2698 2151 FO
  36   36 2717 2152 FO
  36   36 2737 2154 FO
  36   36 2756 2156 FO
  36   36 2776 2158 FO
  36   36 2795 2161 FO
  36   36 2815 2164 FO
  36   36 2834 2167 FO
  36   36 2854 2170 FO
  36   36 2873 2174 FO
  36   36 2893 2178 FO
  36   36 2912 2182 FO
  36   36 2931 2186 FO
  36   36 2951 2191 FO
  36   36 2970 2196 FO
  36   36 2990 2201 FO
  36   36 3009 2207 FO
  36   36 3029 2213 FO
  36   36 3048 2219 FO
  36   36 3068 2225 FO
  36   36 3087 2232 FO
  36   36 3107 2238 FO
  36   36 3126 2246 FO
  36   36 3145 2253 FO
  36   36 3165 2261 FO
  36   36 3184 2269 FO
  36   36 3204 2277 FO
  36   36 3223 2285 FO
  36   36 3243 2294 FO
  36   36 3262 2303 FO
  36   36 3282 2312 FO
  36   36 3301 2322 FO
  36   36 3321 2332 FO
  36   36 3340 2342 FO
  36   36 3359 2352 FO
  36   36 3379 2362 FO
  36   36 3398 2373 FO
  36   36 3418 2384 FO
  36   36 3437 2395 FO
  36   36 3457 2407 FO
  36   36 3476 2418 FO
  36   36 3496 2430 FO
  36   36 3515 2443 FO
  36   36 3535 2455 FO
  36   36 3554 2468 FO
  36   36 3573 2481 FO
  36   36 3593 2494 FO
  36   36 3612 2507 FO
  36   36 3632 2521 FO
  36   36 3651 2534 FO
  36   36 3671 2548 FO
  36   36 3690 2563 FO
  36   36 3710 2577 FO
  36   36 3729 2592 FO
  36   36 3748 2606 FO
  36   36 3768 2621 FO
  36   36 3787 2637 FO
  36   36 3807 2652 FO
  36   36 3826 2668 FO
  36   36 3846 2684 FO
  36   36 3865 2700 FO
  36   36 3885 2716 FO
  36   36 3904 2732 FO
  36   36 3924 2749 FO
  36   36 3943 2765 FO
  36   36 3962 2782 FO
  36   36 3982 2799 FO
  36   36 4001 2817 FO
  36   36 4021 2834 FO
  36   36 4040 2851 FO
  36   36 4060 2869 FO
  36   36 4079 2887 FO
  36   36 4099 2905 FO
  36   36 4118 2923 FO
  36   36 4138 2941 FO
  36   36 4157 2960 FO
  36   36 4176 2978 FO
  36   36 4196 2997 FO
  36   36 4215 3015 FO
  36   36 4235 3034 FO
  36   36 4254 3053 FO
  36   36 4274 3072 FO
  36   36 4293 3091 FO
  36   36 4313 3111 FO
  36   36 4332 3130 FO
  36   36 4352 3149 FO
  36   36 4371 3169 FO
  36   36 4390 3188 FO
  36   36 4410 3208 FO
  36   36 4429 3227 FO
  36   36 4449 3247 FO
  36   36 4468 3267 FO
  36   36 4488 3286 FO
  36   36 4507 3306 FO
  36   36 4527 3326 FO
  36   36 4546 3346 FO
gs 656 284 3911 3083 rc
gr

0 sg
2580 3654 mt 
(x) s
 239 1929 mt  -90 rotate
(u\(x\)) s
90 rotate
1932  189 mt 
(Solution of Au\(x\) = x\(1-x\)) s
 639 3409 mt 
( ) s
4550  326 mt 
( ) s
1 sg
0 334 1362 0 0 -334 3145 678 4 MP
PP
-1362 0 0 334 1362 0 0 -334 3145 678 5 MP stroke
4 w
DO
SO
6 w
0 sg
3145  344 mt 4507  344 L
3145  678 mt 4507  678 L
4507  678 mt 4507  344 L
3145  678 mt 3145  344 L
3145  678 mt 4507  678 L
3145  678 mt 3145  344 L
3145  344 mt 4507  344 L
3145  678 mt 4507  678 L
4507  678 mt 4507  344 L
3145  678 mt 3145  344 L
3618  479 mt 
(analytic) s
gs 3145 344 1363 335 rc
363 0 3217 436 2 MP stroke
gs 3326 363 147 147 rc
3374  411 mt 3424  461 L
3424  411 mt 3374  461 L
gr

gr

3618  628 mt 
(weighted Jacobi) s
gs 3145 344 1363 335 rc
c8
363 0 3217 585 2 MP stroke
gs 3326 512 147 147 rc
  36   36 3399  585 FO
gr

gr

c8

end %%Color Dict

eplot
%%EndObject

epage
end

showpage

%%Trailer
%%EOF
