\relax 
\providecommand\hyper@newdestlabel[2]{}
\bibstyle{plainnat}
\providecommand\HyperFirstAtBeginDocument{\AtBeginDocument}
\HyperFirstAtBeginDocument{\ifx\hyper@anchor\@undefined
\global\let\oldcontentsline\contentsline
\gdef\contentsline#1#2#3#4{\oldcontentsline{#1}{#2}{#3}}
\global\let\oldnewlabel\newlabel
\gdef\newlabel#1#2{\newlabelxx{#1}#2}
\gdef\newlabelxx#1#2#3#4#5#6{\oldnewlabel{#1}{{#2}{#3}}}
\AtEndDocument{\ifx\hyper@anchor\@undefined
\let\contentsline\oldcontentsline
\let\newlabel\oldnewlabel
\fi}
\fi}
\global\let\hyper@last\relax 
\gdef\HyperFirstAtBeginDocument#1{#1}
\providecommand\HyField@AuxAddToFields[1]{}
\providecommand\HyField@AuxAddToCoFields[2]{}
\select@language{UKenglish}
\@writefile{toc}{\select@language{UKenglish}}
\@writefile{lof}{\select@language{UKenglish}}
\@writefile{lot}{\select@language{UKenglish}}
\newlabel{poisson}{{{\ensuremath  {\mathcal  {P}^{\mathrm  {1D}}}}}{1}{Poisson-probleem}{AMS.2}{}}
\@writefile{toc}{\contentsline {paragraph}{Input:}{2}{section*.4}}
\@writefile{toc}{\contentsline {paragraph}{Output:}{2}{section*.5}}
\bibdata{bibtex/opdrachtStationaireMethoden}
